# nCh	nF	nN
1	720	60
# node	nGenPack 
1	6
2	3
3	1
4	3
5	7
6	9
7	2
8	8
9	4
10	4
11	4
12	9
13	1
14	5
15	1
16	7
17	7
18	4
19	4
20	4
21	7
22	4
23	1
24	3
25	4
26	4
27	1
28	6
29	5
30	6
31	8
32	6
33	3
34	3
35	3
36	8
37	10
38	6
39	3
40	6
41	6
42	10
43	6
44	4
45	8
46	6
47	7
48	10
49	9
50	4
51	4
52	9
53	1
54	1
55	10
56	3
57	7
58	1
59	5
# nReplicas nParentLinks 
4	5
#Connectivity Graph 
# n1		n2	quality  master (Physical connectivity) 
0	1	0.9861933	1
0	2	0.78728443	1
1	3	0.89299583	0
1	4	0.8701916	0
1	5	0.96499693	0
1	6	0.9579455	0
1	7	0.90969485	0
1	8	0.9857412	0
1	9	0.9708628	0
1	10	0.8546329	0
1	11	0.93798584	0
1	12	0.89659756	0
1	13	0.8703726	0
1	14	0.88132805	0
2	3	0.9849933	0
2	4	0.7545432	0
2	5	0.8806975	0
2	6	0.9691451	0
2	7	0.9534309	0
2	8	0.87449795	0
2	9	0.98087716	0
2	10	0.89900124	0
2	11	0.9639998	0
2	12	0.87152493	0
2	13	0.8841373	0
2	14	0.88546395	0
3	19	0.98112714	0
3	20	0.91465807	0
3	26	0.8527584	0
4	22	0.8562885	0
4	24	0.9965285	0
4	26	0.9490676	0
4	3	0.86643785	0
4	5	0.725831	0
4	6	0.90841246	0
5	15	0.86692625	0
5	16	0.76395667	0
5	18	0.85349023	0
5	23	0.8674263	0
5	3	0.91827554	0
5	10	0.85874134	0
6	23	0.9543583	0
6	24	0.89325374	0
6	25	0.94527984	0
6	3	0.98121256	0
6	10	0.6667253	0
7	22	0.92185897	0
7	6	0.6649331	0
7	11	0.8787538	0
7	13	0.8943698	0
8	16	0.7669641	0
8	20	0.86482435	0
8	4	0.90798277	0
8	6	0.9701189	0
8	9	0.949497	0
8	10	0.69133574	0
8	12	0.8781323	0
9	17	0.9475422	0
9	18	0.889809	0
9	19	0.9518668	0
9	20	0.9506576	0
9	22	0.9157711	0
9	27	0.862864	0
9	6	0.89177495	0
9	11	0.95535886	0
9	13	0.94336694	0
9	14	0.8692816	0
10	17	0.955083	0
10	21	0.8565797	0
10	22	0.90134853	0
10	26	0.93326974	0
10	27	0.93149	0
10	4	0.9577478	0
10	9	0.9934283	0
11	15	0.9747603	0
11	21	0.9329914	0
11	23	0.9933658	0
11	25	0.8606912	0
11	3	0.9303538	0
11	5	0.9564536	0
11	10	0.9172884	0
12	15	0.72548103	0
12	17	0.869124	0
12	18	0.94222593	0
12	22	0.87991923	0
12	26	0.9592239	0
12	3	0.9007003	0
12	4	0.9475014	0
12	5	0.7681536	0
12	6	0.8912473	0
12	10	0.98502326	0
13	22	0.7315622	0
13	25	0.99166954	0
13	3	0.9321599	0
13	5	0.86693114	0
13	6	0.7169432	0
13	8	0.90313584	0
14	18	0.9771184	0
14	21	0.77587795	0
14	22	0.9198101	0
14	3	0.91409653	0
14	10	0.66410744	0
14	11	0.9165907	0
15	23	0.87191975	0
16	29	0.94424784	0
16	30	0.86398125	0
16	31	0.8102599	0
16	32	0.96616197	0
16	33	0.9518157	0
16	17	0.93478304	0
16	19	0.75464183	0
16	21	0.87977004	0
16	23	0.9683762	0
17	28	0.9283693	0
17	30	0.66849697	0
17	33	0.97289485	0
17	34	0.99267006	0
17	23	0.7370741	0
18	28	0.9354429	0
18	31	0.92414397	0
18	34	0.8546244	0
18	35	0.901423	0
18	19	0.8601932	0
18	25	0.9452509	0
19	30	0.9476768	0
19	31	0.9871765	0
19	15	0.76642364	0
19	17	0.8769034	0
19	21	0.8713829	0
19	25	0.9011521	0
19	27	0.99257225	0
20	30	0.9575451	0
20	32	0.77734405	0
20	35	0.94499415	0
20	17	0.94674724	0
20	19	0.9627329	0
20	27	0.93479234	0
21	31	0.88757604	0
21	15	0.9925488	0
21	17	0.957657	0
21	27	0.77821094	0
22	32	0.930562	0
22	19	0.85281914	0
23	32	0.8523527	0
23	18	0.8962988	0
23	19	0.98482704	0
23	21	0.96512294	0
23	27	0.96533597	0
24	29	0.8634635	0
24	15	0.9111273	0
24	25	0.98264927	0
25	15	0.95585126	0
25	17	0.8540469	0
25	27	0.70937556	0
26	35	0.88077116	0
26	15	0.87890494	0
26	17	0.960962	0
26	19	0.8915041	0
26	25	0.9548742	0
26	27	0.99780685	0
27	28	0.914477	0
27	35	0.867084	0
27	17	0.941469	0
27	18	0.9738484	0
28	38	0.88952476	0
28	44	0.8934555	0
28	45	0.94915503	0
28	46	0.9885006	0
28	48	0.9995461	0
28	55	0.9016056	0
28	33	0.91046524	0
29	36	0.9859908	0
29	37	0.9585993	0
29	38	0.90869594	0
29	39	0.7073614	0
29	41	0.96543425	0
29	42	0.9773579	0
29	44	0.8759359	0
29	47	0.8848667	0
29	48	0.884215	0
29	50	0.9589517	0
29	51	0.948575	0
29	52	0.9059822	0
29	53	0.9400838	0
29	56	0.90935796	0
29	28	0.86782736	0
29	31	0.89265186	0
29	33	0.65320605	0
30	36	0.840173	0
30	44	0.99447453	0
30	45	0.97819084	0
30	47	0.9019499	0
30	50	0.8583635	0
30	52	0.86439496	0
30	53	0.9265706	0
30	54	0.8677747	0
30	57	0.9721187	0
30	58	0.87442434	0
31	36	0.77934146	0
31	37	0.888264	0
31	38	0.9171459	0
31	39	0.86170727	0
31	40	0.90185666	0
31	42	0.96436745	0
31	43	0.9570129	0
31	48	0.7271258	0
31	54	0.85792726	0
31	55	0.938104	0
31	59	0.8807948	0
31	34	0.7881517	0
32	41	0.9398221	0
32	42	0.97750205	0
32	48	0.87479913	0
32	55	0.93532723	0
32	56	0.9033102	0
32	58	0.8950291	0
32	59	0.8572325	0
32	33	0.92475116	0
33	44	0.8869996	0
33	46	0.96611905	0
33	48	0.921316	0
33	50	0.88537335	0
33	53	0.7471121	0
33	54	0.8634004	0
33	57	0.99482113	0
33	58	0.98023164	0
33	59	0.92661816	0
33	30	0.9208288	0
33	31	0.97660166	0
34	36	0.9539059	0
34	37	0.91493726	0
34	38	0.914236	0
34	40	0.9068517	0
34	41	0.93163055	0
34	42	0.9881901	0
34	43	0.8526243	0
34	44	0.9712525	0
34	46	0.86235344	0
34	48	0.9798013	0
34	49	0.99302804	0
34	51	0.93085116	0
34	57	0.8698445	0
34	58	0.94423276	0
35	37	0.9699345	0
35	41	0.9309963	0
35	45	0.90564156	0
35	46	0.87579346	0
35	49	0.9468578	0
35	53	0.7651625	0
35	54	0.9819864	0
35	58	0.9444997	0
35	59	0.8614622	0
35	33	0.94007117	0
36	39	0.95849055	0
36	49	0.913473	0
36	53	0.9263692	0
37	36	0.90763634	0
37	46	0.871591	0
37	55	0.88419855	0
38	39	0.9298411	0
38	42	0.85258824	0
38	45	0.8989668	0
38	53	0.723003	0
38	59	0.95024574	0
39	49	0.9404242	0
39	53	0.8837991	0
39	59	0.9745964	0
40	36	0.9719654	0
40	37	0.90990895	0
40	38	0.884593	0
40	39	0.93719447	0
40	46	0.8879905	0
40	50	0.9009373	0
40	52	0.9437611	0
40	53	0.9360439	0
40	54	0.8979314	0
40	56	0.8859187	0
40	59	0.9449167	0
41	37	0.9477771	0
41	39	0.8759883	0
41	43	0.70703363	0
41	49	0.9642357	0
41	57	0.9956467	0
42	36	0.65355957	0
42	46	0.90258	0
42	49	0.96684974	0
42	59	0.7773649	0
43	37	0.9616973	0
43	38	0.95879954	0
43	39	0.90668	0
43	46	0.9519265	0
43	54	0.95959985	0
43	57	0.84145737	0
44	36	0.85140574	0
44	37	0.9343896	0
44	42	0.8632165	0
44	43	0.81975174	0
44	45	0.96685743	0
44	46	0.9301137	0
44	51	0.95748657	0
44	52	0.96755815	0
44	54	0.8654771	0
44	57	0.94581866	0
44	59	0.937182	0
45	36	0.6811247	0
45	37	0.71866524	0
45	39	0.94992185	0
45	41	0.93328667	0
45	42	0.9829543	0
45	46	0.9708689	0
45	49	0.96537465	0
45	56	0.97234124	0
46	36	0.89046	0
46	38	0.9310326	0
46	39	0.9803035	0
46	41	0.9398054	0
46	59	0.79910064	0
47	36	0.98666674	0
47	37	0.8939578	0
47	39	0.93464565	0
47	41	0.97356343	0
47	42	0.93023366	0
47	43	0.9820016	0
47	45	0.99925584	0
47	46	0.85254586	0
47	50	0.8624045	0
47	52	0.9883389	0
47	53	0.8924758	0
47	54	0.87835497	0
48	37	0.7376303	0
48	39	0.97559106	0
48	41	0.9121297	0
48	45	0.8939052	0
48	46	0.97247994	0
48	50	0.85947675	0
48	52	0.8823295	0
49	38	0.8739367	0
49	43	0.99439204	0
50	37	0.65601176	0
50	39	0.8546756	0
50	41	0.93522346	0
50	42	0.9919779	0
50	45	0.8376626	0
50	46	0.9051325	0
50	49	0.8701606	0
50	51	0.9975694	0
51	41	0.86873066	0
51	53	0.8559231	0
51	57	0.86043954	0
52	37	0.9365029	0
52	38	0.95640486	0
52	39	0.8842722	0
52	42	0.86375964	0
52	43	0.9851561	0
52	45	0.9039378	0
52	46	0.8514396	0
52	49	0.8950334	0
52	53	0.8504179	0
52	55	0.9546715	0
53	37	0.9803236	0
53	41	0.85203075	0
53	42	0.95014673	0
53	43	0.95493525	0
53	45	0.9004385	0
53	46	0.9118775	0
53	49	0.90744144	0
53	50	0.88292557	0
54	37	0.94550407	0
54	42	0.98681045	0
54	45	0.94496334	0
54	49	0.8646086	0
54	50	0.8792517	0
55	38	0.8879934	0
55	40	0.7927682	0
55	41	0.8769852	0
55	43	0.9862542	0
55	49	0.8800844	0
55	50	0.8983237	0
55	51	0.9771217	0
55	54	0.98325175	0
56	38	0.94430465	0
56	42	0.8771951	0
56	43	0.8852575	0
56	46	0.9803115	0
56	49	0.8685134	0
56	50	0.90346634	0
56	53	0.87040997	0
56	54	0.94335884	0
56	59	0.96550536	0
57	38	0.97935873	0
57	39	0.9282157	0
57	42	0.99222416	0
57	45	0.8553138	0
57	56	0.8990438	0
58	37	0.95917094	0
58	41	0.95725197	0
58	45	0.99917364	0
58	46	0.86997056	0
58	50	0.98310304	0
58	53	0.9986472	0
58	54	0.99568754	0
58	55	0.98804843	0
58	56	0.98027486	0
58	59	0.9430733	0
59	37	0.87433165	0
59	41	0.8959995	0
59	45	0.855979	0
59	49	0.89868283	0
59	52	0.98300654	0
59	53	0.86092645	0
59	57	0.95997614	0
# Tree 
# node parent parent parent ... 
59	35	31	33	32	
58	34	35	32	30	33	
57	30	34	33	
56	29	32	
55	31	32	28	
54	31	30	35	33	
53	30	33	29	35	
52	29	30	
51	34	29	
50	30	33	29	
49	35	34	
48	28	34	33	32	29	
47	29	30	
46	28	33	34	35	
45	30	28	35	
44	34	29	28	30	33	
43	34	31	
42	31	34	29	32	
41	34	32	29	35	
40	34	31	
39	29	31	
38	34	31	29	28	
37	34	31	29	35	
36	31	34	30	29	
35	20	27	18	26	
34	18	17	
33	16	17	
32	16	23	20	22	
31	18	16	21	19	
30	17	19	20	16	
29	24	16	
28	17	27	18	
27	10	9	
26	4	10	12	3	
25	13	6	11	
24	6	4	
23	5	11	6	
22	9	14	4	13	12	
21	10	14	11	
20	9	8	3	
19	9	3	
18	12	14	5	9	
17	10	12	9	
16	5	8	
15	11	12	5	
14	2	1	
13	2	1	
12	1	2	
11	1	2	
10	1	2	
9	1	2	
8	2	1	
7	2	1	
6	1	2	
5	1	2	
4	2	1	
3	2	1	
2	0	
1	0	
