# nCh	nF	nN
4	720	60
# node	nGenPack 
1	10
2	8
3	5
4	10
5	6
6	9
7	6
8	3
9	10
10	1
11	3
12	2
13	3
14	9
15	1
16	8
17	8
18	1
19	1
20	4
21	7
22	7
23	1
24	6
25	1
26	9
27	9
28	6
29	3
30	4
31	2
32	10
33	5
34	1
35	1
36	8
37	1
38	9
39	8
40	9
41	2
42	6
43	5
44	5
45	1
46	7
47	8
48	3
49	4
50	4
51	7
52	10
53	7
54	10
55	10
56	2
57	8
58	2
59	3
# nReplicas nParentLinks 
1	5
#Connectivity Graph 
# n1		n2	quality  master (Physical connectivity) 
0	1	0.85595745	1
0	2	0.8733718	1
1	3	0.6724944	0
1	4	0.8630561	0
1	5	0.768553	0
1	6	0.90168524	0
1	7	0.94558954	0
1	8	0.9309819	0
1	9	0.9259622	0
2	3	0.7764422	0
2	4	0.87290734	0
2	5	0.97949076	0
2	6	0.9503663	0
2	7	0.95985436	0
2	8	0.710625	0
2	9	0.8715627	0
2	1	0.81473696	0
3	10	0.9350953	0
3	11	0.9264782	0
3	12	0.946667	0
3	13	0.94393986	0
4	11	0.9982259	0
4	13	0.9173254	0
4	5	0.87436837	0
4	7	0.85692966	0
4	8	0.9258864	0
5	10	0.87345284	0
5	13	0.862863	0
5	15	0.96569276	0
5	3	0.97386277	0
6	10	0.98796916	0
6	11	0.868697	0
6	12	0.68351394	0
6	13	0.92228585	0
6	14	0.85621536	0
6	4	0.89338845	0
6	9	0.9607298	0
7	10	0.96443367	0
7	14	0.9969385	0
7	15	0.9459107	0
7	6	0.9732204	0
7	9	0.9286365	0
8	10	0.9746004	0
8	11	0.91642725	0
8	12	0.91632736	0
8	13	0.87687534	0
8	3	0.92872316	0
8	5	0.90136874	0
8	7	0.8507281	0
8	9	0.9958202	0
9	10	0.9015664	0
9	14	0.8971386	0
9	15	0.83426946	0
9	3	0.9052146	0
10	18	0.91742545	0
10	12	0.8839659	0
10	14	0.9563893	0
11	16	0.9343266	0
11	17	0.9598184	0
11	18	0.86186	0
11	19	0.96697664	0
12	17	0.9024404	0
12	18	0.93243974	0
13	17	0.8847283	0
13	18	0.9838571	0
13	19	0.9351828	0
13	15	0.9866027	0
14	16	0.6545913	0
14	19	0.9717851	0
14	12	0.93109596	0
15	17	0.92662394	0
15	18	0.8900883	0
15	19	0.94676244	0
15	11	0.87042725	0
15	12	0.99241614	0
16	20	0.8697079	0
16	22	0.9574438	0
16	23	0.88288707	0
16	24	0.8559298	0
16	25	0.84211534	0
16	27	0.98154294	0
16	28	0.6501329	0
16	29	0.97525537	0
16	30	0.865328	0
16	33	0.8641621	0
16	34	0.8840797	0
16	35	0.9446355	0
16	36	0.949535	0
16	39	0.8881471	0
16	40	0.94457525	0
16	41	0.9023346	0
16	42	0.966878	0
16	43	0.9084904	0
16	44	0.8708156	0
16	45	0.79810584	0
16	47	0.99017876	0
16	48	0.9776666	0
16	49	0.9898491	0
17	20	0.899711	0
17	21	0.8779613	0
17	22	0.9973808	0
17	23	0.92414194	0
17	25	0.8712228	0
17	26	0.8842436	0
17	27	0.85679233	0
17	29	0.76271176	0
17	31	0.9178463	0
17	32	0.85988086	0
17	33	0.91266334	0
17	34	0.9741074	0
17	35	0.91273797	0
17	37	0.79991406	0
17	38	0.87361586	0
17	43	0.9530832	0
17	45	0.9349636	0
17	46	0.98304594	0
17	47	0.9201592	0
17	48	0.7620709	0
17	49	0.9782721	0
18	23	0.89430743	0
18	25	0.97307867	0
18	26	0.97122437	0
18	27	0.87905735	0
18	28	0.97348374	0
18	29	0.92752624	0
18	30	0.98675424	0
18	31	0.99397856	0
18	32	0.93833804	0
18	35	0.8929488	0
18	36	0.9136007	0
18	38	0.84351474	0
18	41	0.92712104	0
18	43	0.85881364	0
18	45	0.8923477	0
18	46	0.96037674	0
18	47	0.7298572	0
18	48	0.8853262	0
18	49	0.95121235	0
19	21	0.891143	0
19	22	0.9004348	0
19	24	0.9259712	0
19	25	0.9355262	0
19	26	0.8726167	0
19	27	0.91904175	0
19	29	0.91811204	0
19	31	0.96355873	0
19	35	0.8511329	0
19	37	0.8581212	0
19	39	0.9253922	0
19	40	0.8836825	0
19	42	0.937822	0
19	43	0.9198022	0
19	44	0.85498947	0
19	45	0.90529466	0
19	46	0.9523628	0
19	47	0.87358123	0
19	48	0.99554604	0
19	49	0.8785613	0
20	59	0.8683994	0
20	24	0.91042084	0
20	27	0.87083405	0
20	39	0.777379	0
20	40	0.907318	0
20	42	0.66651344	0
20	44	0.93409675	0
20	45	0.9517696	0
20	46	0.88566995	0
20	47	0.8870786	0
20	49	0.8511731	0
21	50	0.85960644	0
21	53	0.9809115	0
21	23	0.9258165	0
21	25	0.8576095	0
21	26	0.9284361	0
21	29	0.99962556	0
21	30	0.8625681	0
21	38	0.9403162	0
21	40	0.9884312	0
21	44	0.89236265	0
21	47	0.90255076	0
21	48	0.8891064	0
21	49	0.6582333	0
22	50	0.88365775	0
22	53	0.8927336	0
22	25	0.89148825	0
22	26	0.8652047	0
22	28	0.9900352	0
22	35	0.9171857	0
22	36	0.9475442	0
22	40	0.76689154	0
22	45	0.8915923	0
23	50	0.8556536	0
23	53	0.6960931	0
23	55	0.97595924	0
23	56	0.95554036	0
23	22	0.99406177	0
23	28	0.86921865	0
23	29	0.86625445	0
23	36	0.90506035	0
23	37	0.9845466	0
23	48	0.8826253	0
24	50	0.7782473	0
24	53	0.85662645	0
24	55	0.8607514	0
24	57	0.9273176	0
24	58	0.9604036	0
24	21	0.99820495	0
24	23	0.92314404	0
24	33	0.67801	0
24	48	0.99417734	0
25	50	0.84355986	0
25	23	0.89502263	0
25	24	0.92133695	0
25	29	0.89697075	0
25	30	0.89406514	0
25	36	0.94315904	0
25	40	0.98605514	0
25	47	0.89203805	0
25	48	0.88802135	0
26	50	0.86938334	0
26	58	0.93434876	0
26	59	0.89237964	0
26	20	0.91083544	0
26	24	0.91958654	0
26	25	0.98322266	0
26	30	0.8699303	0
26	34	0.8929854	0
26	40	0.8646358	0
26	43	0.9765769	0
26	44	0.90584135	0
27	53	0.768904	0
27	22	0.86823857	0
27	24	0.960978	0
27	25	0.85630184	0
27	30	0.71560967	0
27	36	0.93228716	0
27	39	0.8842781	0
28	50	0.66560763	0
28	53	0.93061054	0
28	58	0.835302	0
28	24	0.6503306	0
28	25	0.9469816	0
28	26	0.99493515	0
28	29	0.76813596	0
28	39	0.8272679	0
28	40	0.93797135	0
28	42	0.9355627	0
28	43	0.9952264	0
28	45	0.91898066	0
29	53	0.882696	0
29	58	0.7460833	0
29	22	0.89706737	0
29	24	0.8726653	0
29	31	0.866306	0
29	35	0.94009215	0
29	39	0.8797114	0
29	40	0.9641199	0
29	42	0.6562477	0
29	47	0.97532743	0
29	48	0.9010986	0
30	50	0.7272894	0
30	58	0.8739028	0
30	20	0.76133037	0
30	22	0.7266095	0
30	24	0.9222363	0
30	28	0.9177889	0
30	31	0.92974645	0
30	37	0.85667795	0
30	39	0.8210885	0
31	50	0.9413171	0
31	53	0.935137	0
31	58	0.9209646	0
31	23	0.90548986	0
31	25	0.8547648	0
31	27	0.9565269	0
31	28	0.9554708	0
31	36	0.715926	0
31	38	0.9920893	0
31	39	0.91795987	0
31	44	0.9770984	0
31	48	0.90038687	0
32	57	0.9562101	0
32	59	0.9718942	0
32	23	0.9947548	0
32	24	0.95410246	0
32	27	0.9004333	0
32	29	0.91708595	0
32	30	0.91073817	0
32	31	0.8707454	0
32	36	0.92509514	0
32	37	0.97495425	0
32	42	0.9513097	0
32	48	0.9834775	0
33	50	0.9314744	0
33	53	0.93589693	0
33	55	0.97961104	0
33	58	0.9336479	0
33	23	0.9622439	0
33	25	0.9066983	0
33	28	0.91686004	0
33	34	0.927183	0
33	38	0.99339545	0
34	53	0.9585683	0
34	54	0.9460729	0
34	57	0.89056945	0
34	22	0.8885152	0
34	25	0.79187816	0
34	27	0.9256006	0
34	28	0.7874296	0
34	29	0.9356501	0
34	30	0.98155427	0
34	42	0.9527271	0
34	46	0.87039155	0
35	53	0.9638953	0
35	57	0.92054695	0
35	20	0.86252034	0
35	23	0.8592532	0
35	24	0.95128703	0
35	26	0.962399	0
35	30	0.99714655	0
35	34	0.8646641	0
35	36	0.89193785	0
35	42	0.95907503	0
35	45	0.9029209	0
35	49	0.8958218	0
36	50	0.9842349	0
36	53	0.9080011	0
36	24	0.7639207	0
36	26	0.9724468	0
36	28	0.86754954	0
36	30	0.8856345	0
36	34	0.9734326	0
36	38	0.89828044	0
36	42	0.9667154	0
36	49	0.97052664	0
37	52	0.9077476	0
37	25	0.8263216	0
37	26	0.9960607	0
37	29	0.89037913	0
37	34	0.95140815	0
37	39	0.8605351	0
37	40	0.91759145	0
37	49	0.9098743	0
38	50	0.96401435	0
38	53	0.8711186	0
38	54	0.92687494	0
38	58	0.9999458	0
38	20	0.86984456	0
38	22	0.8699585	0
38	23	0.99677	0
38	24	0.964644	0
38	25	0.91998416	0
38	26	0.85301197	0
38	27	0.8874989	0
38	29	0.8926903	0
38	34	0.882004	0
38	44	0.91937894	0
39	55	0.86754483	0
39	23	0.9043484	0
39	24	0.9760692	0
39	25	0.8848986	0
39	34	0.93067276	0
39	36	0.9879703	0
39	38	0.94849914	0
39	45	0.88444906	0
39	46	0.8819335	0
39	47	0.74645865	0
40	50	0.94130385	0
40	51	0.9641214	0
40	53	0.9687989	0
40	59	0.8654528	0
40	27	0.8984847	0
40	30	0.9347853	0
40	32	0.90559083	0
40	34	0.87471026	0
40	36	0.89891344	0
40	38	0.92655915	0
40	39	0.9502041	0
40	43	0.9425614	0
40	47	0.9822237	0
41	50	0.82898974	0
41	52	0.9138171	0
41	53	0.92683434	0
41	58	0.9581493	0
41	59	0.8662932	0
41	23	0.87832636	0
41	24	0.9010186	0
41	25	0.6942449	0
41	27	0.95186883	0
41	28	0.90668756	0
41	30	0.9325917	0
41	31	0.9860254	0
41	34	0.9364336	0
41	36	0.9358076	0
41	40	0.86390287	0
41	46	0.9551832	0
41	49	0.8006209	0
42	50	0.9489347	0
42	53	0.6872471	0
42	54	0.9330543	0
42	58	0.89921594	0
42	59	0.84818476	0
42	22	0.88600796	0
42	24	0.8517753	0
42	25	0.93572557	0
42	27	0.71762645	0
42	30	0.9932731	0
42	39	0.96147215	0
42	40	0.86953133	0
42	47	0.94719243	0
42	49	0.99703294	0
43	54	0.9031098	0
43	56	0.93068534	0
43	58	0.89329976	0
43	20	0.85235053	0
43	22	0.99739665	0
43	23	0.96447676	0
43	24	0.94693977	0
43	31	0.99079967	0
43	32	0.8999111	0
43	34	0.93857807	0
43	37	0.6576691	0
43	39	0.8630986	0
43	42	0.91578496	0
44	50	0.9843247	0
44	51	0.9958078	0
44	53	0.95672834	0
44	56	0.9023553	0
44	58	0.7766824	0
44	22	0.9091334	0
44	23	0.92205155	0
44	24	0.96555316	0
44	25	0.8631744	0
44	30	0.9533657	0
44	35	0.9444623	0
44	40	0.94797164	0
45	53	0.9542037	0
45	58	0.9061545	0
45	59	0.8820882	0
45	24	0.8931047	0
45	25	0.7136819	0
45	27	0.9485895	0
45	29	0.9955649	0
45	30	0.9019662	0
45	32	0.9732665	0
45	34	0.92202115	0
45	36	0.87954545	0
45	42	0.90813714	0
45	43	0.91525525	0
46	53	0.8003395	0
46	58	0.888763	0
46	59	0.8946018	0
46	24	0.97366655	0
46	28	0.940184	0
46	29	0.8954276	0
46	33	0.8638222	0
46	36	0.85443276	0
46	37	0.9971934	0
46	42	0.92541075	0
46	43	0.86616725	0
46	47	0.7489103	0
46	48	0.9245343	0
47	53	0.90728223	0
47	58	0.9216169	0
47	24	0.8516112	0
47	27	0.93675196	0
47	28	0.99428904	0
47	32	0.7548463	0
47	34	0.92085785	0
47	36	0.9209859	0
47	44	0.9316653	0
48	50	0.8510339	0
48	20	0.9219272	0
48	28	0.7267577	0
48	30	0.99854934	0
48	35	0.85093415	0
48	36	0.94963986	0
48	37	0.9755941	0
48	38	0.96924746	0
48	39	0.88338774	0
48	40	0.9800891	0
48	42	0.9224665	0
49	50	0.95076495	0
49	53	0.9175656	0
49	58	0.993942	0
49	22	0.92000055	0
49	23	0.85173637	0
49	30	0.9320081	0
49	39	0.96818626	0
49	43	0.99080366	0
49	44	0.9766039	0
49	47	0.9462257	0
50	52	0.91585284	0
53	51	0.99540627	0
53	55	0.8950226	0
54	51	0.7353452	0
54	52	0.95955294	0
55	51	0.9779133	0
55	52	0.8709288	0
57	51	0.94194806	0
57	52	0.8840491	0
57	54	0.971545	0
57	55	0.888996	0
58	55	0.9372236	0
59	54	0.9822934	0
# Tree 
# node parent parent parent ... 
59	40	26	32	45	20	
58	30	41	44	43	46	
57	24	35	32	34	
56	44	23	43	
55	24	33	23	39	
54	42	38	43	34	
53	36	47	46	31	49	
52	37	41	
51	40	44	
50	40	31	23	36	26	
49	17	18	16	19	
48	19	18	17	16	
47	18	19	17	16	
46	18	17	19	
45	19	18	17	16	
44	16	19	
43	19	17	16	18	
42	19	16	
41	18	16	
40	16	19	
39	19	16	
38	18	17	
37	17	19	
36	18	16	
35	16	18	17	19	
34	16	17	
33	16	17	
32	18	17	
31	18	17	19	
30	18	16	
29	16	18	17	19	
28	16	18	
27	18	19	16	17	
26	18	19	17	
25	16	19	17	18	
24	16	19	
23	16	17	18	
22	16	17	19	
21	17	19	
20	17	16	
19	11	14	13	15	
18	11	13	10	12	15	
17	15	13	11	12	
16	11	14	
15	5	7	9	
14	9	6	7	
13	4	6	5	3	8	
12	8	6	3	
11	3	6	8	4	
10	8	3	5	6	7	
9	2	1	
8	1	2	
7	2	1	
6	1	2	
5	1	2	
4	1	2	
3	1	2	
2	0	
1	0	
