# nCh	nF	nN
4	720	40
# node	nGenPack 
1	1
2	6
3	2
4	1
5	9
6	3
7	9
8	9
9	9
10	6
11	5
12	1
13	2
14	3
15	5
16	2
17	4
18	3
19	5
20	2
21	2
22	8
23	9
24	6
25	10
26	1
27	1
28	3
29	4
30	4
31	3
32	5
33	9
34	10
35	5
36	5
37	2
38	8
39	5
# nReplicas nParentLinks 
5	5
#Connectivity Graph 
# n1		n2	quality  master (Physical connectivity) 
0	1	0.8560997	1
0	2	0.8631791	1
0	3	0.92662907	1
0	4	0.8904646	1
0	5	0.94915444	1
0	6	0.6731292	1
1	7	0.9549979	0
1	10	0.9074199	0
1	11	0.9523999	0
1	12	0.8882198	0
1	13	0.9892161	0
1	15	0.96930844	0
1	16	0.864727	0
1	18	0.650101	0
1	21	0.77240676	0
1	22	0.9143861	0
1	23	0.90442276	0
1	3	0.71930885	0
2	7	0.9979286	0
2	8	0.95807934	0
2	9	0.9562955	0
2	11	0.9083814	0
2	12	0.9284442	0
2	14	0.9415535	0
2	15	0.81193745	0
2	17	0.98534024	0
2	20	0.93334126	0
2	21	0.89080524	0
2	22	0.95932955	0
2	23	0.87945384	0
2	4	0.8540831	0
3	7	0.93328947	0
3	8	0.94783837	0
3	9	0.9903666	0
3	12	0.9291045	0
3	13	0.99906945	0
3	15	0.9765767	0
3	16	0.8701745	0
3	17	0.89996743	0
3	18	0.9436487	0
3	19	0.7669886	0
3	20	0.9542761	0
3	21	0.91788346	0
3	23	0.9528496	0
4	8	0.9814977	0
4	10	0.9284815	0
4	12	0.9429321	0
4	15	0.9884643	0
4	17	0.942188	0
4	18	0.985467	0
4	21	0.9148297	0
4	3	0.97967315	0
5	8	0.7063304	0
5	9	0.91913366	0
5	10	0.8611719	0
5	12	0.67515206	0
5	14	0.90110356	0
5	15	0.85602903	0
5	17	0.9406221	0
5	18	0.8954977	0
5	21	0.8465893	0
5	22	0.87987506	0
5	2	0.89168847	0
5	3	0.95848066	0
6	7	0.8661705	0
6	8	0.81333834	0
6	9	0.9972354	0
6	15	0.8533149	0
6	18	0.8752531	0
6	19	0.897424	0
6	20	0.8249744	0
6	22	0.9936161	0
6	23	0.82434016	0
6	2	0.98888236	0
6	3	0.890059	0
6	5	0.8817209	0
7	25	0.92676306	0
7	10	0.9862531	0
7	13	0.989887	0
7	19	0.96718776	0
8	24	0.9780947	0
8	11	0.9844317	0
8	20	0.90977156	0
9	27	0.87775767	0
9	13	0.9921217	0
9	16	0.96300215	0
10	24	0.9596644	0
10	25	0.8882576	0
10	27	0.9372907	0
10	9	0.71779805	0
11	7	0.9779306	0
11	16	0.93874407	0
12	25	0.9321372	0
12	27	0.99336046	0
12	9	0.9295307	0
12	14	0.9005119	0
12	16	0.9791818	0
13	26	0.9535147	0
13	10	0.85494846	0
13	19	0.87630403	0
14	25	0.95969856	0
14	26	0.9736778	0
14	10	0.9007857	0
14	11	0.742464	0
14	13	0.9951586	0
15	27	0.9063675	0
15	9	0.9159871	0
15	10	0.9180043	0
15	13	0.9131629	0
15	16	0.9788939	0
15	19	0.94972277	0
16	27	0.8561276	0
16	10	0.73470354	0
16	13	0.9844	0
17	25	0.8730546	0
17	27	0.9921392	0
17	9	0.8800393	0
17	14	0.9547311	0
17	19	0.8793832	0
18	25	0.95000315	0
18	27	0.966043	0
18	9	0.6524436	0
18	10	0.9625532	0
18	14	0.89227825	0
18	16	0.9105485	0
18	23	0.911959	0
19	9	0.7058943	0
19	10	0.86563635	0
19	14	0.95315766	0
19	16	0.93602103	0
20	25	0.8909596	0
20	9	0.90183145	0
20	16	0.9505348	0
21	24	0.939005	0
21	25	0.99718577	0
21	10	0.8750712	0
21	13	0.89693904	0
21	17	0.94795746	0
22	16	0.9765289	0
22	17	0.8580934	0
22	19	0.98921055	0
23	25	0.8921404	0
23	27	0.9429735	0
23	9	0.8885941	0
23	11	0.97319686	0
23	13	0.8597106	0
24	29	0.9874565	0
24	31	0.9369223	0
24	32	0.9746853	0
25	28	0.91135585	0
25	29	0.9916633	0
25	30	0.88403237	0
25	32	0.85415035	0
26	29	0.9457544	0
26	30	0.87031025	0
26	31	0.91150814	0
26	32	0.78211164	0
26	24	0.93729067	0
27	28	0.6972401	0
27	30	0.8764214	0
27	31	0.99375707	0
27	32	0.8953925	0
28	33	0.9613918	0
28	34	0.98562396	0
28	36	0.97267455	0
28	30	0.8798924	0
29	33	0.9463071	0
29	34	0.935874	0
29	35	0.9004854	0
29	36	0.97366524	0
29	32	0.87055355	0
30	33	0.94347984	0
30	34	0.95732915	0
30	36	0.9745875	0
30	29	0.9643041	0
31	34	0.7418387	0
31	35	0.88696235	0
31	36	0.95887464	0
31	28	0.99134696	0
31	29	0.94166166	0
32	34	0.85532355	0
32	35	0.9963954	0
32	36	0.97611964	0
32	28	0.69406223	0
32	30	0.8928398	0
32	31	0.95104635	0
33	39	0.95112425	0
34	37	0.9494502	0
34	38	0.95781225	0
34	39	0.99053776	0
35	37	0.8742639	0
35	39	0.83727074	0
36	37	0.99713904	0
36	38	0.9059193	0
36	39	0.95153904	0
36	35	0.8896605	0
38	37	0.803851	0
38	39	0.88851506	0
39	37	0.92534244	0
# Tree 
# node parent parent parent ... 
39	33	35	36	34	
38	36	34	
37	35	34	36	
36	29	31	32	28	30	
35	31	29	32	
34	29	30	32	28	31	
33	28	29	30	
32	25	24	27	26	
31	26	27	24	
30	25	27	26	
29	24	26	25	
28	25	27	
27	17	18	16	10	12	
26	14	13	
25	10	12	17	23	14	
24	21	8	10	
23	2	6	3	1	
22	2	1	5	6	
21	5	3	2	4	1	
20	3	2	6	
19	3	6	
18	1	3	6	4	5	
17	5	2	4	3	
16	1	3	
15	3	4	1	6	5	
14	5	2	
13	3	1	
12	4	1	5	3	2	
11	1	2	
10	1	5	4	
9	5	3	6	2	
8	5	4	6	2	3	
7	3	6	2	1	
6	0	
5	0	
4	0	
3	0	
2	0	
1	0	
