# nCh	nF	nN
4	720	60
# node	nGenPack 
1	2
2	8
3	3
4	4
5	2
6	1
7	6
8	6
9	6
10	10
11	5
12	9
13	8
14	8
15	8
16	1
17	5
18	10
19	3
20	10
21	7
22	1
23	5
24	6
25	1
26	4
27	2
28	5
29	5
30	1
31	6
32	7
33	2
34	8
35	8
36	5
37	3
38	8
39	8
40	9
41	2
42	4
43	3
44	4
45	10
46	9
47	4
48	1
49	1
50	8
51	5
52	10
53	6
54	8
55	8
56	4
57	2
58	9
59	7
# nReplicas nParentLinks 
3	5
#Connectivity Graph 
# n1		n2	quality  master (Physical connectivity) 
0	1	0.90635103	1
0	2	0.87932044	1
0	3	0.94970983	1
1	4	0.752476	0
1	5	0.96380544	0
1	6	0.87822664	0
1	7	0.92211103	0
1	8	0.96557283	0
1	9	0.9829002	0
1	11	0.89673674	0
1	12	0.76301116	0
2	4	0.9393614	0
2	5	0.921011	0
2	6	0.8225826	0
2	7	0.9812522	0
2	8	0.942705	0
2	9	0.9407727	0
2	10	0.9237074	0
2	11	0.90879714	0
3	4	0.9372254	0
3	7	0.99015766	0
3	8	0.896104	0
3	9	0.70511734	0
3	10	0.96637565	0
3	11	0.9514976	0
3	12	0.9666596	0
3	1	0.8849396	0
3	2	0.95148116	0
4	15	0.85265225	0
4	20	0.9422577	0
4	6	0.95019186	0
4	7	0.89966166	0
5	13	0.94641125	0
5	17	0.9668272	0
5	18	0.87122786	0
5	20	0.9517653	0
6	14	0.9474945	0
6	17	0.81355405	0
6	18	0.9994491	0
6	20	0.89968413	0
6	5	0.89791936	0
7	13	0.96132696	0
7	15	0.96392477	0
7	17	0.8877843	0
7	18	0.98751646	0
7	6	0.9714851	0
8	14	0.8664333	0
8	17	0.86954296	0
8	18	0.9490866	0
8	19	0.6732132	0
8	4	0.94565946	0
8	6	0.8929608	0
8	7	0.9597235	0
8	9	0.9989871	0
9	13	0.7499807	0
9	14	0.81119514	0
9	15	0.9878025	0
9	16	0.93192494	0
9	17	0.7537507	0
9	4	0.9284635	0
9	6	0.92355126	0
9	7	0.9011377	0
10	14	0.9801196	0
10	6	0.95478153	0
10	7	0.9022449	0
10	11	0.91031367	0
11	13	0.91981846	0
11	14	0.7369274	0
11	15	0.78314227	0
11	21	0.86372656	0
11	4	0.92359084	0
11	5	0.90654325	0
11	6	0.8858945	0
11	7	0.97285384	0
11	9	0.8685055	0
11	12	0.9698118	0
12	16	0.8990287	0
12	18	0.9663668	0
12	19	0.9399638	0
12	21	0.9876311	0
12	4	0.98896056	0
12	7	0.8580529	0
12	10	0.85830027	0
13	24	0.9363299	0
13	25	0.9833096	0
13	30	0.8639643	0
13	33	0.9968466	0
13	36	0.9398996	0
13	37	0.9220536	0
13	16	0.8947426	0
14	24	0.8878912	0
14	25	0.923513	0
14	26	0.8609021	0
14	27	0.6656111	0
14	32	0.91890913	0
14	34	0.93931913	0
14	35	0.9238221	0
14	36	0.96023333	0
14	37	0.8710436	0
14	16	0.95121235	0
14	21	0.8737337	0
15	27	0.9520907	0
15	29	0.8716808	0
15	31	0.99306726	0
15	34	0.7099528	0
15	35	0.9163875	0
15	37	0.99024653	0
15	21	0.8893967	0
16	23	0.9333251	0
16	25	0.9833685	0
16	27	0.94275934	0
16	29	0.86124116	0
16	31	0.97403497	0
16	35	0.88867384	0
16	38	0.929775	0
17	28	0.999386	0
17	29	0.8879585	0
17	33	0.8625936	0
17	38	0.9896848	0
17	13	0.95979387	0
17	16	0.8792762	0
17	20	0.93083674	0
18	22	0.93120146	0
18	23	0.8898458	0
18	28	0.6916529	0
18	31	0.8512651	0
18	33	0.9197237	0
18	35	0.95327824	0
18	36	0.9898828	0
18	38	0.90488863	0
18	13	0.9269416	0
19	22	0.97813636	0
19	29	0.67169136	0
19	30	0.85767883	0
19	32	0.88852125	0
19	33	0.92113686	0
19	37	0.9344267	0
19	13	0.93254304	0
19	21	0.9124289	0
20	22	0.8534825	0
20	23	0.8703984	0
20	29	0.973531	0
20	32	0.9871172	0
20	36	0.9040124	0
20	38	0.9497531	0
21	26	0.88829476	0
21	31	0.9332393	0
21	33	0.9740744	0
21	35	0.91154426	0
21	13	0.972908	0
21	16	0.896477	0
22	40	0.94291514	0
22	42	0.8836121	0
22	47	0.9287123	0
22	48	0.8943334	0
22	50	0.8558106	0
22	23	0.955775	0
22	25	0.86276376	0
22	27	0.8536845	0
22	28	0.9387711	0
23	43	0.820551	0
23	44	0.96658283	0
23	45	0.8660882	0
23	46	0.8620281	0
23	51	0.7886466	0
23	27	0.8760704	0
23	38	0.9780309	0
24	43	0.87179565	0
24	50	0.93413895	0
24	54	0.85392094	0
24	22	0.97582364	0
24	23	0.8889533	0
24	38	0.86770576	0
25	43	0.9586651	0
25	44	0.95068	0
25	46	0.9881346	0
25	51	0.7010024	0
25	23	0.96523213	0
25	27	0.8798212	0
25	31	0.9690758	0
26	43	0.9262079	0
26	49	0.9350203	0
26	51	0.88511395	0
26	22	0.78020763	0
26	23	0.91719174	0
26	25	0.9098288	0
27	46	0.96275645	0
27	48	0.881573	0
27	50	0.9939779	0
27	52	0.9198153	0
27	24	0.96949035	0
27	26	0.9888686	0
27	32	0.9658452	0
27	34	0.8965535	0
28	39	0.8721602	0
28	41	0.92025024	0
28	43	0.9097996	0
28	44	0.9044805	0
28	48	0.70310396	0
28	53	0.8810244	0
28	24	0.9950465	0
28	25	0.9724266	0
28	26	0.9027189	0
28	27	0.9870472	0
28	32	0.99329567	0
28	34	0.76485825	0
29	42	0.99159926	0
29	43	0.8305435	0
29	51	0.98325443	0
29	22	0.7981211	0
29	23	0.9339529	0
29	25	0.9380704	0
29	27	0.86248106	0
29	32	0.9691449	0
29	34	0.90841365	0
29	38	0.9120539	0
30	43	0.9670795	0
30	45	0.85270274	0
30	46	0.94925106	0
30	48	0.9550285	0
30	23	0.7532505	0
30	31	0.94041336	0
30	32	0.9782496	0
30	37	0.74339926	0
31	39	0.97812283	0
31	40	0.98441666	0
31	43	0.9779785	0
31	44	0.88823164	0
31	46	0.89228725	0
31	48	0.9054584	0
31	49	0.9018138	0
31	50	0.89545864	0
31	22	0.92050755	0
31	23	0.9246548	0
31	24	0.9111526	0
31	34	0.6973854	0
32	41	0.93242496	0
32	43	0.9445494	0
32	48	0.92706275	0
32	50	0.988659	0
32	22	0.98907334	0
32	23	0.9436338	0
32	25	0.94144017	0
32	26	0.89202106	0
32	38	0.6806762	0
33	39	0.9308944	0
33	40	0.9145308	0
33	46	0.9759784	0
33	47	0.898167	0
33	50	0.93990135	0
33	22	0.86429197	0
33	24	0.9566059	0
33	26	0.9302446	0
33	27	0.826234	0
33	31	0.8584067	0
33	32	0.93486685	0
34	43	0.8747836	0
34	48	0.9939044	0
34	50	0.7104574	0
34	51	0.9326605	0
34	52	0.89793575	0
34	22	0.9459088	0
34	26	0.9945166	0
34	32	0.90467227	0
35	43	0.7337313	0
35	46	0.93244386	0
35	48	0.7832378	0
35	23	0.78771114	0
35	27	0.8662976	0
35	31	0.9816102	0
35	34	0.9969588	0
35	38	0.85286444	0
36	40	0.9140832	0
36	46	0.8772245	0
36	47	0.93220854	0
36	48	0.8891431	0
36	50	0.89285284	0
36	52	0.9181902	0
36	22	0.9246359	0
36	23	0.8917187	0
36	25	0.8525116	0
36	32	0.9131459	0
36	34	0.71832645	0
37	43	0.895573	0
37	45	0.9366195	0
37	53	0.79096496	0
37	22	0.9034042	0
37	23	0.96249473	0
37	25	0.8531524	0
37	26	0.7354801	0
37	28	0.65271074	0
37	32	0.86590326	0
37	34	0.9707799	0
37	38	0.8873948	0
38	39	0.9198878	0
38	43	0.86994517	0
38	46	0.8533248	0
38	47	0.77725905	0
38	50	0.9132446	0
38	51	0.6794862	0
38	52	0.79200923	0
38	53	0.9074043	0
38	54	0.9116948	0
38	27	0.6684844	0
38	31	0.95653456	0
38	34	0.9724456	0
39	55	0.9210027	0
39	56	0.84078115	0
39	58	0.99384385	0
39	42	0.8948817	0
39	44	0.8952356	0
39	47	0.9932321	0
40	56	0.905216	0
40	42	0.7581537	0
40	47	0.9369091	0
40	54	0.88318825	0
41	56	0.88750565	0
41	42	0.94307303	0
41	47	0.9165865	0
41	49	0.9622201	0
41	54	0.7464565	0
42	45	0.9306505	0
42	49	0.99944675	0
42	52	0.73249555	0
43	49	0.946335	0
43	52	0.95477664	0
43	53	0.7527631	0
43	54	0.9104301	0
44	41	0.8517665	0
44	42	0.9499513	0
44	52	0.8882036	0
45	57	0.9739999	0
45	44	0.85166043	0
45	49	0.81218475	0
46	58	0.93168867	0
46	44	0.9304911	0
46	45	0.9397398	0
46	47	0.98680246	0
46	49	0.897612	0
46	53	0.9235647	0
46	54	0.99209684	0
47	57	0.75654674	0
47	44	0.96223164	0
47	45	0.92591053	0
47	49	0.99632275	0
47	53	0.94155425	0
47	54	0.9335939	0
48	57	0.9686545	0
48	44	0.99316114	0
48	45	0.90433055	0
48	52	0.97783214	0
48	53	0.7193201	0
49	56	0.90597093	0
49	59	0.8519703	0
49	39	0.86738205	0
49	44	0.9888979	0
49	54	0.9563586	0
50	39	0.900349	0
50	45	0.96420777	0
50	47	0.8063827	0
50	49	0.927685	0
50	52	0.9673178	0
50	54	0.9103423	0
51	59	0.8955403	0
51	39	0.93539405	0
51	44	0.9305815	0
51	45	0.89918184	0
51	49	0.94506687	0
51	52	0.9763774	0
51	54	0.9622351	0
52	58	0.8890812	0
52	59	0.87179077	0
52	45	0.91203874	0
53	40	0.89436924	0
53	41	0.9523342	0
53	44	0.9716455	0
53	49	0.85934323	0
53	52	0.88273096	0
54	55	0.9803878	0
54	59	0.8947474	0
54	42	0.82605594	0
54	44	0.92639273	0
54	52	0.85052776	0
54	53	0.99965936	0
55	56	0.9938231	0
57	56	0.99742126	0
57	59	0.9860464	0
59	55	0.90163535	0
# Tree 
# node parent parent parent ... 
59	51	54	52	49	
58	46	39	52	
57	47	48	45	
56	40	41	39	49	
55	39	54	
54	38	24	
53	38	28	37	
52	38	36	27	34	
51	23	38	29	25	34	
50	31	36	32	27	24	
49	26	31	
48	28	36	32	27	31	
47	22	33	38	36	
46	25	23	36	31	35	
45	37	30	23	
44	23	28	31	25	
43	37	24	25	32	30	
42	29	22	
41	28	32	
40	31	36	33	22	
39	33	28	31	38	
38	17	20	18	16	
37	13	19	14	15	
36	18	13	14	20	
35	15	16	21	14	18	
34	15	14	
33	17	19	21	18	13	
32	19	20	14	
31	16	18	15	21	
30	13	19	
29	16	20	17	15	19	
28	18	17	
27	16	14	15	
26	21	14	
25	13	16	14	
24	14	13	
23	18	20	16	
22	20	18	19	
21	12	11	
20	5	6	4	
19	12	8	
18	7	6	12	8	5	
17	6	9	7	8	5	
16	12	9	
15	11	9	7	4	
14	10	6	8	9	11	
13	5	7	11	9	
12	1	3	
11	1	2	3	
10	2	3	
9	1	2	3	
8	1	3	2	
7	1	3	2	
6	2	1	
5	2	1	
4	3	2	1	
3	0	
2	0	
1	0	
