# nCh	nF	nN
4	720	80
# node	nGenPack 
1	1
2	4
3	1
4	3
5	7
6	2
7	5
8	9
9	2
10	3
11	9
12	1
13	6
14	5
15	6
16	4
17	4
18	6
19	3
20	2
21	1
22	6
23	5
24	5
25	1
26	4
27	9
28	7
29	3
30	6
31	8
32	3
33	7
34	3
35	8
36	9
37	6
38	4
39	9
40	2
41	5
42	10
43	6
44	8
45	4
46	6
47	1
48	10
49	10
50	7
51	7
52	2
53	7
54	4
55	8
56	1
57	8
58	6
59	9
60	5
61	9
62	1
63	9
64	5
65	1
66	1
67	1
68	1
69	3
70	10
71	8
72	9
73	7
74	7
75	5
76	9
77	9
78	9
79	3
# nReplicas nParentLinks 
3	5
#Connectivity Graph 
# n1		n2	quality  master (Physical connectivity) 
0	1	0.9845743	1
0	2	0.99081576	1
0	3	0.94446945	1
1	4	0.92786586	0
1	5	0.96873504	0
1	6	0.875342	0
1	7	0.96861297	0
1	8	0.8935277	0
1	9	0.92116046	0
1	10	0.90400034	0
1	11	0.93459886	0
1	12	0.89494973	0
1	14	0.882807	0
1	15	0.94102997	0
1	3	0.71930516	0
2	5	0.68406135	0
2	6	0.87930655	0
2	7	0.9511009	0
2	8	0.96453035	0
2	9	0.9969528	0
2	10	0.8629368	0
2	11	0.77523845	0
2	12	0.8710486	0
2	13	0.99613035	0
2	14	0.9314139	0
2	15	0.8985448	0
3	4	0.87045836	0
3	5	0.8994429	0
3	7	0.93716216	0
3	8	0.9501972	0
3	9	0.75104016	0
3	10	0.9989141	0
3	11	0.6988918	0
3	13	0.9768871	0
3	14	0.9735735	0
3	15	0.9069099	0
4	16	0.8702179	0
4	19	0.88473785	0
4	22	0.9753922	0
4	25	0.9441214	0
4	29	0.932898	0
4	33	0.9290395	0
4	39	0.90575707	0
4	42	0.9056941	0
4	43	0.99627054	0
4	44	0.7163583	0
4	45	0.89193374	0
4	51	0.7869359	0
4	52	0.8637287	0
4	53	0.85472304	0
4	13	0.95273215	0
5	20	0.8910778	0
5	24	0.8691895	0
5	29	0.9006784	0
5	30	0.9605425	0
5	31	0.78352803	0
5	33	0.9565363	0
5	37	0.915396	0
5	38	0.8579229	0
5	41	0.9123687	0
5	42	0.95910496	0
5	43	0.98732156	0
5	44	0.8763185	0
5	45	0.94716346	0
5	50	0.85031354	0
5	4	0.9310994	0
5	7	0.87400174	0
5	10	0.8874347	0
5	15	0.86574274	0
6	18	0.9600565	0
6	23	0.9056592	0
6	24	0.9527723	0
6	25	0.8837269	0
6	31	0.9093885	0
6	36	0.975936	0
6	40	0.9508533	0
6	41	0.88207364	0
6	44	0.8789433	0
6	47	0.86956006	0
6	52	0.9044095	0
6	53	0.9439152	0
6	4	0.9289557	0
6	8	0.8622321	0
6	10	0.80423945	0
6	12	0.9180275	0
6	13	0.7614202	0
7	18	0.87931293	0
7	25	0.91327935	0
7	27	0.9896896	0
7	28	0.9501948	0
7	30	0.9167065	0
7	31	0.8579486	0
7	36	0.8670373	0
7	40	0.86741954	0
7	41	0.9672726	0
7	43	0.89397156	0
7	44	0.9942763	0
7	45	0.9034692	0
7	9	0.9550123	0
7	12	0.9667277	0
7	13	0.80753636	0
7	15	0.9948872	0
8	21	0.68124163	0
8	22	0.8592276	0
8	24	0.8933658	0
8	25	0.8929153	0
8	26	0.8776945	0
8	29	0.9656943	0
8	33	0.8756629	0
8	34	0.8646844	0
8	35	0.851023	0
8	40	0.8891192	0
8	44	0.9983166	0
8	48	0.8539277	0
8	4	0.87240624	0
8	9	0.9651509	0
9	18	0.9736449	0
9	24	0.9713157	0
9	25	0.9680041	0
9	26	0.8537096	0
9	28	0.93893486	0
9	31	0.9644562	0
9	35	0.89103943	0
9	38	0.86927766	0
9	39	0.9286312	0
9	40	0.9720869	0
9	42	0.6745337	0
9	44	0.9058111	0
9	45	0.86411834	0
9	47	0.8186927	0
9	51	0.97964406	0
9	53	0.8761281	0
9	4	0.87083954	0
9	5	0.89088345	0
10	19	0.7023293	0
10	23	0.989117	0
10	26	0.8924032	0
10	31	0.9359307	0
10	34	0.9489512	0
10	39	0.9899353	0
10	41	0.98812824	0
10	42	0.9836009	0
10	43	0.899804	0
10	45	0.88882995	0
10	50	0.8520311	0
10	51	0.984386	0
10	8	0.71400386	0
10	9	0.97959036	0
10	15	0.8709969	0
11	17	0.9329517	0
11	24	0.94523305	0
11	26	0.89277637	0
11	31	0.9122029	0
11	32	0.89032567	0
11	33	0.88664544	0
11	37	0.87449896	0
11	39	0.8984232	0
11	40	0.95106924	0
11	41	0.961607	0
11	5	0.9912465	0
11	8	0.8830587	0
11	12	0.9951422	0
11	15	0.71317047	0
12	16	0.8981574	0
12	20	0.9618765	0
12	24	0.9263078	0
12	25	0.95440006	0
12	33	0.9175406	0
12	38	0.9023115	0
12	40	0.8650969	0
12	45	0.68991625	0
12	48	0.98085994	0
12	5	0.9724748	0
12	10	0.8547269	0
12	14	0.88773084	0
12	15	0.87837195	0
13	17	0.8576472	0
13	20	0.907893	0
13	24	0.9192827	0
13	28	0.84447145	0
13	36	0.9336282	0
13	37	0.8852653	0
13	40	0.94581896	0
13	41	0.90088373	0
13	42	0.9016207	0
13	44	0.73023546	0
13	45	0.89593476	0
13	49	0.99178934	0
13	50	0.97890913	0
13	8	0.8542542	0
13	10	0.9432037	0
13	14	0.9337398	0
14	17	0.9081667	0
14	27	0.936529	0
14	33	0.88555646	0
14	38	0.97120315	0
14	40	0.9683351	0
14	42	0.9155364	0
14	44	0.8792408	0
14	45	0.959638	0
14	46	0.88187385	0
14	49	0.86249435	0
14	50	0.9412124	0
14	51	0.9295714	0
14	4	0.8549112	0
14	6	0.92060727	0
15	17	0.98501796	0
15	21	0.9044244	0
15	24	0.9727622	0
15	25	0.84255314	0
15	30	0.919504	0
15	31	0.9237192	0
15	32	0.695903	0
15	35	0.85370123	0
15	37	0.99785554	0
15	40	0.7674539	0
15	42	0.8831286	0
15	43	0.9940242	0
15	44	0.8944616	0
15	45	0.9397135	0
15	46	0.8726983	0
15	53	0.98385334	0
15	8	0.8916943	0
15	13	0.90452814	0
16	19	0.96308017	0
16	20	0.88767284	0
16	22	0.80965126	0
16	23	0.87418133	0
16	28	0.9664021	0
16	29	0.95416826	0
16	32	0.95279896	0
16	34	0.9703226	0
16	36	0.9103519	0
16	37	0.8983665	0
16	38	0.988324	0
16	46	0.92753786	0
16	50	0.90912193	0
16	52	0.8627464	0
17	18	0.96824646	0
17	36	0.87757885	0
17	48	0.90410733	0
17	49	0.8318866	0
18	54	0.9910832	0
18	60	0.89925367	0
18	27	0.9720589	0
18	46	0.91346705	0
19	61	0.71564186	0
19	18	0.9308919	0
19	23	0.86908436	0
19	27	0.9941677	0
19	32	0.78669953	0
19	35	0.9507025	0
19	38	0.8625472	0
19	39	0.9140547	0
19	46	0.9469255	0
19	52	0.8991051	0
20	17	0.86045563	0
20	18	0.8776392	0
20	19	0.9148137	0
20	21	0.856598	0
20	27	0.75241524	0
20	37	0.87483764	0
21	61	0.9624457	0
21	16	0.9986484	0
21	17	0.9251807	0
21	18	0.9891469	0
21	19	0.93571466	0
21	22	0.9961139	0
21	23	0.92347527	0
21	26	0.866734	0
21	27	0.9506877	0
21	29	0.9209036	0
21	37	0.9320144	0
21	38	0.8860075	0
21	51	0.90889215	0
21	52	0.8103404	0
22	17	0.9978979	0
22	18	0.9146407	0
22	19	0.89452183	0
22	20	0.84108824	0
22	23	0.95231414	0
22	34	0.8974127	0
22	35	0.8746151	0
22	36	0.88165545	0
22	38	0.8518921	0
22	46	0.88152283	0
22	51	0.8950268	0
23	59	0.9460276	0
23	17	0.922523	0
23	18	0.7492635	0
23	20	0.85421866	0
23	29	0.9433238	0
23	35	0.9914019	0
23	51	0.89666	0
24	18	0.9663596	0
24	23	0.99614453	0
24	28	0.99226785	0
24	32	0.6643551	0
24	36	0.9102356	0
24	37	0.9029274	0
25	16	0.9798844	0
25	17	0.9104915	0
25	18	0.94581985	0
25	27	0.89573675	0
25	29	0.6688895	0
25	35	0.92570007	0
25	53	0.8559636	0
26	62	0.90390426	0
26	17	0.9144708	0
26	18	0.88049096	0
26	19	0.9643459	0
26	29	0.9236721	0
26	36	0.97668386	0
26	38	0.93533313	0
27	56	0.94347197	0
27	16	0.8882159	0
27	17	0.91549563	0
27	23	0.87267005	0
27	47	0.7137233	0
28	57	0.98798436	0
28	17	0.92960817	0
28	18	0.85054195	0
28	19	0.8941179	0
28	21	0.9818237	0
28	22	0.68255156	0
28	23	0.96861833	0
28	26	0.6621197	0
28	29	0.87009174	0
28	39	0.9313164	0
28	47	0.93267375	0
28	48	0.9339054	0
28	49	0.8712894	0
29	17	0.8859606	0
29	19	0.96058136	0
29	20	0.94269633	0
29	30	0.95030195	0
29	46	0.8586339	0
29	47	0.9089294	0
29	52	0.8501536	0
30	16	0.92394066	0
30	17	0.9608828	0
30	18	0.9217971	0
30	19	0.9747026	0
30	23	0.86017835	0
30	28	0.93458074	0
30	35	0.99975634	0
30	37	0.6734157	0
30	39	0.8521661	0
30	46	0.9239759	0
30	48	0.9097653	0
30	50	0.8761174	0
30	52	0.8689842	0
31	59	0.9859437	0
31	16	0.92235255	0
31	18	0.9771968	0
31	19	0.9224604	0
31	20	0.93875325	0
31	26	0.98771256	0
31	37	0.77772486	0
31	38	0.891781	0
31	39	0.9955375	0
31	53	0.8817127	0
32	18	0.98423773	0
32	22	0.9023343	0
32	23	0.6888475	0
32	27	0.99353176	0
32	29	0.87206006	0
32	30	0.85691726	0
32	46	0.8607903	0
32	47	0.67004293	0
32	50	0.9542244	0
33	55	0.9314869	0
33	19	0.87274945	0
33	27	0.9691086	0
33	34	0.8812262	0
33	36	0.96695155	0
33	38	0.9944264	0
33	46	0.93303	0
33	47	0.95990145	0
33	51	0.70895946	0
33	52	0.9472796	0
34	17	0.9462867	0
34	19	0.8550109	0
34	21	0.9758834	0
34	23	0.861498	0
34	27	0.93324447	0
34	28	0.91714305	0
34	29	0.9329692	0
34	32	0.97933704	0
34	35	0.8763872	0
34	36	0.927093	0
34	38	0.9613824	0
34	39	0.85765344	0
34	50	0.85119617	0
34	51	0.99360704	0
34	53	0.9260595	0
35	54	0.87445056	0
35	59	0.8943268	0
35	16	0.8810733	0
35	17	0.9997177	0
35	20	0.9569642	0
35	21	0.91010404	0
35	27	0.91495204	0
35	28	0.92068493	0
35	29	0.85414314	0
35	32	0.88332874	0
35	37	0.9323305	0
35	47	0.9443578	0
36	54	0.9581997	0
36	19	0.882247	0
36	21	0.9109947	0
36	27	0.87905794	0
36	32	0.9633485	0
36	37	0.87294227	0
36	39	0.78286475	0
36	49	0.77709675	0
36	51	0.9379736	0
36	53	0.95931417	0
37	60	0.9543686	0
37	17	0.7437463	0
37	18	0.8550324	0
37	19	0.85348934	0
37	23	0.85170764	0
37	28	0.9710319	0
37	29	0.8542564	0
37	32	0.95791554	0
37	34	0.9034516	0
37	47	0.6921337	0
38	55	0.8654411	0
38	61	0.8632706	0
38	18	0.90158737	0
38	20	0.7017404	0
38	23	0.9661178	0
38	27	0.9551672	0
38	28	0.87800443	0
38	29	0.88515097	0
38	32	0.9097093	0
38	36	0.88693035	0
38	47	0.9142786	0
38	53	0.7719678	0
39	58	0.9882902	0
39	23	0.97599334	0
39	27	0.8550334	0
39	32	0.67888784	0
39	35	0.8693023	0
39	46	0.9076475	0
39	52	0.95944124	0
40	58	0.9946018	0
40	16	0.9768803	0
40	17	0.9019765	0
40	19	0.86708885	0
40	20	0.90924823	0
40	21	0.7140507	0
40	22	0.89973986	0
40	23	0.9807092	0
40	27	0.9134759	0
40	29	0.92414826	0
40	38	0.9733731	0
40	39	0.7825603	0
40	46	0.9935058	0
40	47	0.82467693	0
40	48	0.9975889	0
40	53	0.9202298	0
41	62	0.870241	0
41	16	0.88875353	0
41	19	0.93181884	0
41	20	0.8284485	0
41	22	0.93584186	0
41	23	0.96123606	0
41	28	0.9759155	0
41	29	0.94826317	0
41	32	0.95438564	0
41	34	0.9489582	0
41	35	0.9517948	0
41	47	0.97384864	0
41	48	0.9913018	0
41	51	0.93185985	0
42	58	0.9584171	0
42	16	0.88987243	0
42	17	0.8147648	0
42	19	0.79936725	0
42	20	0.874027	0
42	23	0.99643034	0
42	27	0.9856987	0
42	29	0.8750268	0
42	35	0.9006014	0
42	38	0.9581116	0
42	39	0.98786396	0
42	48	0.8722817	0
42	49	0.9952445	0
42	51	0.9034729	0
43	16	0.8993116	0
43	20	0.9378	0
43	22	0.9244062	0
43	23	0.8890085	0
43	26	0.8577652	0
43	29	0.8947147	0
43	34	0.99885035	0
43	38	0.864227	0
43	39	0.85365105	0
43	46	0.8622388	0
43	49	0.9933442	0
44	59	0.92186224	0
44	17	0.9407284	0
44	18	0.98432446	0
44	19	0.8483499	0
44	21	0.93385774	0
44	23	0.8213852	0
44	26	0.914117	0
44	28	0.780878	0
44	29	0.8997813	0
44	35	0.8625526	0
44	36	0.94365096	0
44	37	0.9228569	0
44	50	0.92747784	0
44	51	0.9883831	0
44	52	0.90061843	0
44	53	0.9628991	0
45	57	0.85851026	0
45	16	0.8213928	0
45	22	0.9343018	0
45	23	0.9052031	0
45	26	0.90413016	0
45	27	0.86778677	0
45	28	0.98717	0
45	29	0.94527346	0
45	32	0.8669735	0
45	34	0.9072619	0
45	35	0.8561505	0
45	36	0.9892576	0
45	38	0.9542084	0
45	46	0.899404	0
45	52	0.9117369	0
46	17	0.9010412	0
46	20	0.7769021	0
46	23	0.90208644	0
46	26	0.95340526	0
46	27	0.9327212	0
46	28	0.93346727	0
46	34	0.92926896	0
46	35	0.91441655	0
46	36	0.9897446	0
46	37	0.94437623	0
46	38	0.9050247	0
46	47	0.7699826	0
46	51	0.9156179	0
46	52	0.93469423	0
47	62	0.9026965	0
47	17	0.8896156	0
47	18	0.97003	0
47	20	0.8572087	0
47	21	0.94038314	0
47	23	0.94331336	0
47	26	0.98446786	0
47	34	0.89325655	0
47	36	0.97330296	0
47	49	0.86503434	0
48	18	0.96236795	0
48	22	0.96717376	0
48	23	0.9112632	0
48	26	0.9098322	0
48	32	0.9229389	0
48	37	0.9709723	0
48	38	0.8891087	0
48	39	0.9862677	0
48	46	0.8562543	0
48	49	0.9195232	0
48	53	0.8856827	0
49	56	0.91019017	0
49	16	0.89340997	0
49	18	0.92346305	0
49	23	0.9042831	0
49	27	0.8486564	0
49	29	0.8915849	0
49	32	0.88393867	0
49	37	0.95039517	0
49	38	0.98203814	0
49	46	0.92217577	0
49	51	0.99208736	0
50	17	0.92916036	0
50	18	0.8841593	0
50	19	0.9898793	0
50	20	0.85396713	0
50	21	0.95987314	0
50	35	0.71861535	0
50	36	0.85682124	0
50	39	0.9981077	0
50	47	0.8584613	0
50	53	0.9345392	0
51	62	0.95322806	0
51	16	0.9272143	0
51	17	0.92972946	0
51	19	0.8548435	0
51	20	0.9408304	0
51	26	0.9131865	0
51	29	0.91669685	0
51	35	0.85126156	0
51	38	0.7023087	0
51	52	0.76676077	0
52	17	0.9512606	0
52	18	0.97396153	0
52	20	0.9880711	0
52	22	0.9057599	0
52	32	0.9635851	0
52	35	0.9658569	0
52	36	0.9850322	0
52	37	0.95983416	0
52	38	0.9234421	0
52	47	0.9627198	0
52	49	0.88167334	0
52	53	0.97276694	0
53	60	0.7314044	0
53	17	0.90523475	0
53	18	0.95341873	0
53	19	0.9087123	0
53	20	0.96087474	0
53	23	0.9891934	0
53	29	0.85330075	0
53	30	0.8816054	0
53	32	0.9548696	0
53	35	0.88527197	0
53	37	0.8616373	0
53	46	0.91634	0
53	47	0.86382806	0
53	49	0.9156472	0
54	63	0.9463332	0
54	65	0.9978678	0
54	66	0.9028878	0
54	70	0.98256606	0
54	71	0.85838366	0
54	75	0.9949105	0
54	78	0.84747016	0
55	63	0.9596965	0
55	66	0.8718818	0
55	67	0.9350067	0
55	70	0.8972238	0
55	71	0.9947558	0
55	75	0.8618841	0
55	77	0.85681915	0
55	54	0.9456285	0
55	61	0.88377607	0
56	63	0.8788336	0
56	64	0.9236567	0
56	65	0.9732331	0
56	66	0.9488993	0
56	70	0.9991122	0
56	71	0.9568324	0
56	72	0.86824	0
56	73	0.91300625	0
56	75	0.7918329	0
56	76	0.9234498	0
56	79	0.8882186	0
56	54	0.9084825	0
57	65	0.8945144	0
57	67	0.9437863	0
57	69	0.8552281	0
57	70	0.9145663	0
57	71	0.9634668	0
57	73	0.972264	0
57	75	0.9478265	0
57	76	0.87644	0
57	79	0.8924633	0
57	54	0.87715	0
57	55	0.9407657	0
57	58	0.9979254	0
57	60	0.9178325	0
57	61	0.98149097	0
57	62	0.99552816	0
58	65	0.95866615	0
58	71	0.8517756	0
58	73	0.976869	0
58	74	0.96785253	0
58	75	0.9603762	0
58	77	0.86197585	0
58	78	0.8727095	0
58	56	0.91472566	0
59	64	0.95728207	0
59	65	0.94206995	0
59	66	0.9674653	0
59	68	0.8857068	0
59	69	0.9553295	0
59	71	0.85024196	0
59	73	0.8950765	0
59	74	0.96223783	0
59	75	0.89521337	0
59	76	0.91868	0
59	54	0.8946113	0
59	60	0.9565059	0
59	62	0.68761486	0
60	67	0.92828053	0
60	68	0.88884604	0
60	70	0.97138375	0
60	71	0.86872035	0
60	72	0.9787445	0
60	55	0.936853	0
60	61	0.9486529	0
61	64	0.8617025	0
61	67	0.97051215	0
61	70	0.9896619	0
61	71	0.8617572	0
61	72	0.8036296	0
61	73	0.95665574	0
61	74	0.97419524	0
61	76	0.93213195	0
61	54	0.94847226	0
61	58	0.959634	0
62	63	0.98811346	0
62	77	0.8527365	0
62	78	0.88273734	0
62	55	0.9687175	0
62	58	0.9686502	0
62	60	0.7981589	0
62	61	0.9642762	0
63	66	0.7985084	0
63	72	0.9996444	0
64	63	0.8640132	0
64	77	0.87541974	0
65	63	0.894353	0
65	69	0.9617859	0
65	79	0.94788814	0
66	64	0.89757156	0
66	67	0.8838457	0
66	69	0.86856055	0
67	64	0.924886	0
67	76	0.8538322	0
68	64	0.8625748	0
68	67	0.93174016	0
68	76	0.7662907	0
69	63	0.8086317	0
69	64	0.9508523	0
70	67	0.8857496	0
70	72	0.85174	0
70	76	0.8525999	0
70	77	0.87908787	0
70	78	0.87412584	0
71	68	0.86958927	0
71	69	0.9300572	0
71	72	0.8888056	0
72	66	0.90841365	0
72	67	0.9446037	0
72	68	0.98275566	0
72	69	0.904686	0
73	64	0.94967556	0
73	68	0.91416216	0
73	69	0.9909657	0
73	72	0.8797331	0
73	79	0.9093414	0
74	64	0.87682766	0
74	69	0.9656329	0
74	72	0.85099053	0
74	79	0.9007324	0
75	77	0.90878654	0
76	63	0.9975103	0
76	66	0.8465717	0
76	72	0.8993689	0
77	63	0.86853796	0
77	66	0.93794185	0
77	68	0.96147466	0
77	69	0.8118901	0
77	74	0.99864984	0
78	67	0.95180905	0
78	69	0.8855671	0
78	72	0.9442795	0
78	76	0.91116714	0
79	64	0.97661	0
# Tree 
# node parent parent parent ... 
79	56	57	
78	58	62	54	
77	58	62	55	
76	61	59	56	57	
75	59	56	57	58	54	
74	58	61	59	
73	56	58	59	61	57	
72	60	56	61	
71	54	60	55	61	57	
70	55	57	61	56	60	
69	57	59	
68	59	60	
67	55	61	60	57	
66	54	56	55	59	
65	58	59	57	56	54	
64	59	61	56	
63	62	55	56	54	
62	51	41	26	47	
61	38	21	19	
60	18	37	53	
59	35	44	23	31	
58	42	40	39	
57	45	28	
56	49	27	
55	38	33	
54	18	36	35	
53	4	15	6	9	
52	6	4	
51	14	9	4	10	
50	5	10	13	14	
49	14	13	
48	8	12	
47	6	9	
46	15	14	
45	9	13	12	10	4	
44	9	5	4	15	13	
43	5	7	4	15	10	
42	14	5	4	10	13	
41	7	6	5	13	11	
40	6	9	11	12	8	
39	9	11	4	10	
38	5	14	9	12	
37	13	5	15	11	
36	13	6	7	
35	8	9	15	
34	10	8	
33	14	4	11	8	5	
32	15	11	
31	9	7	6	5	15	
30	15	7	5	
29	4	8	5	
28	9	7	13	
27	14	7	
26	8	10	9	11	
25	15	12	8	9	4	
24	13	8	6	9	12	
23	10	6	
22	8	4	
21	8	15	
20	13	5	12	
19	10	4	
18	6	9	7	
17	13	15	14	11	
16	12	4	
15	3	2	1	
14	2	3	1	
13	2	3	
12	2	1	
11	3	1	2	
10	1	2	3	
9	2	1	3	
8	3	2	1	
7	1	2	3	
6	1	2	
5	2	1	3	
4	1	3	
3	0	
2	0	
1	0	
