# nCh	nF	nN
1	720	40
# node	nGenPack 
1	1
2	10
3	1
4	2
5	6
6	6
7	2
8	8
9	7
10	9
11	8
12	7
13	6
14	2
15	8
16	5
17	6
18	3
19	7
20	2
21	2
22	4
23	10
24	10
25	5
26	6
27	7
28	1
29	9
30	6
31	1
32	10
33	1
34	4
35	6
36	9
37	3
38	6
39	3
# nReplicas nParentLinks 
3	5
#Connectivity Graph 
# n1		n2	quality  master (Physical connectivity) 
0	1	0.95738345	1
0	2	0.9477752	1
1	3	0.8604422	0
1	4	0.9948771	0
1	5	0.8645861	0
1	6	0.9268324	0
1	7	0.9662773	0
1	8	0.9625155	0
1	9	0.79099977	0
1	10	0.8524773	0
1	11	0.92488754	0
1	12	0.91071266	0
1	13	0.9514966	0
1	14	0.90159905	0
1	15	0.9689239	0
1	16	0.9829807	0
1	17	0.86751777	0
1	18	0.9044072	0
1	19	0.9910025	0
1	20	0.92728114	0
1	21	0.88405234	0
1	22	0.98833936	0
1	23	0.9825301	0
2	3	0.9972892	0
2	4	0.90033233	0
2	5	0.95983565	0
2	6	0.87559813	0
2	7	0.85995525	0
2	8	0.9877135	0
2	9	0.85756814	0
2	10	0.99314076	0
2	11	0.6525866	0
2	12	0.880687	0
2	13	0.7958546	0
2	14	0.90631586	0
2	15	0.8773693	0
2	16	0.95868874	0
2	17	0.86197245	0
2	18	0.77919656	0
2	19	0.92410237	0
2	20	0.991374	0
2	21	0.9311923	0
2	22	0.7952132	0
2	23	0.99380213	0
3	36	0.7775469	0
3	37	0.85513854	0
3	11	0.98196113	0
4	33	0.86977684	0
4	35	0.9700985	0
4	39	0.89017135	0
4	3	0.9688442	0
4	8	0.8779094	0
4	14	0.93547666	0
4	15	0.97453004	0
4	18	0.8541521	0
4	19	0.9148338	0
4	20	0.9480197	0
4	21	0.9616691	0
4	23	0.9947044	0
5	26	0.9137359	0
5	33	0.887143	0
5	3	0.80309176	0
5	7	0.8888429	0
5	8	0.9177537	0
5	10	0.77981126	0
5	11	0.98754823	0
5	12	0.9907292	0
5	17	0.958635	0
5	19	0.9011572	0
5	20	0.88826185	0
5	23	0.6748842	0
6	32	0.9327413	0
6	33	0.88450485	0
6	7	0.97082406	0
6	10	0.87930894	0
6	11	0.8948688	0
6	12	0.99324656	0
6	15	0.92585045	0
6	17	0.9063621	0
6	18	0.85265213	0
6	19	0.96880025	0
6	21	0.8801732	0
6	22	0.9958234	0
6	23	0.6809144	0
7	24	0.9447155	0
7	27	0.9045431	0
7	34	0.9374913	0
7	35	0.86344314	0
7	36	0.87236595	0
7	37	0.99832577	0
7	3	0.99626327	0
7	16	0.89065164	0
7	18	0.9887154	0
7	20	0.97133374	0
8	25	0.9397777	0
8	26	0.9294782	0
8	27	0.8554884	0
8	31	0.87939286	0
8	33	0.9966533	0
8	34	0.9580927	0
8	35	0.9573784	0
8	36	0.9837336	0
8	39	0.8988199	0
8	7	0.9887817	0
8	13	0.90652204	0
8	18	0.68251586	0
8	20	0.95835537	0
9	28	0.9314447	0
9	7	0.9552122	0
9	20	0.91584855	0
9	23	0.8995472	0
10	31	0.92938954	0
10	32	0.90866	0
10	33	0.99787176	0
10	7	0.960894	0
10	8	0.9859532	0
10	9	0.9718049	0
10	14	0.9852976	0
10	15	0.98535436	0
10	19	0.97600234	0
11	26	0.9906941	0
11	33	0.8900329	0
11	7	0.90625846	0
11	10	0.85183567	0
11	20	0.7559756	0
12	26	0.9530086	0
12	29	0.88045603	0
12	30	0.9568899	0
12	32	0.8615253	0
12	38	0.99668515	0
12	3	0.98718417	0
12	7	0.8841102	0
12	8	0.98073	0
12	11	0.90005326	0
12	14	0.88847363	0
12	19	0.93342	0
12	21	0.9923087	0
13	33	0.96644795	0
13	5	0.93181056	0
13	10	0.95875424	0
13	14	0.90742326	0
13	17	0.8917515	0
13	19	0.86802214	0
13	20	0.7982443	0
13	23	0.9661298	0
14	27	0.9088983	0
14	29	0.6861017	0
14	32	0.9168025	0
14	7	0.9070626	0
14	8	0.974339	0
14	16	0.897684	0
14	17	0.91378933	0
15	26	0.99057734	0
15	28	0.89429855	0
15	38	0.9854352	0
15	3	0.8571297	0
15	5	0.9570174	0
15	7	0.8893254	0
15	12	0.8832251	0
15	14	0.86318916	0
15	18	0.9986546	0
15	19	0.7126023	0
15	22	0.6717253	0
16	26	0.88361824	0
16	33	0.8825674	0
16	3	0.9666654	0
16	8	0.8984362	0
16	17	0.97227156	0
16	19	0.90097314	0
17	28	0.9961046	0
17	39	0.9697198	0
17	7	0.8838567	0
17	8	0.96582407	0
17	11	0.7983391	0
17	18	0.89669347	0
17	20	0.94489604	0
17	22	0.9402244	0
18	26	0.7899466	0
18	3	0.98731256	0
18	10	0.8585694	0
18	11	0.96329707	0
18	12	0.8714917	0
18	16	0.9122711	0
19	24	0.8014957	0
19	25	0.86545694	0
19	29	0.9407741	0
19	3	0.93616766	0
19	7	0.89618057	0
19	8	0.88997865	0
19	11	0.92752063	0
19	17	0.95540756	0
19	18	0.8546714	0
19	21	0.9159864	0
19	23	0.85736394	0
20	29	0.98613244	0
20	30	0.9295061	0
20	3	0.9233893	0
20	15	0.8202392	0
20	18	0.98029095	0
20	19	0.9058124	0
21	25	0.97251165	0
21	31	0.98305655	0
21	7	0.9365495	0
21	8	0.90968776	0
21	10	0.8857591	0
21	14	0.90520126	0
21	16	0.9490889	0
21	18	0.9038237	0
21	20	0.8007844	0
21	23	0.86219805	0
22	26	0.9332834	0
22	33	0.9034861	0
22	4	0.9164574	0
22	5	0.99265355	0
22	7	0.8512606	0
22	8	0.9705864	0
22	10	0.9887393	0
22	20	0.86801225	0
22	21	0.9980303	0
22	23	0.88555646	0
23	26	0.9919961	0
23	28	0.99256986	0
23	30	0.97303504	0
23	33	0.8435483	0
23	7	0.9536357	0
23	11	0.86106294	0
23	12	0.9538508	0
23	14	0.9927061	0
23	16	0.98755836	0
23	17	0.95405895	0
23	18	0.99071413	0
23	20	0.90469575	0
24	25	0.7383623	0
24	29	0.89885926	0
24	30	0.9380213	0
24	35	0.97707784	0
24	37	0.91519374	0
25	30	0.9111521	0
25	32	0.96564287	0
25	37	0.98423326	0
25	38	0.9377027	0
26	24	0.99650836	0
26	31	0.9084258	0
26	32	0.99469227	0
26	37	0.95396847	0
27	25	0.86536765	0
27	29	0.9812879	0
27	30	0.94601697	0
28	25	0.8939463	0
28	30	0.8886723	0
29	34	0.96804297	0
29	37	0.8623159	0
30	29	0.93399584	0
30	36	0.9908128	0
30	37	0.9477381	0
31	25	0.95416856	0
31	30	0.9258549	0
31	34	0.98875934	0
32	28	0.93310404	0
32	30	0.91733104	0
32	31	0.65039957	0
33	24	0.9915458	0
33	25	0.8512132	0
33	28	0.90889114	0
33	31	0.8595269	0
33	32	0.8923013	0
33	37	0.9159541	0
34	24	0.98459315	0
34	28	0.89237833	0
34	30	0.9510558	0
34	32	0.8775188	0
35	28	0.9154747	0
35	30	0.74071383	0
35	31	0.91475034	0
35	32	0.9575739	0
36	28	0.94797736	0
36	34	0.99304456	0
36	35	0.98376906	0
36	39	0.9264451	0
37	28	0.96409255	0
37	31	0.86151236	0
37	35	0.93816864	0
37	36	0.9175493	0
38	29	0.9181189	0
38	34	0.94118834	0
39	24	0.87938607	0
39	25	0.8688326	0
39	28	0.80877286	0
39	32	0.95450455	0
# Tree 
# node parent parent parent ... 
39	4	17	8	
38	12	15	
37	7	3	
36	8	3	7	
35	4	7	8	
34	7	8	
33	16	23	8	11	22	
32	6	10	12	14	
31	21	10	8	
30	23	20	12	
29	19	14	12	20	
28	15	23	9	17	
27	7	14	8	
26	8	12	15	11	23	
25	19	8	21	
24	19	7	
23	1	2	
22	1	2	
21	2	1	
20	1	2	
19	1	2	
18	2	1	
17	1	2	
16	1	2	
15	1	2	
14	1	2	
13	2	1	
12	2	1	
11	1	2	
10	1	2	
9	1	2	
8	2	1	
7	2	1	
6	2	1	
5	2	1	
4	2	1	
3	1	2	
2	0	
1	0	
