# nCh	nF	nN
4	720	60
# node	nGenPack 
1	3
2	7
3	4
4	4
5	9
6	8
7	6
8	9
9	2
10	6
11	4
12	3
13	1
14	9
15	8
16	3
17	5
18	7
19	2
20	4
21	3
22	9
23	2
24	9
25	6
26	9
27	4
28	10
29	1
30	3
31	7
32	2
33	5
34	7
35	9
36	10
37	1
38	9
39	10
40	5
41	7
42	7
43	5
44	7
45	3
46	9
47	6
48	10
49	1
50	4
51	4
52	7
53	5
54	10
55	2
56	6
57	1
58	4
59	7
# nReplicas nParentLinks 
2	5
#Connectivity Graph 
# n1		n2	quality  master (Physical connectivity) 
0	1	0.98509246	1
0	2	0.9273994	1
0	3	0.9346419	1
0	4	0.99568945	1
0	5	0.8885105	1
0	6	0.9540259	1
0	7	0.97609437	1
1	8	0.89878225	0
1	12	0.935955	0
1	13	0.91105235	0
1	16	0.9829937	0
1	19	0.949383	0
1	20	0.983499	0
1	7	0.8670209	0
2	10	0.90314007	0
2	11	0.88874006	0
2	12	0.9575463	0
2	14	0.92154145	0
2	16	0.94701844	0
2	18	0.93010217	0
2	20	0.9189072	0
2	21	0.8536042	0
2	23	0.9565996	0
2	24	0.92954767	0
2	7	0.96032727	0
3	8	0.9316189	0
3	10	0.8512188	0
3	12	0.91803485	0
3	15	0.88106346	0
3	19	0.9506617	0
3	21	0.88486993	0
3	23	0.93421274	0
3	24	0.9343482	0
3	1	0.95377105	0
3	7	0.8726864	0
4	8	0.7725292	0
4	9	0.86050063	0
4	11	0.8913079	0
4	12	0.969326	0
4	13	0.9103989	0
4	20	0.9950783	0
4	22	0.9915255	0
4	24	0.9396762	0
4	1	0.8640383	0
4	2	0.9129957	0
4	5	0.92509013	0
5	8	0.98813957	0
5	9	0.98667747	0
5	10	0.7198994	0
5	14	0.9043794	0
5	15	0.879764	0
5	17	0.9052174	0
5	20	0.9339907	0
5	21	0.86166763	0
5	2	0.9458648	0
6	8	0.8940385	0
6	14	0.9071703	0
6	15	0.8867671	0
6	16	0.8817694	0
6	17	0.9054843	0
6	18	0.923487	0
6	19	0.978979	0
6	23	0.985047	0
6	2	0.9503034	0
6	4	0.90457124	0
6	5	0.9583068	0
7	8	0.87768906	0
7	11	0.9429622	0
7	12	0.98874366	0
7	13	0.99678135	0
7	20	0.9973962	0
7	22	0.895102	0
7	23	0.97383606	0
7	5	0.91796184	0
7	6	0.9645388	0
8	25	0.95262444	0
8	14	0.8838125	0
8	16	0.94231874	0
8	19	0.82946986	0
9	25	0.9207743	0
9	15	0.97352654	0
9	21	0.9997802	0
9	22	0.9764165	0
10	25	0.91561246	0
10	14	0.91400987	0
10	21	0.87809217	0
11	25	0.98668367	0
12	11	0.9470076	0
12	14	0.85501105	0
12	19	0.88460404	0
12	21	0.9202294	0
12	23	0.85362583	0
13	25	0.90233034	0
13	27	0.8714252	0
15	26	0.961817	0
15	14	0.8918102	0
15	22	0.98752064	0
16	28	0.8544449	0
16	11	0.96557075	0
16	15	0.93443716	0
16	18	0.9648713	0
17	25	0.9984867	0
17	26	0.995273	0
17	11	0.94906723	0
17	14	0.9666101	0
17	15	0.9677674	0
17	21	0.8510907	0
17	23	0.8724168	0
18	26	0.88132334	0
18	13	0.89843225	0
18	14	0.9208943	0
18	19	0.93375516	0
18	21	0.7784649	0
18	23	0.96058655	0
19	27	0.99100494	0
19	11	0.9052142	0
19	13	0.85221994	0
19	15	0.9017199	0
19	21	0.97967875	0
20	25	0.88519615	0
20	13	0.8804885	0
20	15	0.9434324	0
20	16	0.7101252	0
20	21	0.8586316	0
20	23	0.9618061	0
21	28	0.950723	0
21	13	0.9196867	0
21	14	0.7114722	0
21	15	0.858451	0
21	23	0.96692663	0
22	11	0.95181394	0
22	17	0.9115597	0
22	21	0.86587137	0
23	13	0.9117714	0
23	14	0.94282717	0
23	15	0.8608186	0
23	16	0.97092474	0
24	11	0.908484	0
24	18	0.8737463	0
24	22	0.98286694	0
25	29	0.89989287	0
25	30	0.9879844	0
25	31	0.87903535	0
25	32	0.88302094	0
25	33	0.8538075	0
25	34	0.9574208	0
25	35	0.8734009	0
25	36	0.70152295	0
25	37	0.87056553	0
25	38	0.9768143	0
25	39	0.99580735	0
25	40	0.9481201	0
25	42	0.67236745	0
25	43	0.8793416	0
25	44	0.989418	0
25	46	0.90439415	0
25	27	0.87488854	0
26	29	0.923538	0
26	30	0.974539	0
26	33	0.9069046	0
26	34	0.92469853	0
26	35	0.92075247	0
26	36	0.861647	0
26	39	0.89893585	0
26	41	0.9085085	0
26	42	0.8555523	0
26	43	0.85682106	0
26	44	0.9178952	0
26	45	0.8733883	0
26	46	0.9424239	0
27	30	0.8561119	0
27	33	0.9596216	0
27	34	0.9286918	0
27	35	0.92470723	0
27	36	0.93120307	0
27	37	0.92057353	0
27	40	0.9579178	0
27	41	0.9716283	0
27	42	0.93530416	0
27	43	0.9270766	0
27	44	0.901513	0
27	45	0.9811626	0
27	46	0.93569535	0
28	29	0.87421453	0
28	30	0.9829639	0
28	31	0.9738919	0
28	32	0.97804093	0
28	36	0.70587933	0
28	38	0.98885643	0
28	39	0.85689104	0
28	40	0.9024971	0
28	44	0.973132	0
28	45	0.93817174	0
28	46	0.9561621	0
28	26	0.8704607	0
28	27	0.9213353	0
29	47	0.8857754	0
29	50	0.76959366	0
29	52	0.9586766	0
29	56	0.9335069	0
29	57	0.91640794	0
29	33	0.91113424	0
29	35	0.72518283	0
29	38	0.6854906	0
29	41	0.9014541	0
29	42	0.89327055	0
30	48	0.9993874	0
30	50	0.81708527	0
30	52	0.8668592	0
30	55	0.97696894	0
30	29	0.69101334	0
30	33	0.8708572	0
30	35	0.9670665	0
30	43	0.8815271	0
31	49	0.88393885	0
31	54	0.9789424	0
31	29	0.85889775	0
31	35	0.8539766	0
31	36	0.98380154	0
31	40	0.86637115	0
32	50	0.8516185	0
32	34	0.89615333	0
32	36	0.98494524	0
32	40	0.9517444	0
33	59	0.94611573	0
33	31	0.75166506	0
33	34	0.98547494	0
33	35	0.9405701	0
33	38	0.78268015	0
34	47	0.81557953	0
34	52	0.8674731	0
34	56	0.9813338	0
34	58	0.9555001	0
34	37	0.99415785	0
34	40	0.9729238	0
35	56	0.99906564	0
35	59	0.9927716	0
36	47	0.9049572	0
36	51	0.95520467	0
36	52	0.9681218	0
36	58	0.9330966	0
36	29	0.9906177	0
36	35	0.88483226	0
36	45	0.99792767	0
37	49	0.9514521	0
37	56	0.9588034	0
37	57	0.9793017	0
37	29	0.9456654	0
37	31	0.753713	0
37	33	0.9105628	0
37	42	0.9433584	0
37	43	0.9399164	0
37	46	0.9980791	0
38	50	0.8929229	0
38	52	0.93595606	0
38	54	0.9914798	0
38	35	0.88704205	0
38	36	0.97045046	0
38	40	0.8902754	0
39	51	0.8746196	0
39	52	0.90719885	0
39	53	0.88635653	0
39	56	0.90487206	0
39	57	0.9132618	0
39	58	0.9485127	0
39	33	0.85439706	0
39	37	0.886371	0
39	38	0.96879977	0
39	43	0.77606416	0
40	50	0.98934203	0
40	52	0.99354273	0
40	58	0.93191725	0
40	59	0.6723395	0
40	33	0.8943897	0
40	35	0.73659426	0
41	52	0.9112713	0
41	56	0.99554867	0
41	31	0.87156177	0
41	32	0.88426125	0
41	33	0.8645875	0
42	56	0.98002017	0
42	31	0.9718923	0
42	32	0.9586983	0
42	35	0.94510996	0
42	36	0.6584529	0
42	38	0.7076027	0
42	40	0.86833566	0
42	41	0.6998699	0
43	50	0.9504086	0
43	52	0.9918412	0
43	54	0.87602264	0
43	34	0.7162244	0
43	35	0.97908545	0
43	40	0.9612628	0
44	53	0.99421835	0
44	55	0.8311589	0
44	29	0.98560953	0
44	31	0.66960895	0
44	32	0.86667085	0
44	36	0.80919373	0
44	38	0.91514343	0
44	40	0.8911006	0
44	46	0.9593969	0
45	50	0.92755127	0
45	52	0.89643437	0
45	54	0.9111109	0
45	56	0.96087986	0
45	32	0.87944543	0
45	33	0.8939206	0
45	34	0.8947283	0
45	35	0.8559693	0
45	40	0.9885965	0
45	41	0.9541181	0
45	42	0.87925917	0
45	46	0.96122867	0
46	48	0.91631824	0
46	50	0.9313151	0
46	51	0.7839106	0
46	52	0.9780132	0
46	55	0.97918594	0
46	56	0.9166305	0
46	31	0.9691744	0
46	34	0.99807245	0
46	35	0.99152374	0
46	36	0.90227044	0
47	53	0.9887769	0
47	59	0.91315556	0
48	51	0.8851925	0
48	54	0.9551107	0
48	57	0.949136	0
48	59	0.8850856	0
49	47	0.92136246	0
49	55	0.9689137	0
50	47	0.8627509	0
50	49	0.9646515	0
50	55	0.92479885	0
50	58	0.9267105	0
51	49	0.89543575	0
51	54	0.8698858	0
51	58	0.93557334	0
52	47	0.9153792	0
52	54	0.70679957	0
52	55	0.9758861	0
52	58	0.86106604	0
53	49	0.9115721	0
53	59	0.8817564	0
54	47	0.91060066	0
54	49	0.6542027	0
54	53	0.97471267	0
54	57	0.9521773	0
54	58	0.88989604	0
55	47	0.9846908	0
55	53	0.82226014	0
55	57	0.6682093	0
55	59	0.94793063	0
56	49	0.8955131	0
56	53	0.9350891	0
56	58	0.9234527	0
57	49	0.874192	0
58	47	0.9348089	0
58	57	0.88480437	0
58	59	0.87777793	0
59	54	0.9364806	0
# Tree 
# node parent parent parent ... 
59	35	40	33	
58	40	34	36	39	
57	29	37	39	
56	41	34	35	42	46	
55	30	46	44	
54	43	38	31	45	
53	39	44	
52	34	46	41	43	45	
51	39	46	36	
50	40	45	32	43	38	
49	31	37	
48	46	30	
47	29	34	36	
46	28	26	27	25	
45	28	27	26	
44	26	25	28	27	
43	26	25	27	
42	26	27	25	
41	26	27	
40	27	28	25	
39	26	28	25	
38	25	28	
37	25	27	
36	27	25	26	28	
35	26	25	27	
34	27	25	26	
33	25	27	26	
32	25	28	
31	28	25	
30	26	28	25	27	
29	25	26	28	
28	21	16	
27	13	19	
26	18	15	17	
25	9	10	20	13	11	
24	3	2	4	
23	6	2	7	3	
22	7	4	
21	3	2	5	
20	7	4	1	5	2	
19	1	3	6	
18	6	2	
17	5	6	
16	6	1	2	
15	6	3	5	
14	2	5	6	
13	4	1	7	
12	4	7	3	1	2	
11	4	2	7	
10	3	2	5	
9	4	5	
8	5	6	1	3	4	
7	0	
6	0	
5	0	
4	0	
3	0	
2	0	
1	0	
