# nCh	nF	nN
4	720	60
# node	nGenPack 
1	8
2	10
3	4
4	3
5	3
6	3
7	3
8	7
9	3
10	7
11	1
12	9
13	5
14	6
15	4
16	10
17	8
18	5
19	3
20	6
21	4
22	4
23	9
24	9
25	7
26	4
27	9
28	2
29	7
30	9
31	2
32	2
33	8
34	3
35	4
36	2
37	9
38	5
39	10
40	9
41	1
42	5
43	4
44	5
45	4
46	10
47	7
48	10
49	5
50	10
51	3
52	6
53	2
54	4
55	8
56	9
57	3
58	4
59	10
# nReplicas nParentLinks 
2	5
#Connectivity Graph 
# n1		n2	quality  master (Physical connectivity) 
0	1	0.8983098	1
0	2	0.9441233	1
1	3	0.9182944	0
1	4	0.9588897	0
1	5	0.99307257	0
1	2	0.9532534	0
2	3	0.854711	0
2	4	0.94193697	0
2	5	0.8993291	0
3	9	0.88947195	0
3	10	0.96441054	0
3	11	0.92272586	0
3	12	0.9763378	0
3	16	0.9817983	0
3	17	0.9096703	0
3	18	0.7989202	0
3	19	0.945826	0
3	20	0.98275244	0
3	21	0.9090374	0
3	22	0.86850125	0
3	23	0.86607087	0
3	24	0.9445085	0
3	25	0.92895484	0
3	26	0.8716172	0
3	27	0.8840393	0
3	28	0.8565363	0
3	29	0.94399077	0
3	30	0.99980223	0
3	31	0.85227275	0
3	32	0.9155892	0
3	33	0.877519	0
3	34	0.85852903	0
3	35	0.97662437	0
3	36	0.94535524	0
3	37	0.9613821	0
4	6	0.7395875	0
4	7	0.86118907	0
4	8	0.9985551	0
4	9	0.8738517	0
4	10	0.9625629	0
4	11	0.85154116	0
4	12	0.933403	0
4	13	0.89037466	0
4	14	0.8925995	0
4	15	0.9617262	0
4	17	0.8782351	0
4	18	0.9958175	0
4	19	0.9830902	0
4	20	0.6759834	0
4	21	0.9332315	0
4	22	0.84553486	0
4	23	0.97560453	0
4	24	0.86245894	0
4	25	0.90887827	0
4	26	0.93688625	0
4	27	0.9541634	0
4	29	0.92933255	0
4	30	0.9873673	0
4	31	0.9951508	0
4	32	0.919529	0
4	33	0.98129416	0
4	34	0.7911634	0
4	36	0.9708811	0
4	37	0.8746897	0
5	6	0.8793916	0
5	7	0.89081496	0
5	8	0.9760819	0
5	9	0.9948459	0
5	10	0.90643126	0
5	11	0.8546768	0
5	12	0.957064	0
5	13	0.96303004	0
5	14	0.85949427	0
5	15	0.9812592	0
5	16	0.90262455	0
5	17	0.86549634	0
5	18	0.8646583	0
5	19	0.8948822	0
5	20	0.96314275	0
5	21	0.85439813	0
5	22	0.86024153	0
5	23	0.8854671	0
5	24	0.8533881	0
5	26	0.9654984	0
5	28	0.983172	0
5	29	0.9921521	0
5	32	0.98409057	0
5	33	0.9786591	0
5	34	0.9875638	0
5	35	0.9946941	0
5	37	0.6626966	0
6	43	0.8745915	0
6	53	0.9196546	0
6	8	0.9768044	0
6	10	0.9059972	0
6	11	0.7452523	0
6	23	0.67273456	0
6	29	0.9078629	0
6	30	0.8728832	0
6	36	0.92301553	0
7	40	0.7488331	0
7	41	0.98372734	0
7	43	0.9391589	0
7	44	0.9220209	0
7	6	0.69451386	0
7	12	0.9417078	0
7	27	0.9227338	0
7	30	0.91016436	0
7	32	0.99899215	0
8	43	0.9669493	0
8	48	0.87364405	0
8	7	0.9102704	0
8	9	0.963013	0
8	10	0.9654715	0
8	11	0.86576384	0
8	12	0.8508444	0
8	28	0.94790834	0
8	31	0.9183011	0
8	35	0.9024829	0
8	36	0.9581431	0
9	51	0.85909843	0
9	53	0.96579283	0
9	6	0.8850379	0
9	10	0.93115443	0
9	11	0.852467	0
9	14	0.8789077	0
9	23	0.9781669	0
9	33	0.7870216	0
9	35	0.90865827	0
9	36	0.90360725	0
10	44	0.8401296	0
10	49	0.9348816	0
10	7	0.9616231	0
10	18	0.9906415	0
10	30	0.98491913	0
10	35	0.8839074	0
11	43	0.7373876	0
11	49	0.9739024	0
11	53	0.9284628	0
11	7	0.9701661	0
11	16	0.9032719	0
11	17	0.947144	0
11	37	0.9136083	0
12	43	0.89336354	0
12	51	0.90854573	0
12	6	0.98468226	0
12	9	0.99833816	0
12	10	0.91538274	0
12	11	0.8797113	0
12	16	0.78401214	0
12	18	0.93427616	0
12	29	0.9043946	0
12	30	0.9130615	0
12	31	0.99826765	0
12	36	0.91444397	0
13	43	0.8534274	0
13	47	0.93583715	0
13	48	0.88035667	0
13	51	0.98008895	0
13	53	0.98356175	0
13	9	0.8963485	0
13	10	0.9064269	0
13	11	0.7552278	0
13	12	0.93631	0
13	15	0.87516606	0
13	22	0.86389893	0
13	25	0.9783373	0
13	29	0.814717	0
13	31	0.93070376	0
13	32	0.9903319	0
13	35	0.999702	0
13	36	0.6609569	0
13	37	0.96825194	0
14	41	0.87610793	0
14	47	0.9187787	0
14	51	0.9868202	0
14	13	0.92907697	0
14	25	0.8703388	0
14	33	0.9595993	0
14	35	0.9930755	0
14	37	0.75348765	0
15	8	0.97166723	0
15	10	0.97254163	0
15	11	0.8738886	0
15	12	0.95822084	0
15	16	0.82666916	0
15	18	0.99369353	0
15	19	0.8964897	0
15	21	0.968137	0
15	22	0.9198565	0
15	23	0.9920658	0
15	25	0.86210704	0
15	29	0.74309826	0
15	37	0.91053	0
16	43	0.9698218	0
16	45	0.96159756	0
16	50	0.93628794	0
16	53	0.6647681	0
16	7	0.93607575	0
16	25	0.9664609	0
16	26	0.93733895	0
16	31	0.88777596	0
16	36	0.9231438	0
17	38	0.9150726	0
17	43	0.6990186	0
17	46	0.87250084	0
17	49	0.999865	0
17	50	0.9963958	0
17	51	0.88010633	0
17	9	0.88769853	0
17	10	0.9895177	0
17	12	0.89852875	0
17	14	0.9457995	0
17	15	0.99605644	0
17	16	0.87992436	0
17	19	0.8720368	0
17	23	0.93754315	0
17	28	0.67264116	0
17	35	0.94935215	0
17	36	0.8443575	0
18	43	0.87406486	0
18	51	0.9361571	0
18	7	0.973655	0
18	9	0.97684485	0
18	11	0.9684731	0
18	16	0.8582889	0
18	17	0.8904101	0
18	21	0.9531704	0
18	22	0.9648156	0
18	28	0.9747143	0
18	31	0.8636144	0
18	32	0.9037741	0
18	36	0.96860874	0
19	39	0.87963724	0
19	43	0.9900878	0
19	44	0.9846748	0
19	50	0.8611391	0
19	53	0.66130185	0
19	6	0.94930106	0
19	7	0.7488994	0
19	9	0.89840335	0
19	10	0.8904429	0
19	12	0.97826385	0
19	14	0.9750368	0
19	16	0.8600395	0
19	23	0.9627465	0
19	30	0.9588335	0
19	31	0.88772047	0
20	43	0.9570566	0
20	6	0.95324695	0
20	7	0.68460286	0
20	10	0.98666275	0
20	14	0.9838059	0
20	16	0.96017873	0
20	19	0.91794974	0
20	22	0.88446146	0
20	23	0.8761636	0
20	26	0.9048422	0
20	33	0.96806	0
20	37	0.90136075	0
21	42	0.9681335	0
21	43	0.9448605	0
21	51	0.9685099	0
21	6	0.9379051	0
21	11	0.8383367	0
21	12	0.9530109	0
21	14	0.9771892	0
21	20	0.87210023	0
21	26	0.8491204	0
21	29	0.8060683	0
21	31	0.9667867	0
21	33	0.9467546	0
21	37	0.90727764	0
22	41	0.85447633	0
22	46	0.99414307	0
22	51	0.99486935	0
22	53	0.9201372	0
22	6	0.9633913	0
22	7	0.90434134	0
22	9	0.89263105	0
22	10	0.87631977	0
22	11	0.88939464	0
22	12	0.86372775	0
22	14	0.88569057	0
22	16	0.8515739	0
22	19	0.9768209	0
22	23	0.85725504	0
22	28	0.69032174	0
22	32	0.896668	0
22	36	0.9875747	0
23	40	0.9881635	0
23	50	0.97764546	0
23	51	0.7180344	0
23	10	0.99863815	0
23	12	0.8516557	0
23	14	0.6714372	0
23	16	0.88637304	0
23	18	0.97315603	0
23	34	0.93093073	0
23	35	0.8568797	0
23	36	0.97342175	0
23	37	0.6640554	0
24	38	0.9858498	0
24	43	0.96929663	0
24	44	0.77915394	0
24	49	0.8986026	0
24	50	0.8756481	0
24	51	0.9923195	0
24	7	0.8675769	0
24	9	0.8641068	0
24	10	0.88006264	0
24	14	0.8661354	0
24	17	0.9888628	0
24	25	0.95987195	0
24	28	0.78444993	0
24	30	0.99641067	0
24	31	0.8795546	0
24	35	0.95496833	0
24	36	0.85836697	0
24	37	0.8555606	0
25	43	0.9586951	0
25	50	0.9272947	0
25	51	0.91432583	0
25	10	0.7623876	0
25	11	0.90465873	0
25	12	0.9351525	0
25	18	0.9689667	0
25	20	0.71885383	0
25	21	0.9962119	0
25	26	0.89313924	0
25	29	0.68550044	0
25	32	0.89630306	0
25	33	0.93314946	0
25	37	0.8893732	0
26	43	0.933936	0
26	51	0.8628017	0
26	53	0.8249546	0
26	6	0.9736297	0
26	7	0.8995745	0
26	8	0.98862094	0
26	9	0.908569	0
26	18	0.9245785	0
26	22	0.950761	0
26	23	0.94020504	0
26	29	0.9640122	0
26	36	0.9951283	0
27	42	0.97578394	0
27	43	0.9997205	0
27	53	0.927525	0
27	6	0.8547552	0
27	8	0.9826402	0
27	11	0.99670625	0
27	12	0.8849028	0
27	15	0.96510375	0
27	22	0.9861129	0
27	26	0.87095785	0
27	31	0.9366024	0
27	32	0.88944244	0
27	35	0.8916247	0
27	36	0.9721607	0
27	37	0.91236365	0
28	45	0.8357237	0
28	49	0.913284	0
28	50	0.87410635	0
28	52	0.9877684	0
28	6	0.90012467	0
28	7	0.79285276	0
28	14	0.86921895	0
28	15	0.9966501	0
28	16	0.882425	0
28	21	0.97435576	0
28	23	0.82501477	0
28	29	0.85041344	0
29	39	0.703872	0
29	43	0.86481696	0
29	46	0.7290545	0
29	50	0.9492464	0
29	51	0.98490804	0
29	8	0.85583574	0
29	9	0.9533992	0
29	11	0.9251313	0
29	14	0.97564644	0
29	16	0.8822717	0
29	18	0.956515	0
29	19	0.87458944	0
29	22	0.9405434	0
30	47	0.8902806	0
30	51	0.9936407	0
30	9	0.8736472	0
30	11	0.69135004	0
30	14	0.8600992	0
30	18	0.9347302	0
30	20	0.8948763	0
30	22	0.9200336	0
30	23	0.95662963	0
30	31	0.8862795	0
31	49	0.87610704	0
31	52	0.96810544	0
31	6	0.904628	0
31	10	0.9890047	0
31	15	0.96161723	0
31	20	0.8700622	0
31	22	0.9097576	0
31	23	0.88702226	0
31	25	0.68022144	0
31	26	0.98988426	0
31	28	0.86176395	0
32	49	0.9795804	0
32	50	0.9637928	0
32	51	0.9725669	0
32	53	0.94503707	0
32	8	0.9840387	0
32	12	0.7452622	0
32	16	0.91190946	0
32	30	0.9247329	0
32	31	0.9009748	0
33	43	0.8999162	0
33	46	0.92230976	0
33	48	0.92342895	0
33	51	0.90250516	0
33	7	0.8853967	0
33	11	0.9839005	0
33	12	0.9793181	0
33	17	0.932254	0
33	18	0.9226394	0
33	22	0.94783396	0
33	26	0.9339711	0
33	28	0.99182755	0
33	29	0.87554896	0
33	30	0.9278739	0
34	49	0.89208806	0
34	51	0.9494035	0
34	52	0.8655867	0
34	53	0.75898814	0
34	6	0.8827376	0
34	7	0.8693215	0
34	8	0.8991672	0
34	10	0.9078263	0
34	12	0.94557583	0
34	16	0.8458791	0
34	17	0.9256516	0
34	20	0.93627834	0
34	22	0.9042869	0
34	26	0.90077233	0
34	30	0.9459117	0
34	32	0.9428926	0
35	49	0.6558258	0
35	51	0.947222	0
35	6	0.84911674	0
35	7	0.988917	0
35	11	0.7295362	0
35	16	0.9905937	0
35	18	0.9140092	0
35	20	0.8551146	0
35	21	0.98918	0
35	25	0.9730936	0
35	28	0.9546314	0
35	29	0.874077	0
35	31	0.8619906	0
36	43	0.8724164	0
36	53	0.9088866	0
36	7	0.9322192	0
36	10	0.93763655	0
36	14	0.9107945	0
36	19	0.89462185	0
36	20	0.93256456	0
36	25	0.9798684	0
36	28	0.96857154	0
36	30	0.98486507	0
36	31	0.8879067	0
36	32	0.9713976	0
36	33	0.65539694	0
36	35	0.8510155	0
37	43	0.90153676	0
37	49	0.85250455	0
37	50	0.927463	0
37	51	0.8258886	0
37	53	0.85540867	0
37	6	0.9775663	0
37	7	0.89907426	0
37	12	0.9464484	0
37	17	0.98453885	0
37	18	0.93651956	0
37	19	0.9653846	0
37	22	0.89913416	0
37	26	0.8981317	0
37	28	0.8759979	0
37	30	0.7630401	0
37	35	0.75839096	0
38	55	0.864335	0
38	58	0.8531695	0
38	59	0.88999474	0
38	40	0.85308915	0
38	44	0.85625696	0
38	52	0.95375574	0
39	54	0.9540789	0
39	55	0.8586592	0
39	58	0.8516579	0
39	38	0.925226	0
39	42	0.9256819	0
40	56	0.8518133	0
40	57	0.9947414	0
40	39	0.94722044	0
40	48	0.86423844	0
41	54	0.95933133	0
41	39	0.9379327	0
41	42	0.99463993	0
41	47	0.94898766	0
41	48	0.943933	0
41	52	0.9775368	0
42	54	0.9235594	0
42	38	0.86534023	0
42	40	0.8560603	0
42	52	0.9953674	0
43	57	0.89971435	0
43	58	0.73998314	0
43	42	0.86989063	0
43	52	0.97824746	0
44	56	0.95980066	0
44	57	0.8638152	0
44	59	0.91336787	0
44	39	0.9534156	0
44	42	0.91973495	0
44	48	0.94981104	0
45	56	0.9166743	0
45	38	0.9188675	0
45	42	0.87056	0
45	48	0.9417587	0
46	54	0.9179542	0
46	56	0.99924827	0
46	58	0.882382	0
46	38	0.9137269	0
46	42	0.9810022	0
47	56	0.9587402	0
47	58	0.91967326	0
47	38	0.9803769	0
47	39	0.92700917	0
48	54	0.9174562	0
48	38	0.6760938	0
48	39	0.9086393	0
48	42	0.934874	0
49	55	0.90876955	0
49	56	0.9962044	0
49	38	0.9240054	0
49	40	0.9913367	0
49	48	0.89681345	0
49	52	0.9805121	0
50	54	0.85129005	0
50	58	0.87432164	0
50	42	0.9538345	0
51	54	0.9479822	0
51	55	0.9663924	0
51	56	0.6901329	0
51	57	0.9140085	0
51	38	0.8919826	0
51	42	0.8866361	0
51	44	0.8678782	0
51	45	0.9144897	0
51	52	0.92023355	0
52	59	0.9506007	0
52	39	0.92231077	0
52	45	0.9341791	0
52	48	0.9665936	0
53	40	0.89826167	0
53	42	0.87005436	0
55	57	0.9224563	0
58	59	0.9678912	0
59	55	0.9398384	0
# Tree 
# node parent parent parent ... 
59	52	38	44	
58	39	47	38	43	46	
57	44	51	43	40	
56	46	51	49	47	44	
55	39	38	49	51	
54	39	51	41	48	42	
53	36	13	26	19	9	
52	28	31	34	
51	24	34	18	22	35	
50	37	29	19	17	24	
49	24	32	10	35	11	
48	33	13	8	
47	14	13	30	
46	29	17	33	22	
45	16	28	
44	24	19	10	7	
43	26	29	19	36	33	
42	27	21	
41	14	22	7	
40	23	7	
39	19	29	
38	17	24	
37	3	5	4	
36	3	4	
35	3	5	
34	5	4	3	
33	4	5	3	
32	4	5	3	
31	3	4	
30	3	4	
29	3	4	5	
28	3	5	
27	3	4	
26	3	5	4	
25	4	3	
24	3	4	5	
23	5	4	3	
22	3	5	4	
21	5	4	3	
20	4	3	5	
19	4	3	5	
18	5	4	3	
17	3	5	4	
16	5	3	
15	4	5	
14	4	5	
13	4	5	
12	3	5	4	
11	3	5	4	
10	4	3	5	
9	4	3	5	
8	4	5	
7	5	4	
6	5	4	
5	1	2	
4	2	1	
3	1	2	
2	0	
1	0	
