# nCh	nF	nN
4	720	60
# node	nGenPack 
1	8
2	10
3	7
4	9
5	10
6	9
7	3
8	1
9	6
10	7
11	4
12	2
13	8
14	7
15	4
16	6
17	3
18	6
19	1
20	5
21	4
22	10
23	3
24	3
25	9
26	8
27	6
28	10
29	1
30	1
31	8
32	10
33	2
34	7
35	2
36	7
37	8
38	1
39	8
40	1
41	5
42	2
43	8
44	5
45	7
46	6
47	8
48	3
49	3
50	6
51	7
52	9
53	2
54	9
55	2
56	2
57	3
58	1
59	9
# nReplicas nParentLinks 
3	5
#Connectivity Graph 
# n1		n2	quality  master (Physical connectivity) 
0	1	0.87567645	1
0	2	0.8949808	1
1	3	0.8161693	0
1	4	0.94078135	0
1	5	0.76083106	0
1	6	0.9385711	0
1	7	0.70122135	0
1	8	0.8747185	0
1	9	0.8639341	0
1	10	0.9803247	0
1	11	0.8901548	0
1	12	0.8725087	0
1	13	0.9248575	0
1	14	0.8791973	0
2	3	0.9734909	0
2	4	0.8809052	0
2	5	0.9269824	0
2	6	0.9249192	0
2	7	0.86285216	0
2	8	0.97815025	0
2	9	0.893006	0
2	10	0.9486775	0
2	11	0.87658274	0
2	12	0.93468714	0
2	13	0.92227286	0
2	14	0.97620976	0
3	16	0.9912584	0
3	23	0.8644786	0
3	26	0.7258436	0
3	9	0.79762566	0
3	11	0.9882684	0
4	24	0.9663728	0
4	12	0.9912692	0
4	13	0.9347555	0
5	16	0.99304575	0
5	21	0.71130764	0
5	22	0.9124458	0
5	26	0.9238641	0
5	3	0.8674182	0
5	11	0.6899991	0
5	13	0.9626474	0
6	15	0.92683387	0
6	16	0.9060238	0
6	25	0.886198	0
6	9	0.8678687	0
6	10	0.8980412	0
6	13	0.8971473	0
7	15	0.90748155	0
7	18	0.97950345	0
7	26	0.9991222	0
7	3	0.8778163	0
7	4	0.97362953	0
7	5	0.9986974	0
7	10	0.80211955	0
7	11	0.9710727	0
7	12	0.9045536	0
7	13	0.9399562	0
8	23	0.89342976	0
8	3	0.91152483	0
8	4	0.95936054	0
8	11	0.96417797	0
8	12	0.73197085	0
8	13	0.9954556	0
9	17	0.6828559	0
9	18	0.9994677	0
9	21	0.93510115	0
9	24	0.9238162	0
9	26	0.88062	0
9	5	0.8772152	0
9	7	0.97045	0
10	15	0.96768606	0
10	19	0.7827846	0
10	21	0.89333576	0
10	24	0.9028674	0
10	25	0.9181979	0
10	26	0.95923436	0
10	3	0.8619246	0
10	4	0.9605398	0
10	5	0.92531043	0
10	13	0.9227279	0
10	14	0.9406923	0
11	17	0.96798676	0
11	18	0.86727375	0
11	20	0.85337114	0
11	25	0.9722282	0
11	26	0.9213371	0
11	9	0.99660957	0
11	12	0.92342716	0
12	16	0.9629532	0
12	18	0.9441238	0
12	20	0.90384626	0
12	22	0.89517206	0
12	3	0.88997453	0
12	14	0.87177354	0
13	18	0.9047861	0
13	19	0.91438055	0
13	21	0.9091472	0
13	3	0.8516163	0
13	9	0.86593896	0
13	11	0.97457045	0
14	25	0.98788816	0
14	3	0.98021966	0
14	4	0.87993973	0
14	5	0.87053365	0
14	11	0.9854928	0
14	13	0.95729166	0
15	27	0.8090595	0
15	20	0.79948586	0
15	21	0.9599486	0
16	27	0.8729139	0
16	30	0.80116993	0
16	31	0.8848358	0
16	15	0.85577416	0
16	21	0.8961387	0
17	27	0.86742014	0
17	30	0.97462285	0
17	19	0.8752597	0
17	20	0.9695149	0
17	22	0.8806104	0
17	24	0.94657075	0
18	29	0.91443706	0
18	16	0.8877989	0
18	20	0.87972873	0
18	24	0.9238981	0
19	30	0.9779202	0
19	15	0.954878	0
19	20	0.9053665	0
19	24	0.8553884	0
19	25	0.9335863	0
20	22	0.9259078	0
21	32	0.8519622	0
21	20	0.8603386	0
21	24	0.95689046	0
22	28	0.9340869	0
22	21	0.93481666	0
22	25	0.94759506	0
23	28	0.8698591	0
23	20	0.8520424	0
23	21	0.9739759	0
23	22	0.8714072	0
23	25	0.87624913	0
24	27	0.9732128	0
24	31	0.8979244	0
24	16	0.9381292	0
24	20	0.9319576	0
24	22	0.94940543	0
25	29	0.88503444	0
25	32	0.8456969	0
25	16	0.8647419	0
25	24	0.90138006	0
26	30	0.9299761	0
26	32	0.9267702	0
26	16	0.9795192	0
26	20	0.9646448	0
26	24	0.86272395	0
26	25	0.92575175	0
27	33	0.9783705	0
27	34	0.8902198	0
27	38	0.93464714	0
27	39	0.75957596	0
27	45	0.94950145	0
27	47	0.88969016	0
27	48	0.87661505	0
27	50	0.8646725	0
27	51	0.9083794	0
27	53	0.9560218	0
28	35	0.653072	0
28	36	0.88409513	0
28	37	0.9559575	0
28	38	0.89065766	0
28	40	0.9460896	0
28	41	0.9537275	0
28	43	0.94988686	0
28	44	0.9405224	0
28	47	0.9433498	0
28	48	0.8730284	0
28	49	0.892891	0
28	51	0.92547953	0
28	31	0.9744581	0
29	33	0.95230764	0
29	38	0.9166116	0
29	39	0.88653064	0
29	41	0.8598571	0
29	44	0.87113273	0
29	48	0.87037253	0
29	49	0.9893592	0
29	52	0.88372123	0
29	27	0.96987134	0
29	28	0.9489224	0
29	32	0.9571264	0
30	34	0.8960283	0
30	36	0.94219357	0
30	37	0.9948511	0
30	38	0.92443895	0
30	39	0.93052125	0
30	40	0.9531804	0
30	41	0.9921905	0
30	42	0.895895	0
30	43	0.8559395	0
30	44	0.91601646	0
30	46	0.87530375	0
30	47	0.94798076	0
30	48	0.908069	0
30	49	0.90595144	0
30	51	0.9878376	0
30	52	0.97765005	0
30	53	0.99019027	0
30	27	0.8739863	0
30	28	0.9696249	0
31	34	0.85811627	0
31	36	0.9697754	0
31	40	0.97436774	0
31	41	0.9249336	0
31	42	0.9064562	0
31	43	0.87415904	0
31	44	0.85936016	0
31	45	0.8981457	0
31	48	0.8557735	0
31	51	0.965948	0
31	52	0.9742015	0
31	53	0.85385627	0
31	30	0.6832964	0
32	34	0.85419047	0
32	35	0.9515534	0
32	36	0.98053396	0
32	38	0.9196105	0
32	39	0.91703707	0
32	40	0.9495681	0
32	41	0.8759059	0
32	43	0.9990731	0
32	44	0.7637738	0
32	46	0.7765653	0
32	50	0.78101534	0
32	51	0.71137774	0
32	52	0.9654693	0
32	27	0.9941728	0
32	28	0.87933356	0
32	30	0.83559436	0
32	31	0.67977107	0
33	54	0.8950363	0
33	55	0.908524	0
33	57	0.93784	0
33	39	0.9221052	0
33	40	0.9440393	0
33	42	0.90551955	0
33	45	0.8569807	0
33	46	0.9366745	0
33	47	0.9897458	0
33	53	0.9890076	0
34	54	0.96336806	0
34	55	0.85385454	0
34	59	0.8649381	0
34	33	0.8864334	0
34	37	0.9357232	0
34	42	0.90364414	0
34	46	0.65503174	0
34	47	0.92716324	0
34	52	0.9184774	0
34	53	0.7723019	0
35	54	0.9658062	0
35	55	0.7279394	0
35	58	0.67619157	0
35	34	0.97529346	0
35	40	0.88797003	0
35	42	0.977297	0
35	49	0.9367973	0
35	52	0.9574325	0
35	53	0.8923713	0
36	34	0.89844334	0
36	39	0.9770554	0
36	40	0.9707003	0
36	42	0.9621823	0
36	50	0.93707067	0
36	53	0.9131313	0
37	54	0.8609681	0
37	57	0.97145	0
37	36	0.86826795	0
37	49	0.941576	0
38	54	0.9413064	0
38	55	0.98292613	0
38	59	0.9931665	0
38	37	0.8967942	0
38	40	0.8516985	0
38	45	0.95044774	0
38	46	0.87862206	0
39	37	0.92108935	0
39	40	0.730239	0
39	45	0.9489169	0
39	47	0.8746652	0
39	49	0.96775997	0
39	50	0.877612	0
40	54	0.8239609	0
40	55	0.9309262	0
40	56	0.9890658	0
40	37	0.7791606	0
40	53	0.87175125	0
41	37	0.9389206	0
41	40	0.92550087	0
41	42	0.972867	0
41	45	0.8855103	0
41	49	0.90565336	0
41	50	0.9523	0
41	53	0.68444616	0
42	57	0.8968281	0
42	37	0.93479836	0
42	46	0.92413044	0
42	53	0.95682395	0
43	54	0.91500753	0
43	34	0.8847866	0
43	35	0.9151771	0
43	37	0.98197347	0
43	45	0.89920783	0
43	46	0.9341925	0
44	56	0.89631164	0
44	35	0.85208386	0
44	37	0.9196824	0
44	49	0.8955953	0
44	50	0.8898192	0
45	54	0.7163625	0
45	40	0.91322327	0
45	42	0.850019	0
45	46	0.9383317	0
46	54	0.75430286	0
46	55	0.89064366	0
46	37	0.87213874	0
46	40	0.9581316	0
46	50	0.8789821	0
46	53	0.92126596	0
47	42	0.9808724	0
47	45	0.8975784	0
47	46	0.8896549	0
47	49	0.8219094	0
47	52	0.94897634	0
48	55	0.99095845	0
48	58	0.87152654	0
48	40	0.97243816	0
48	42	0.9482454	0
48	49	0.96575403	0
48	52	0.99219954	0
48	53	0.9004281	0
49	55	0.9325625	0
49	56	0.99642676	0
49	57	0.877535	0
49	58	0.9591451	0
49	40	0.90702426	0
49	46	0.89432	0
50	54	0.8802252	0
50	55	0.91821444	0
50	58	0.95838255	0
50	37	0.95439595	0
50	40	0.9581453	0
50	42	0.94560987	0
50	43	0.71799386	0
51	54	0.88841224	0
51	55	0.8636529	0
51	37	0.97680545	0
51	40	0.8914539	0
51	43	0.9567358	0
51	46	0.85133195	0
51	47	0.8561243	0
51	50	0.9009224	0
51	53	0.92728513	0
52	54	0.8090124	0
52	55	0.65873736	0
52	58	0.84797204	0
52	45	0.8630142	0
52	50	0.95344245	0
53	54	0.8684708	0
53	45	0.91236466	0
53	47	0.9922178	0
53	50	0.91981274	0
53	52	0.93464214	0
54	56	0.9827601	0
54	57	0.9729861	0
54	59	0.870378	0
55	59	0.93682253	0
57	59	0.9749263	0
58	57	0.92366755	0
# Tree 
# node parent parent parent ... 
59	38	34	
58	35	48	50	49	52	
57	37	42	49	33	
56	49	44	40	
55	38	48	49	33	46	
54	33	52	51	50	38	
53	31	30	27	
52	30	32	31	29	
51	30	31	32	27	28	
50	27	32	
49	30	29	28	
48	28	29	30	31	27	
47	27	30	28	
46	30	32	
45	27	31	
44	32	28	29	30	31	
43	28	32	30	31	
42	31	30	
41	32	30	31	29	28	
40	31	28	32	30	
39	27	32	30	29	
38	30	32	27	28	29	
37	30	28	
36	28	31	32	30	
35	32	28	
34	27	32	30	31	
33	27	29	
32	26	21	25	
31	16	24	
30	19	26	16	17	
29	18	25	
28	22	23	
27	15	24	16	17	
26	11	7	9	5	10	
25	11	10	6	14	
24	4	9	10	
23	8	3	
22	5	12	
21	5	13	9	10	
20	11	12	
19	10	13	
18	9	13	7	11	12	
17	9	11	
16	6	5	3	12	
15	6	10	7	
14	1	2	
13	2	1	
12	2	1	
11	2	1	
10	1	2	
9	1	2	
8	2	1	
7	1	2	
6	2	1	
5	2	1	
4	1	2	
3	1	2	
2	0	
1	0	
