# nCh	nF	nN
4	720	60
# node	nGenPack 
1	10
2	8
3	5
4	8
5	9
6	3
7	6
8	4
9	7
10	10
11	2
12	5
13	8
14	5
15	3
16	7
17	4
18	8
19	4
20	7
21	3
22	7
23	8
24	1
25	8
26	10
27	1
28	10
29	7
30	10
31	6
32	3
33	3
34	7
35	3
36	8
37	4
38	1
39	8
40	2
41	5
42	1
43	6
44	1
45	1
46	3
47	4
48	10
49	3
50	2
51	7
52	6
53	3
54	10
55	9
56	5
57	4
58	1
59	6
# nReplicas nParentLinks 
5	5
#Connectivity Graph 
# n1		n2	quality  master (Physical connectivity) 
0	1	0.86637497	1
0	2	0.9170415	1
1	3	0.87915665	0
1	4	0.8567678	0
1	5	0.87702405	0
1	6	0.8509174	0
2	3	0.85509795	0
2	4	0.92086464	0
2	5	0.8544888	0
2	6	0.93508923	0
3	7	0.9076249	0
3	8	0.9184333	0
3	9	0.8534404	0
3	10	0.97218174	0
3	11	0.93037796	0
3	12	0.86777407	0
3	13	0.9647541	0
3	14	0.9853657	0
3	15	0.88248026	0
3	16	0.87204653	0
3	19	0.9359125	0
3	22	0.8653969	0
3	23	0.70394874	0
3	24	0.86636615	0
3	25	0.85006726	0
3	26	0.8679205	0
3	28	0.80362076	0
3	29	0.9508734	0
3	30	0.9978553	0
3	33	0.86161155	0
3	34	0.91950154	0
3	35	0.9217199	0
3	36	0.9706371	0
3	37	0.8903532	0
3	38	0.87978506	0
3	39	0.6784287	0
3	41	0.89295	0
3	42	0.88487333	0
3	44	0.72718847	0
3	45	0.9265866	0
3	46	0.9801667	0
3	47	0.91556805	0
3	48	0.9024241	0
3	49	0.8652858	0
3	50	0.8965599	0
3	51	0.98311305	0
3	53	0.95923024	0
3	54	0.95562834	0
3	5	0.9465163	0
3	6	0.99270195	0
4	7	0.9245864	0
4	8	0.9627615	0
4	9	0.98229283	0
4	10	0.93208057	0
4	11	0.8649775	0
4	13	0.8807526	0
4	14	0.87639046	0
4	16	0.7586458	0
4	18	0.87092537	0
4	19	0.9618947	0
4	20	0.9618331	0
4	21	0.94406766	0
4	22	0.7759451	0
4	23	0.77447915	0
4	24	0.71491086	0
4	25	0.8723573	0
4	26	0.97154903	0
4	27	0.97707516	0
4	28	0.9871831	0
4	29	0.93010813	0
4	30	0.88715374	0
4	31	0.9998791	0
4	32	0.9076657	0
4	33	0.9769534	0
4	34	0.92073256	0
4	37	0.960675	0
4	38	0.9263768	0
4	39	0.9146582	0
4	40	0.96541566	0
4	41	0.8509675	0
4	42	0.8597694	0
4	43	0.8753787	0
4	44	0.9172645	0
4	45	0.9100251	0
4	46	0.9211422	0
4	47	0.7214917	0
4	50	0.8641449	0
4	51	0.8616672	0
4	52	0.7054661	0
4	53	0.97304374	0
4	54	0.8923439	0
4	3	0.85067874	0
5	7	0.9996472	0
5	9	0.9501279	0
5	10	0.9775887	0
5	11	0.85924184	0
5	12	0.85114807	0
5	13	0.9284845	0
5	14	0.93578905	0
5	17	0.87905836	0
5	18	0.8748822	0
5	19	0.9490834	0
5	20	0.8738985	0
5	21	0.6762668	0
5	22	0.9310566	0
5	23	0.65184677	0
5	24	0.9364679	0
5	25	0.88415784	0
5	27	0.9058616	0
5	29	0.9181325	0
5	30	0.96927	0
5	35	0.86413497	0
5	36	0.983558	0
5	37	0.9113647	0
5	39	0.9186956	0
5	40	0.9903472	0
5	41	0.90476936	0
5	42	0.970415	0
5	46	0.90704834	0
5	47	0.8618136	0
5	49	0.88839483	0
5	51	0.9062907	0
5	52	0.9645108	0
5	53	0.96972394	0
5	54	0.94531065	0
5	4	0.9104112	0
6	7	0.9531249	0
6	9	0.72607106	0
6	10	0.9978092	0
6	12	0.9622436	0
6	13	0.92508274	0
6	14	0.91476154	0
6	15	0.9100892	0
6	16	0.87385803	0
6	17	0.99182254	0
6	18	0.9662405	0
6	19	0.9724198	0
6	20	0.86220336	0
6	22	0.9421568	0
6	23	0.97356075	0
6	25	0.85222375	0
6	26	0.95300597	0
6	27	0.9711338	0
6	28	0.9447141	0
6	29	0.8768303	0
6	30	0.8938476	0
6	31	0.85024476	0
6	32	0.9225319	0
6	33	0.91774046	0
6	34	0.85073435	0
6	35	0.90226066	0
6	37	0.9427363	0
6	39	0.8736439	0
6	41	0.86317694	0
6	42	0.8535711	0
6	43	0.8361813	0
6	44	0.9060497	0
6	46	0.87021357	0
6	47	0.96202284	0
6	48	0.8771871	0
6	49	0.87354904	0
6	50	0.98209316	0
6	51	0.9348959	0
6	52	0.8449461	0
6	53	0.91112345	0
6	54	0.8623957	0
6	5	0.8646204	0
7	55	0.73586667	0
7	16	0.9019403	0
7	20	0.9998496	0
7	22	0.9541083	0
7	28	0.89421594	0
7	35	0.9598334	0
7	41	0.77786046	0
7	42	0.9321041	0
7	45	0.94040006	0
7	53	0.9568729	0
7	54	0.8698481	0
8	55	0.89759505	0
8	56	0.9055418	0
8	7	0.90358806	0
8	10	0.92968607	0
8	14	0.9398152	0
8	18	0.90176153	0
8	19	0.92071134	0
8	27	0.9656509	0
8	30	0.9125446	0
8	41	0.9849756	0
8	42	0.8842086	0
8	45	0.9203743	0
8	47	0.9793435	0
8	50	0.982329	0
8	53	0.9268518	0
9	59	0.9740089	0
9	8	0.9993748	0
9	13	0.9014472	0
9	23	0.7981375	0
9	26	0.8938715	0
9	29	0.9562427	0
9	34	0.8658319	0
9	35	0.89044595	0
9	38	0.8853415	0
9	41	0.9707269	0
9	53	0.94282115	0
9	54	0.87505746	0
10	9	0.9131022	0
10	24	0.9241682	0
10	26	0.9837153	0
10	35	0.9384681	0
10	41	0.9293669	0
10	42	0.9386011	0
10	44	0.89505255	0
10	45	0.9254226	0
10	47	0.97633094	0
11	55	0.8867626	0
11	56	0.68035185	0
11	9	0.95699364	0
11	10	0.9998704	0
11	15	0.9660453	0
11	20	0.8813354	0
11	21	0.94071597	0
11	27	0.9491994	0
11	30	0.9717462	0
11	31	0.8564032	0
11	33	0.952004	0
11	34	0.92967796	0
11	37	0.97207344	0
11	41	0.9886611	0
11	42	0.9976813	0
11	54	0.98351747	0
12	14	0.89430004	0
12	15	0.93389136	0
12	16	0.88878787	0
12	18	0.92326176	0
12	19	0.9138513	0
12	20	0.88879895	0
12	21	0.9658558	0
12	23	0.9927872	0
12	26	0.86312675	0
12	28	0.92382705	0
12	31	0.99978626	0
12	36	0.9033227	0
12	39	0.8798873	0
12	41	0.8615348	0
12	42	0.9735893	0
12	44	0.6809833	0
12	45	0.84257895	0
13	59	0.9020502	0
13	7	0.9027273	0
13	10	0.9451977	0
13	26	0.8186667	0
13	33	0.89793557	0
13	34	0.96188486	0
13	38	0.9652723	0
13	43	0.9165682	0
13	48	0.9297731	0
14	55	0.9393088	0
14	57	0.94114053	0
14	7	0.8969698	0
14	9	0.9353882	0
14	10	0.861008	0
14	13	0.9491868	0
14	19	0.90411144	0
14	23	0.9821143	0
14	24	0.8884419	0
14	28	0.97691643	0
14	35	0.9485514	0
14	40	0.87953454	0
14	43	0.97132933	0
14	44	0.90729594	0
14	45	0.93968844	0
14	52	0.98018813	0
15	56	0.87169033	0
15	7	0.94152015	0
15	10	0.97921664	0
15	13	0.6780011	0
15	17	0.9542584	0
15	18	0.8574521	0
15	25	0.8963623	0
15	28	0.9470596	0
15	30	0.9421517	0
15	37	0.8555677	0
15	39	0.89452004	0
15	51	0.9834507	0
16	10	0.8568119	0
16	13	0.9593781	0
16	14	0.7162886	0
16	15	0.88593775	0
16	19	0.87474376	0
16	21	0.88078284	0
16	24	0.89520264	0
16	27	0.980893	0
16	29	0.94560415	0
16	30	0.8817978	0
16	33	0.9389465	0
16	37	0.98452	0
16	41	0.98012966	0
16	47	0.8870326	0
16	48	0.8729925	0
16	53	0.9873457	0
16	54	0.8842439	0
17	56	0.9456442	0
17	7	0.8747044	0
17	8	0.9016881	0
17	9	0.8940588	0
17	11	0.89676183	0
17	23	0.9904594	0
17	26	0.9604089	0
17	27	0.9602399	0
17	33	0.8822346	0
17	34	0.87709755	0
17	36	0.6944478	0
17	42	0.8963989	0
17	45	0.9468892	0
17	50	0.9283495	0
17	51	0.78470814	0
17	53	0.81359476	0
17	54	0.8567145	0
18	59	0.8662739	0
18	7	0.68217903	0
18	9	0.99575686	0
18	10	0.9788172	0
18	13	0.87367916	0
18	32	0.6533797	0
18	35	0.960262	0
18	38	0.9297724	0
18	51	0.99344724	0
18	53	0.92158985	0
19	56	0.98432165	0
19	9	0.92182136	0
19	10	0.91065454	0
19	13	0.8526537	0
19	15	0.87696254	0
19	17	0.85383534	0
19	20	0.9918953	0
19	21	0.9693654	0
19	23	0.91937	0
19	32	0.9086553	0
19	45	0.9915867	0
20	56	0.92489254	0
20	58	0.88893276	0
20	8	0.8984717	0
20	9	0.9115296	0
20	10	0.9022071	0
20	13	0.72941375	0
20	14	0.9018111	0
20	22	0.94083035	0
20	23	0.8512797	0
20	28	0.921047	0
20	32	0.9850841	0
20	37	0.89755297	0
20	39	0.932125	0
20	45	0.9175121	0
20	47	0.99450207	0
20	48	0.86057925	0
21	9	0.92424387	0
21	13	0.86600643	0
21	15	0.9004595	0
21	18	0.866409	0
21	26	0.89995396	0
21	28	0.8783832	0
21	32	0.88339496	0
21	45	0.7321053	0
22	9	0.9583609	0
22	10	0.9376694	0
22	14	0.8972384	0
22	16	0.75061005	0
22	18	0.8517754	0
22	19	0.92201287	0
22	21	0.86645126	0
22	26	0.98234105	0
22	27	0.886693	0
22	30	0.96504575	0
22	32	0.9901188	0
22	39	0.90796727	0
22	40	0.9933138	0
22	44	0.8859103	0
23	56	0.9704135	0
23	10	0.98094296	0
23	13	0.92646724	0
23	24	0.9176439	0
23	37	0.9744069	0
24	55	0.9515469	0
24	56	0.88972133	0
24	7	0.9825843	0
24	9	0.9806955	0
24	13	0.97909284	0
24	15	0.90296066	0
24	18	0.96236855	0
24	19	0.8939063	0
24	21	0.7902818	0
24	22	0.9588001	0
24	26	0.86465484	0
24	30	0.8521578	0
24	33	0.86054194	0
24	34	0.93458736	0
25	7	0.9893036	0
25	10	0.9809609	0
25	13	0.9290121	0
25	17	0.85173315	0
25	19	0.7755406	0
25	21	0.9905693	0
25	22	0.87255836	0
25	23	0.89405	0
25	26	0.83843184	0
25	31	0.86308813	0
25	41	0.86945474	0
25	45	0.95609546	0
25	47	0.9356054	0
25	53	0.9575388	0
25	54	0.9238115	0
26	55	0.86553305	0
26	8	0.93012583	0
26	15	0.8563535	0
26	16	0.8866711	0
26	19	0.99010366	0
26	23	0.90081114	0
26	44	0.96071756	0
26	47	0.93432397	0
27	56	0.97653496	0
27	9	0.99380714	0
27	15	0.9993038	0
27	19	0.7670782	0
27	20	0.9488954	0
27	21	0.9017968	0
27	23	0.86553586	0
27	26	0.96075594	0
27	35	0.9852811	0
27	38	0.8756417	0
27	41	0.93985635	0
27	42	0.9572214	0
27	43	0.6783472	0
27	53	0.85872203	0
28	56	0.99806005	0
28	10	0.97995114	0
28	13	0.85192	0
28	18	0.9821189	0
28	22	0.9692562	0
28	24	0.85152054	0
28	25	0.8506039	0
28	26	0.96942174	0
28	27	0.9098919	0
28	37	0.9908443	0
28	41	0.89122605	0
28	43	0.850818	0
28	45	0.85220546	0
28	49	0.73076224	0
28	51	0.94312894	0
29	55	0.9353182	0
29	56	0.9368801	0
29	8	0.9124983	0
29	10	0.999617	0
29	19	0.88810986	0
29	20	0.8622004	0
29	21	0.8693014	0
29	22	0.9920482	0
29	23	0.87886024	0
29	26	0.8647264	0
29	27	0.65875626	0
29	28	0.9090033	0
29	41	0.6535193	0
29	42	0.9960457	0
29	43	0.98069584	0
29	44	0.85219795	0
29	45	0.88098127	0
29	47	0.8596504	0
29	48	0.8777014	0
29	49	0.999429	0
29	51	0.85061586	0
29	53	0.9283829	0
30	56	0.94354904	0
30	9	0.9065996	0
30	10	0.95337707	0
30	13	0.96211326	0
30	17	0.95135134	0
30	18	0.9906343	0
30	19	0.9368529	0
30	20	0.97013354	0
30	26	0.9545257	0
30	27	0.92979926	0
30	28	0.8635238	0
30	29	0.9326481	0
30	39	0.8611747	0
30	45	0.9179129	0
31	55	0.9762884	0
31	7	0.90872633	0
31	8	0.9712923	0
31	9	0.9909888	0
31	13	0.91137815	0
31	15	0.8653889	0
31	17	0.8929999	0
31	19	0.9764252	0
31	21	0.9005448	0
31	22	0.93664896	0
31	23	0.9598073	0
31	24	0.9645778	0
31	26	0.958271	0
31	27	0.90837926	0
31	28	0.9866705	0
31	30	0.9370536	0
31	35	0.9655292	0
31	40	0.97467566	0
31	41	0.9430504	0
31	42	0.92773443	0
31	52	0.90777135	0
31	54	0.93344676	0
32	56	0.8533381	0
32	59	0.87059295	0
32	7	0.8756209	0
32	9	0.9548785	0
32	10	0.9812914	0
32	11	0.93273824	0
32	12	0.9069573	0
32	13	0.9103695	0
32	15	0.95187235	0
32	25	0.78370917	0
32	27	0.96480906	0
32	31	0.87520325	0
32	33	0.85812473	0
32	34	0.9971189	0
32	36	0.86352247	0
32	42	0.91195273	0
32	45	0.92456007	0
32	48	0.9115329	0
32	50	0.99504787	0
32	53	0.95904016	0
32	54	0.9989134	0
33	9	0.9734335	0
33	10	0.95522493	0
33	15	0.93111897	0
33	18	0.9129658	0
33	19	0.86380553	0
33	20	0.8845815	0
33	21	0.8693991	0
33	23	0.93058175	0
33	26	0.8973506	0
33	28	0.88846546	0
33	42	0.9378358	0
33	45	0.84156907	0
33	51	0.9936574	0
34	7	0.91365266	0
34	10	0.8755024	0
34	15	0.88260907	0
34	22	0.8555117	0
34	27	0.68265533	0
34	28	0.9490073	0
34	29	0.9847827	0
34	41	0.92793435	0
34	44	0.89530224	0
34	45	0.92710316	0
34	46	0.8512842	0
34	51	0.9947745	0
35	8	0.8909373	0
35	11	0.9823941	0
35	13	0.88541126	0
35	15	0.9363694	0
35	19	0.8795403	0
35	22	0.93433434	0
35	23	0.96163636	0
35	24	0.98836505	0
35	26	0.9318328	0
35	28	0.8521409	0
35	30	0.8894415	0
35	32	0.8852963	0
35	33	0.9440406	0
35	39	0.9217477	0
35	45	0.85963273	0
35	47	0.9845384	0
35	52	0.86810446	0
35	53	0.8745824	0
35	54	0.86281127	0
36	55	0.8772261	0
36	56	0.728839	0
36	8	0.9688511	0
36	10	0.9914749	0
36	13	0.9039971	0
36	14	0.6576128	0
36	16	0.9648186	0
36	18	0.88776326	0
36	19	0.994334	0
36	21	0.9185637	0
36	23	0.9970216	0
36	24	0.89664716	0
36	25	0.96002483	0
36	26	0.94997174	0
36	27	0.9699238	0
36	28	0.9186194	0
36	35	0.8707227	0
36	37	0.91789544	0
36	41	0.86873627	0
36	42	0.9021668	0
36	43	0.95266616	0
36	47	0.91790926	0
36	51	0.8809574	0
36	54	0.9747432	0
37	55	0.96419835	0
37	9	0.9388995	0
37	19	0.99357206	0
37	21	0.9789442	0
37	22	0.9448119	0
37	32	0.8919255	0
37	33	0.9085607	0
37	34	0.8381763	0
37	35	0.93228763	0
37	41	0.8568349	0
37	43	0.9585191	0
37	44	0.98867935	0
37	47	0.89468855	0
38	55	0.85319203	0
38	8	0.9961021	0
38	10	0.9836997	0
38	15	0.9654785	0
38	19	0.8926175	0
38	21	0.92907107	0
38	22	0.8725569	0
38	24	0.9131455	0
38	25	0.7313732	0
38	26	0.96153086	0
38	28	0.99158764	0
38	31	0.87449265	0
38	34	0.9095556	0
38	42	0.8550533	0
38	44	0.9415316	0
38	45	0.9012669	0
38	47	0.9625618	0
38	50	0.9781035	0
39	56	0.9106059	0
39	7	0.8796213	0
39	13	0.9772147	0
39	16	0.9698801	0
39	21	0.96460783	0
39	27	0.8915987	0
39	28	0.91503596	0
39	32	0.93623155	0
39	33	0.8921655	0
39	37	0.9697811	0
40	56	0.9987195	0
40	8	0.849407	0
40	10	0.9540729	0
40	19	0.8580593	0
40	23	0.9416417	0
40	24	0.90628266	0
40	26	0.98967767	0
40	27	0.9546081	0
40	35	0.73376733	0
40	38	0.9414736	0
40	42	0.9587603	0
40	47	0.9405381	0
40	54	0.98883593	0
41	56	0.980781	0
41	13	0.898074	0
41	15	0.8537388	0
41	18	0.6656411	0
41	21	0.99901074	0
41	22	0.9728573	0
41	24	0.95324016	0
41	26	0.8708011	0
41	33	0.96106786	0
41	38	0.91696423	0
41	39	0.8545321	0
41	48	0.91424567	0
42	55	0.8809677	0
42	13	0.9022514	0
42	15	0.7705397	0
42	18	0.9620414	0
42	19	0.87449396	0
42	21	0.9293947	0
42	22	0.85137403	0
42	23	0.91797304	0
42	28	0.86308837	0
42	37	0.9158267	0
42	39	0.8671917	0
42	41	0.9169837	0
43	9	0.86184114	0
43	10	0.9368708	0
43	11	0.94383734	0
43	15	0.8540852	0
43	18	0.91527325	0
43	19	0.9429794	0
43	21	0.9127424	0
43	31	0.7213759	0
43	35	0.9641441	0
43	38	0.93275744	0
43	39	0.8673807	0
43	40	0.96235514	0
43	42	0.8853016	0
43	45	0.8532154	0
43	48	0.9628299	0
43	51	0.8984481	0
43	52	0.90255916	0
43	53	0.88904214	0
44	56	0.90230286	0
44	58	0.96012735	0
44	15	0.9960114	0
44	17	0.91649747	0
44	19	0.9056376	0
44	20	0.9357163	0
44	21	0.86411107	0
44	23	0.9432769	0
44	27	0.86106503	0
44	28	0.84209687	0
44	40	0.8692133	0
44	42	0.9382927	0
45	56	0.8928827	0
45	9	0.91841537	0
45	13	0.7684752	0
45	18	0.90968454	0
45	22	0.7093761	0
45	24	0.8741306	0
45	27	0.9468766	0
45	37	0.9017677	0
45	40	0.7321043	0
45	42	0.97362065	0
46	57	0.9376056	0
46	8	0.9655086	0
46	13	0.94885564	0
46	15	0.9872112	0
46	17	0.96217465	0
46	18	0.9523174	0
46	19	0.88467216	0
46	22	0.981562	0
46	26	0.87928057	0
46	27	0.87792706	0
46	28	0.91285014	0
46	30	0.85305613	0
46	31	0.88750625	0
46	35	0.97751	0
46	37	0.8711751	0
46	39	0.8704064	0
46	40	0.9108373	0
46	41	0.88529867	0
46	48	0.7096815	0
46	54	0.95659953	0
47	56	0.9632536	0
47	7	0.9802584	0
47	14	0.9041426	0
47	15	0.8792121	0
47	21	0.6673884	0
47	23	0.9526955	0
47	27	0.97796726	0
47	28	0.9223734	0
47	30	0.9412951	0
47	31	0.87501407	0
47	33	0.8722226	0
47	34	0.9424261	0
47	41	0.9658565	0
47	42	0.9109468	0
47	44	0.9702465	0
47	45	0.65994537	0
47	52	0.8894652	0
48	56	0.885096	0
48	10	0.9694156	0
48	11	0.9786795	0
48	14	0.8751701	0
48	19	0.9590199	0
48	22	0.6940983	0
48	23	0.8824682	0
48	25	0.89603156	0
48	26	0.985489	0
48	27	0.89592177	0
48	30	0.9835434	0
48	31	0.8979154	0
48	34	0.9101951	0
48	35	0.9571381	0
48	37	0.9927494	0
48	40	0.8928425	0
48	45	0.9011365	0
48	47	0.9322765	0
48	50	0.94634455	0
48	51	0.92131484	0
48	53	0.9556091	0
49	7	0.9156504	0
49	10	0.95844185	0
49	13	0.86858815	0
49	14	0.9433868	0
49	16	0.85390115	0
49	18	0.9894772	0
49	26	0.90205085	0
49	30	0.89986855	0
49	37	0.9981576	0
49	39	0.89291495	0
49	41	0.8810981	0
49	42	0.88291675	0
49	45	0.9745805	0
49	47	0.867915	0
49	48	0.91294116	0
50	57	0.98482597	0
50	9	0.95123994	0
50	10	0.93470204	0
50	16	0.70674306	0
50	19	0.8649484	0
50	21	0.93084866	0
50	23	0.9788902	0
50	24	0.9646283	0
50	25	0.9176968	0
50	26	0.90777504	0
50	27	0.85370684	0
50	30	0.9406349	0
50	31	0.9373867	0
50	33	0.9784044	0
50	35	0.8830929	0
50	41	0.87008524	0
50	47	0.66019005	0
50	51	0.90837073	0
50	53	0.8801258	0
51	56	0.86826134	0
51	9	0.9886846	0
51	10	0.8722709	0
51	12	0.9777747	0
51	13	0.88621336	0
51	14	0.89079314	0
51	21	0.99276257	0
51	22	0.73040426	0
51	23	0.9048669	0
51	26	0.9468668	0
51	30	0.962566	0
51	31	0.959689	0
51	32	0.91051966	0
51	35	0.8563767	0
51	37	0.873589	0
51	39	0.912996	0
51	41	0.8732148	0
51	42	0.8976504	0
51	45	0.91366863	0
51	53	0.86983395	0
52	7	0.8946227	0
52	10	0.997695	0
52	11	0.9047926	0
52	13	0.92411417	0
52	18	0.7658764	0
52	21	0.9367446	0
52	22	0.97178376	0
52	25	0.88727176	0
52	26	0.9459191	0
52	27	0.6500461	0
52	32	0.98492384	0
52	37	0.90261936	0
52	41	0.9604051	0
52	42	0.6641836	0
52	44	0.6624845	0
52	48	0.95916164	0
52	50	0.87732303	0
52	51	0.99440527	0
52	53	0.9041481	0
53	55	0.99748635	0
53	56	0.91484106	0
53	15	0.9002217	0
53	19	0.7259586	0
53	22	0.8819447	0
53	24	0.85355294	0
53	26	0.98872286	0
53	28	0.9473607	0
53	34	0.88439727	0
53	36	0.9916437	0
53	37	0.8727381	0
53	38	0.95879275	0
53	39	0.9884289	0
53	42	0.94166005	0
53	45	0.9514179	0
54	10	0.86660534	0
54	13	0.90602225	0
54	14	0.9033294	0
54	18	0.9904732	0
54	21	0.85072994	0
54	22	0.89664066	0
54	23	0.981621	0
54	24	0.8838103	0
54	27	0.8882405	0
54	28	0.8807324	0
54	30	0.8720958	0
54	34	0.8742796	0
54	37	0.9433851	0
54	39	0.75881326	0
54	41	0.6730956	0
54	42	0.87590694	0
54	44	0.97747105	0
54	47	0.6817337	0
54	51	0.91609156	0
54	53	0.8614629	0
55	58	0.96523225	0
56	58	0.95038	0
57	58	0.9829623	0
59	57	0.9614761	0
# Tree 
# node parent parent parent ... 
59	18	32	13	9	
58	20	44	
57	14	46	50	
56	29	48	15	45	24	
55	31	42	53	14	7	
54	5	4	3	6	
53	4	6	3	5	
52	6	5	4	
51	6	3	4	5	
50	3	4	6	
49	6	5	3	
48	3	6	
47	6	3	5	4	
46	3	6	5	4	
45	3	4	
44	3	4	6	
43	6	4	
42	4	3	5	6	
41	3	4	6	5	
40	4	5	
39	5	6	3	4	
38	4	3	
37	6	3	5	4	
36	3	5	
35	3	5	6	
34	4	3	6	
33	3	4	6	
32	4	6	
31	6	4	
30	6	5	3	4	
29	6	3	4	5	
28	6	4	3	
27	5	4	6	
26	3	6	4	
25	6	5	4	3	
24	4	3	5	
23	5	3	4	6	
22	6	4	3	5	
21	5	4	
20	6	5	4	
19	6	4	5	3	
18	4	5	6	
17	5	6	
16	3	6	4	
15	3	6	
14	5	6	3	4	
13	6	5	3	4	
12	6	5	3	
11	5	4	3	
10	5	6	3	4	
9	3	4	5	6	
8	4	3	
7	6	4	5	3	
6	2	1	
5	2	1	
4	2	1	
3	2	1	
2	0	
1	0	
