# nCh	nF	nN
1	720	80
# node	nGenPack 
1	8
2	5
3	6
4	10
5	2
6	8
7	2
8	9
9	8
10	3
11	5
12	3
13	9
14	7
15	3
16	7
17	8
18	8
19	7
20	7
21	2
22	9
23	7
24	6
25	6
26	8
27	7
28	7
29	7
30	8
31	8
32	8
33	8
34	1
35	6
36	10
37	7
38	1
39	6
40	9
41	8
42	5
43	10
44	4
45	3
46	2
47	8
48	5
49	10
50	1
51	7
52	9
53	6
54	6
55	1
56	8
57	4
58	5
59	8
60	9
61	6
62	4
63	7
64	10
65	7
66	3
67	10
68	5
69	3
70	6
71	1
72	3
73	3
74	3
75	6
76	6
77	10
78	10
79	3
# nReplicas nParentLinks 
4	5
#Connectivity Graph 
# n1		n2	quality  master (Physical connectivity) 
0	1	0.965666	1
0	2	0.8751047	1
0	3	0.8837057	1
0	4	0.9847032	1
1	5	0.9914575	0
1	6	0.90738356	0
1	7	0.7077138	0
1	3	0.9809827	0
2	5	0.9277876	0
2	6	0.8613039	0
3	5	0.91725826	0
3	6	0.94665504	0
3	7	0.94961697	0
4	5	0.94464004	0
4	6	0.90953463	0
4	7	0.85552055	0
5	9	0.8903759	0
5	7	0.91692936	0
6	8	0.8996819	0
6	5	0.9221721	0
7	8	0.9204266	0
7	9	0.77231365	0
8	10	0.7470917	0
8	11	0.9912946	0
8	12	0.9003117	0
9	10	0.8553773	0
9	11	0.85216033	0
9	12	0.9257254	0
10	13	0.9443599	0
10	14	0.9569362	0
10	15	0.94648045	0
10	16	0.9842362	0
10	17	0.8583473	0
10	18	0.99648106	0
10	19	0.93560815	0
10	20	0.86756647	0
10	21	0.93295753	0
10	22	0.9818433	0
10	23	0.9609037	0
10	24	0.7167	0
10	25	0.9895228	0
10	26	0.9295243	0
10	27	0.95713395	0
10	28	0.89348304	0
10	29	0.9557827	0
10	30	0.88142353	0
10	31	0.8809374	0
10	32	0.8692616	0
10	33	0.99861836	0
10	34	0.9932922	0
10	35	0.8555592	0
10	36	0.9232017	0
10	37	0.87904406	0
10	41	0.9637954	0
10	42	0.9923395	0
10	43	0.9593948	0
10	44	0.87599397	0
10	45	0.92671025	0
10	12	0.9674282	0
11	14	0.9330391	0
11	15	0.6616837	0
11	16	0.9051968	0
11	18	0.8791638	0
11	19	0.989098	0
11	20	0.9779175	0
11	21	0.97439194	0
11	23	0.90251905	0
11	24	0.8910045	0
11	25	0.91620266	0
11	26	0.887105	0
11	28	0.8799492	0
11	29	0.8278308	0
11	30	0.85894406	0
11	31	0.8531364	0
11	33	0.86036557	0
11	34	0.8800867	0
11	35	0.9211367	0
11	36	0.97130895	0
11	37	0.65747154	0
11	38	0.9146521	0
11	39	0.9548331	0
11	40	0.8858794	0
11	41	0.97476727	0
11	42	0.9098182	0
11	43	0.7778181	0
11	44	0.9528743	0
11	45	0.94150054	0
11	46	0.9776653	0
12	13	0.8863933	0
12	14	0.8935909	0
12	15	0.97375536	0
12	16	0.9116677	0
12	17	0.8505004	0
12	18	0.85351515	0
12	19	0.9379441	0
12	20	0.8504403	0
12	21	0.8616506	0
12	22	0.9932405	0
12	23	0.89338076	0
12	24	0.87542635	0
12	25	0.89066434	0
12	26	0.94366604	0
12	27	0.8747977	0
12	28	0.9301405	0
12	29	0.87638617	0
12	31	0.8877593	0
12	32	0.9494098	0
12	34	0.95691836	0
12	35	0.980711	0
12	36	0.9369885	0
12	37	0.9064696	0
12	38	0.9611629	0
12	39	0.98471606	0
12	40	0.93737745	0
12	41	0.87581986	0
12	43	0.88120914	0
12	46	0.7063449	0
13	53	0.94893116	0
13	64	0.9757533	0
13	67	0.9877733	0
13	68	0.97186077	0
13	79	0.9397301	0
13	16	0.852195	0
13	17	0.908958	0
13	30	0.9304157	0
13	37	0.86249924	0
13	41	0.9208188	0
13	46	0.8559519	0
14	47	0.8766679	0
14	53	0.9052981	0
14	58	0.8537748	0
14	59	0.87017065	0
14	60	0.8945791	0
14	61	0.9167485	0
14	68	0.9454178	0
14	73	0.85190463	0
14	74	0.893823	0
14	75	0.97418505	0
14	13	0.9319291	0
14	15	0.85852677	0
14	17	0.93309	0
14	19	0.94689554	0
14	26	0.9444826	0
14	27	0.8370783	0
14	32	0.93248963	0
14	35	0.99946105	0
14	45	0.8949537	0
14	46	0.9195526	0
15	55	0.70318437	0
15	64	0.9079466	0
15	66	0.80521643	0
15	68	0.8729766	0
15	73	0.99689496	0
15	74	0.9457336	0
15	77	0.9009529	0
15	79	0.9731803	0
15	13	0.80691	0
15	19	0.98340434	0
15	25	0.94706416	0
15	35	0.87471634	0
16	47	0.90519804	0
16	57	0.9193551	0
16	61	0.9963489	0
16	62	0.99223495	0
16	64	0.9946697	0
16	65	0.97828794	0
16	67	0.987222	0
16	71	0.9129694	0
16	74	0.93986493	0
16	76	0.93040407	0
16	15	0.85897756	0
16	17	0.8579923	0
16	19	0.8128738	0
16	22	0.90218854	0
16	24	0.7992098	0
16	25	0.93944484	0
16	27	0.9473068	0
16	31	0.8366973	0
16	32	0.9698274	0
16	40	0.9045865	0
16	44	0.9469135	0
16	46	0.9737027	0
17	50	0.9681511	0
17	64	0.91314906	0
17	67	0.9082217	0
17	78	0.870971	0
17	79	0.87565446	0
17	26	0.7428179	0
17	30	0.9250208	0
17	33	0.8905419	0
17	39	0.97118163	0
18	47	0.98626214	0
18	49	0.97777313	0
18	50	0.66950536	0
18	61	0.9727261	0
18	62	0.8715223	0
18	65	0.94710124	0
18	67	0.89830154	0
18	68	0.9706332	0
18	73	0.9027821	0
18	74	0.88943076	0
18	75	0.85499305	0
18	78	0.9499482	0
18	13	0.7651176	0
18	25	0.937104	0
18	26	0.9131957	0
18	28	0.87791497	0
18	31	0.9145843	0
18	32	0.9837434	0
18	37	0.9102668	0
18	42	0.97702426	0
18	44	0.90989745	0
18	45	0.918904	0
18	46	0.88674325	0
19	52	0.8583016	0
19	59	0.8729541	0
19	61	0.88938946	0
19	67	0.9005679	0
19	68	0.85414904	0
19	79	0.97730196	0
19	24	0.97700137	0
19	25	0.8517632	0
19	26	0.99204963	0
19	28	0.9065065	0
19	31	0.8945437	0
19	33	0.99426174	0
19	35	0.9132142	0
19	37	0.86924404	0
19	38	0.8906476	0
19	39	0.9942362	0
19	42	0.9944196	0
19	44	0.9518598	0
19	45	0.94949466	0
19	46	0.8807837	0
20	47	0.999434	0
20	64	0.9761673	0
20	67	0.9796456	0
20	68	0.9850185	0
20	73	0.9658332	0
20	77	0.87520325	0
20	13	0.85571235	0
20	19	0.746689	0
20	24	0.99193436	0
20	27	0.87808216	0
20	30	0.9484554	0
20	31	0.87662804	0
20	32	0.95909095	0
20	33	0.97324765	0
20	35	0.91866904	0
20	37	0.97329926	0
20	40	0.8810473	0
20	42	0.86994916	0
20	43	0.8628316	0
20	44	0.86752176	0
20	46	0.93714595	0
21	51	0.8839362	0
21	54	0.95481455	0
21	67	0.9903241	0
21	68	0.99874073	0
21	74	0.97425383	0
21	75	0.87842375	0
21	15	0.8981739	0
21	16	0.9722642	0
21	17	0.9837558	0
21	22	0.9849699	0
21	24	0.9041928	0
21	25	0.8847232	0
21	28	0.7290248	0
21	29	0.93085086	0
21	31	0.9025497	0
21	33	0.9087457	0
21	37	0.87577087	0
21	40	0.75431705	0
21	41	0.9234983	0
21	42	0.9172058	0
22	58	0.9097273	0
22	59	0.95167243	0
22	61	0.9875978	0
22	62	0.9504242	0
22	65	0.9300321	0
22	67	0.9365732	0
22	68	0.8543485	0
22	70	0.94166946	0
22	74	0.8693245	0
22	75	0.85248816	0
22	76	0.9973931	0
22	79	0.67265	0
22	13	0.9406085	0
22	15	0.9276937	0
22	17	0.8576722	0
22	20	0.87416536	0
22	28	0.99012715	0
22	32	0.9100359	0
22	39	0.9471802	0
22	45	0.86199397	0
23	54	0.9735366	0
23	61	0.9156271	0
23	62	0.95099926	0
23	65	0.9044099	0
23	68	0.89966667	0
23	74	0.9692694	0
23	14	0.8516788	0
23	15	0.7431824	0
23	17	0.81288636	0
23	27	0.91170007	0
23	28	0.802963	0
23	32	0.9241954	0
23	33	0.8896231	0
23	37	0.8840426	0
23	40	0.9284148	0
23	46	0.9919228	0
24	59	0.84180063	0
24	61	0.97896606	0
24	62	0.8899401	0
24	63	0.95637286	0
24	65	0.93009436	0
24	67	0.87339896	0
24	68	0.9858984	0
24	73	0.99592495	0
24	74	0.9408986	0
24	13	0.8585552	0
24	14	0.89607644	0
24	17	0.8824239	0
24	22	0.99718887	0
24	28	0.9859386	0
24	33	0.8551802	0
24	41	0.95095885	0
24	45	0.8333281	0
25	47	0.92939174	0
25	51	0.8662607	0
25	54	0.9680963	0
25	56	0.85354465	0
25	61	0.82620454	0
25	67	0.6895493	0
25	75	0.95062864	0
25	79	0.65578973	0
25	13	0.93270713	0
25	17	0.89680886	0
25	22	0.9793134	0
25	23	0.9983554	0
25	24	0.8550037	0
25	27	0.9998891	0
25	28	0.91657245	0
25	36	0.9909376	0
25	44	0.96763027	0
26	47	0.97038746	0
26	53	0.8227412	0
26	57	0.9257887	0
26	62	0.9538286	0
26	64	0.93394774	0
26	65	0.87101406	0
26	66	0.8693119	0
26	68	0.85952014	0
26	71	0.98785526	0
26	73	0.9607222	0
26	74	0.9247316	0
26	22	0.8875156	0
26	27	0.84992015	0
26	29	0.665319	0
26	38	0.8940456	0
26	40	0.95712316	0
27	47	0.88335294	0
27	64	0.90698224	0
27	65	0.93191993	0
27	73	0.9656609	0
27	74	0.91927063	0
27	76	0.9208587	0
27	77	0.98514456	0
27	79	0.851029	0
27	13	0.99172205	0
27	15	0.8792859	0
27	18	0.9256795	0
27	22	0.9394661	0
27	24	0.990209	0
27	28	0.8533856	0
27	35	0.8292422	0
27	37	0.9964995	0
27	39	0.89583176	0
28	48	0.94465864	0
28	50	0.87011755	0
28	56	0.94835204	0
28	57	0.8974418	0
28	62	0.87583506	0
28	64	0.8966301	0
28	65	0.99985427	0
28	68	0.929442	0
28	70	0.9814335	0
28	74	0.9911122	0
28	13	0.86799246	0
28	15	0.9493768	0
28	16	0.68112886	0
28	26	0.89758646	0
28	35	0.9553001	0
28	37	0.66175973	0
28	42	0.9871485	0
29	62	0.9941049	0
29	67	0.9451048	0
29	68	0.6602211	0
29	73	0.8520247	0
29	74	0.9788535	0
29	14	0.9512266	0
29	15	0.8641985	0
29	18	0.86584157	0
29	25	0.88238853	0
29	27	0.8503985	0
29	32	0.85362726	0
29	36	0.8700731	0
29	40	0.68288505	0
29	45	0.9632464	0
30	49	0.9875027	0
30	59	0.93122524	0
30	61	0.8668492	0
30	67	0.9640139	0
30	68	0.9972588	0
30	73	0.9924183	0
30	75	0.9630179	0
30	78	0.8993076	0
30	79	0.9447916	0
30	14	0.8762431	0
30	15	0.94662446	0
30	18	0.8182222	0
30	25	0.8547218	0
30	27	0.9758064	0
30	31	0.99461037	0
30	36	0.94476825	0
30	40	0.96657467	0
30	43	0.9681267	0
30	45	0.9349106	0
31	47	0.90058523	0
31	61	0.9766056	0
31	62	0.8897556	0
31	65	0.8966034	0
31	66	0.9981263	0
31	67	0.9631282	0
31	73	0.92849934	0
31	74	0.91115063	0
31	13	0.88846767	0
31	14	0.90002894	0
31	17	0.9205379	0
31	24	0.95062923	0
31	25	0.8651756	0
31	28	0.90190214	0
31	33	0.90001	0
31	35	0.8532114	0
31	36	0.962518	0
31	42	0.8607836	0
31	43	0.94331867	0
32	47	0.881683	0
32	62	0.9109436	0
32	65	0.8926957	0
32	67	0.8613114	0
32	68	0.9374678	0
32	73	0.6752786	0
32	75	0.7023295	0
32	79	0.8534169	0
32	15	0.8577765	0
32	17	0.87402356	0
32	25	0.8650806	0
32	30	0.8906821	0
32	31	0.9975339	0
32	37	0.9884327	0
33	48	0.8697072	0
33	61	0.95837915	0
33	62	0.90513813	0
33	68	0.8979746	0
33	73	0.9621758	0
33	75	0.66882545	0
33	79	0.98556495	0
33	13	0.93281764	0
33	14	0.98657894	0
33	18	0.99598354	0
33	25	0.93891335	0
33	26	0.9138607	0
33	28	0.9284536	0
33	29	0.9934057	0
33	30	0.95175	0
33	32	0.9039861	0
33	37	0.815451	0
34	51	0.95263815	0
34	52	0.81355304	0
34	53	0.89794296	0
34	54	0.9614877	0
34	62	0.910909	0
34	63	0.9803971	0
34	73	0.92124474	0
34	75	0.98976266	0
34	13	0.9744044	0
34	15	0.89237666	0
34	16	0.90584135	0
34	17	0.92274225	0
34	18	0.86651427	0
34	22	0.8666453	0
34	25	0.88141227	0
34	27	0.9014211	0
34	28	0.88983977	0
34	33	0.91147405	0
34	39	0.86125416	0
34	40	0.91631335	0
34	41	0.99645495	0
34	44	0.99939793	0
34	46	0.85910547	0
35	61	0.8804538	0
35	62	0.9315159	0
35	67	0.9072812	0
35	68	0.92147386	0
35	77	0.9310082	0
35	17	0.7835796	0
35	23	0.90507686	0
35	24	0.70677674	0
35	29	0.9519447	0
35	33	0.9607661	0
35	39	0.96336734	0
35	45	0.96928686	0
36	51	0.9499888	0
36	56	0.9188339	0
36	59	0.9096944	0
36	61	0.8689189	0
36	67	0.8747813	0
36	68	0.93385667	0
36	73	0.9487045	0
36	13	0.89358795	0
36	15	0.93221503	0
36	17	0.85177064	0
36	22	0.96092135	0
36	24	0.85313225	0
36	32	0.95508313	0
36	33	0.9576016	0
36	39	0.89820296	0
36	40	0.9184211	0
36	44	0.8894269	0
37	52	0.87729084	0
37	59	0.93210906	0
37	61	0.8546368	0
37	62	0.97497314	0
37	64	0.92539334	0
37	67	0.85003155	0
37	69	0.7150987	0
37	73	0.9190188	0
37	74	0.9891909	0
37	15	0.9084691	0
37	17	0.9263304	0
37	22	0.8990639	0
37	25	0.8844603	0
37	30	0.9085251	0
37	31	0.9320802	0
37	36	0.9558825	0
37	46	0.8352991	0
38	59	0.85466206	0
38	66	0.98563266	0
38	67	0.97659576	0
38	68	0.9454445	0
38	75	0.8772364	0
38	13	0.86112297	0
38	15	0.8772428	0
38	17	0.9769532	0
38	24	0.74368596	0
38	25	0.8772144	0
38	35	0.89239734	0
38	36	0.96255636	0
38	37	0.9131939	0
38	41	0.95546746	0
38	44	0.85780597	0
38	46	0.77618575	0
39	47	0.8770656	0
39	48	0.94132656	0
39	59	0.8868562	0
39	65	0.8525461	0
39	67	0.95050114	0
39	69	0.99077266	0
39	74	0.92728215	0
39	13	0.99049884	0
39	14	0.99864423	0
39	15	0.9814479	0
39	16	0.92652154	0
39	23	0.8975341	0
39	24	0.9486953	0
39	26	0.8563469	0
39	31	0.891163	0
39	32	0.8440352	0
39	33	0.9578776	0
39	37	0.85551983	0
39	38	0.9993477	0
39	40	0.9836033	0
39	45	0.9747654	0
40	47	0.8886055	0
40	64	0.8527809	0
40	65	0.85916626	0
40	68	0.86998934	0
40	73	0.9870471	0
40	74	0.74866503	0
40	76	0.9915086	0
40	13	0.85522693	0
40	14	0.81408846	0
40	15	0.8657493	0
40	17	0.90650827	0
40	24	0.79599166	0
40	25	0.8354517	0
40	27	0.9710675	0
40	31	0.85276586	0
40	32	0.956888	0
40	33	0.93815804	0
40	35	0.8762367	0
40	37	0.9799861	0
41	47	0.87516975	0
41	61	0.6578932	0
41	64	0.9888879	0
41	65	0.90096074	0
41	72	0.94708693	0
41	73	0.8665722	0
41	74	0.881971	0
41	79	0.90725964	0
41	15	0.77524227	0
41	16	0.7523111	0
41	19	0.9394556	0
41	23	0.6612929	0
41	25	0.9286495	0
41	27	0.8860371	0
41	28	0.935344	0
41	32	0.9549073	0
41	36	0.8110797	0
41	37	0.9217699	0
41	39	0.9787592	0
41	46	0.91829216	0
42	55	0.8849909	0
42	56	0.9159015	0
42	57	0.9065612	0
42	58	0.87890124	0
42	60	0.96822286	0
42	61	0.85756195	0
42	62	0.8940025	0
42	64	0.9826487	0
42	65	0.93326145	0
42	67	0.8993804	0
42	68	0.89682746	0
42	72	0.8755401	0
42	74	0.8997342	0
42	13	0.9495575	0
42	15	0.8631923	0
42	16	0.8606327	0
42	24	0.8608052	0
42	25	0.85691816	0
42	26	0.94875443	0
42	27	0.9165889	0
42	30	0.8975869	0
42	33	0.79512393	0
42	35	0.8962226	0
42	37	0.87340045	0
42	38	0.93862474	0
42	39	0.87946975	0
42	40	0.9159874	0
43	61	0.8596118	0
43	69	0.8656637	0
43	75	0.9447826	0
43	13	0.93278366	0
43	15	0.86398023	0
43	17	0.9382757	0
43	23	0.8897826	0
43	25	0.92620385	0
43	27	0.73873335	0
43	28	0.938182	0
43	38	0.91875315	0
43	41	0.9984899	0
43	42	0.9985727	0
43	44	0.99338865	0
43	45	0.9190632	0
44	49	0.9217675	0
44	59	0.85431325	0
44	68	0.8532116	0
44	69	0.9930136	0
44	70	0.78206134	0
44	73	0.905966	0
44	74	0.9991493	0
44	13	0.96619695	0
44	14	0.9968547	0
44	15	0.9497507	0
44	17	0.9216774	0
44	28	0.95075214	0
44	30	0.9356303	0
44	32	0.977301	0
44	35	0.9068123	0
44	39	0.90547186	0
44	40	0.98962843	0
44	42	0.88893753	0
44	45	0.9311424	0
44	46	0.97882503	0
45	47	0.85096	0
45	49	0.8844008	0
45	50	0.9012612	0
45	67	0.9381477	0
45	71	0.8964634	0
45	72	0.9964452	0
45	73	0.91764146	0
45	74	0.97506326	0
45	75	0.9831751	0
45	16	0.6538803	0
45	17	0.97930914	0
45	25	0.7556252	0
45	32	0.89008045	0
45	36	0.9096279	0
45	38	0.9727477	0
45	41	0.972731	0
45	42	0.7178288	0
46	61	0.93663406	0
46	71	0.86206645	0
46	73	0.9690324	0
46	79	0.95786136	0
46	17	0.7499637	0
46	24	0.8732825	0
46	25	0.9222642	0
46	27	0.94172776	0
46	28	0.9430255	0
46	31	0.9612809	0
46	32	0.95204246	0
46	33	0.8942528	0
46	45	0.9490314	0
47	50	0.98828894	0
47	52	0.8516039	0
47	53	0.9834258	0
47	55	0.943663	0
47	57	0.8646921	0
47	63	0.8655615	0
47	66	0.94346666	0
47	69	0.90883994	0
47	71	0.8554183	0
47	72	0.9591874	0
48	49	0.8939748	0
48	50	0.90646315	0
48	56	0.9953796	0
48	60	0.87781864	0
48	63	0.9636073	0
48	72	0.99351454	0
48	76	0.9351669	0
49	69	0.92634857	0
49	70	0.9367009	0
49	71	0.92540133	0
49	78	0.90436846	0
50	49	0.88572025	0
50	51	0.88314235	0
50	53	0.943979	0
50	54	0.7368744	0
50	60	0.9867842	0
50	63	0.9281664	0
50	69	0.93898654	0
50	70	0.8811911	0
50	72	0.92541254	0
50	76	0.7219245	0
50	77	0.8507501	0
51	48	0.8626064	0
51	49	0.8551797	0
51	54	0.8784889	0
52	48	0.8655102	0
52	49	0.85198545	0
52	50	0.869582	0
53	51	0.90273625	0
53	56	0.8469231	0
53	57	0.9713721	0
53	60	0.8659876	0
53	71	0.9637009	0
53	72	0.74792296	0
54	63	0.8140442	0
54	72	0.8790026	0
55	48	0.8769406	0
55	49	0.93676305	0
55	50	0.96338075	0
55	52	0.95682424	0
55	53	0.9691352	0
55	56	0.9918808	0
55	66	0.9286432	0
55	69	0.97727215	0
56	54	0.9046483	0
56	57	0.7171096	0
56	69	0.760746	0
56	72	0.93391794	0
57	50	0.938287	0
57	51	0.88404125	0
57	52	0.9770361	0
57	58	0.9279295	0
57	66	0.8951615	0
57	70	0.92760843	0
57	71	0.9321377	0
57	72	0.90657103	0
57	76	0.897488	0
58	50	0.8865118	0
58	54	0.9660356	0
58	69	0.87680846	0
58	72	0.9714633	0
58	76	0.87766486	0
58	77	0.9726654	0
59	50	0.9997828	0
59	51	0.7902447	0
59	52	0.91121405	0
59	54	0.87604946	0
59	56	0.981642	0
59	57	0.91964287	0
59	60	0.9308497	0
59	63	0.87839353	0
59	66	0.8878533	0
59	72	0.8730533	0
59	76	0.9595959	0
59	77	0.8600385	0
60	49	0.87257195	0
60	51	0.91189945	0
60	54	0.9637849	0
60	56	0.9607181	0
60	57	0.7366293	0
60	58	0.9232249	0
60	78	0.9900279	0
61	50	0.95898265	0
61	51	0.8526078	0
61	56	0.86171323	0
61	69	0.93062246	0
61	71	0.9862176	0
61	72	0.89059997	0
61	78	0.7539064	0
62	48	0.8594689	0
62	49	0.85281307	0
62	51	0.9230616	0
62	52	0.9720735	0
62	57	0.9587132	0
62	63	0.9139384	0
62	69	0.96337736	0
62	71	0.9605064	0
62	72	0.74617	0
63	49	0.86465347	0
63	57	0.99426544	0
63	69	0.971307	0
63	72	0.9444331	0
63	78	0.93725896	0
64	51	0.9392044	0
64	52	0.8997744	0
64	53	0.9190239	0
64	54	0.91351396	0
64	55	0.8000949	0
64	57	0.8777529	0
64	69	0.8891254	0
64	70	0.87243956	0
64	71	0.79338175	0
64	76	0.89599997	0
64	78	0.85448176	0
65	48	0.9493829	0
65	52	0.9848952	0
65	53	0.8509193	0
65	56	0.6562924	0
65	57	0.95132816	0
65	60	0.73387814	0
65	63	0.86464506	0
65	66	0.98569405	0
65	71	0.93396974	0
65	76	0.9283082	0
65	78	0.93856615	0
66	49	0.97430956	0
66	52	0.6611989	0
66	53	0.920852	0
66	54	0.8943431	0
66	56	0.8936162	0
66	60	0.8661916	0
66	63	0.9156708	0
66	76	0.91212064	0
67	49	0.87131727	0
67	52	0.86365956	0
67	53	0.9411402	0
67	55	0.88134927	0
67	57	0.9160661	0
67	63	0.98934436	0
67	70	0.9448557	0
67	72	0.9691961	0
67	78	0.95861614	0
68	48	0.9982922	0
68	50	0.85495424	0
68	51	0.78029925	0
68	71	0.8853916	0
69	51	0.89365554	0
69	52	0.94307464	0
69	53	0.93597883	0
69	57	0.99151903	0
69	60	0.71026754	0
69	66	0.9507461	0
69	71	0.8962766	0
69	72	0.92252624	0
70	52	0.8580419	0
70	53	0.8510376	0
70	54	0.8662868	0
70	66	0.9752119	0
70	69	0.9856966	0
70	71	0.788355	0
70	78	0.87444127	0
71	51	0.98464745	0
71	52	0.9709872	0
71	54	0.9087444	0
71	55	0.9936775	0
71	56	0.8634567	0
71	63	0.99254316	0
71	66	0.66856146	0
72	49	0.9130529	0
72	51	0.94757104	0
72	52	0.7136538	0
72	60	0.9609544	0
72	66	0.9421834	0
72	70	0.91806066	0
72	71	0.9926299	0
73	49	0.8680234	0
73	50	0.9439226	0
73	51	0.88971215	0
73	66	0.9139453	0
73	69	0.9005477	0
73	76	0.91585886	0
73	78	0.9440995	0
74	49	0.9693788	0
74	51	0.8521574	0
74	52	0.89524597	0
74	54	0.90582013	0
74	57	0.86465526	0
74	58	0.7864678	0
74	66	0.9243744	0
74	69	0.9573956	0
74	70	0.9008107	0
74	77	0.8926877	0
75	51	0.9725183	0
75	52	0.9347817	0
75	57	0.8505539	0
75	58	0.91528785	0
75	69	0.92892426	0
75	70	0.96920747	0
76	49	0.9184333	0
76	52	0.9582156	0
76	54	0.9284684	0
76	55	0.851556	0
76	56	0.9698346	0
76	60	0.89369833	0
76	63	0.9487386	0
76	69	0.7261736	0
76	71	0.9851196	0
77	53	0.7587336	0
77	54	0.87713903	0
77	55	0.99235857	0
77	56	0.95016897	0
77	57	0.66045064	0
77	60	0.8815062	0
77	63	0.93317366	0
77	69	0.8499943	0
77	72	0.7793714	0
77	76	0.8108647	0
78	48	0.8971743	0
78	50	0.8312842	0
78	52	0.9680664	0
78	56	0.88970673	0
78	57	0.9385428	0
78	58	0.9395895	0
78	71	0.8850504	0
78	72	0.717294	0
79	48	0.99540025	0
79	50	0.853298	0
79	51	0.91528535	0
79	52	0.99525744	0
79	54	0.9922993	0
79	56	0.9779771	0
79	60	0.88411415	0
79	63	0.99221593	0
79	69	0.75713515	0
79	70	0.9743892	0
79	71	0.90156794	0
79	72	0.948331	0
79	76	0.95881605	0
# Tree 
# node parent parent parent ... 
79	32	25	30	17	13	
78	30	18	17	
77	15	20	27	35	
76	22	27	16	40	
75	33	45	21	38	30	
74	15	23	44	22	42	
73	15	36	14	18	33	
72	41	42	45	
71	46	16	45	26	
70	44	28	22	
69	43	37	39	44	
68	23	21	44	13	38	
67	39	38	22	32	29	
66	31	26	15	38	
65	23	27	16	22	40	
64	40	27	42	17	28	
63	34	24	
62	33	32	35	24	26	
61	19	35	41	46	33	
60	14	42	
59	24	38	39	14	36	
58	22	14	42	
57	28	26	42	16	
56	36	25	42	28	
55	15	42	
54	34	21	25	23	
53	34	14	13	26	
52	37	34	19	
51	34	21	36	25	
50	45	28	17	18	
49	45	30	44	18	
48	39	28	33	
47	40	20	31	16	18	
46	11	12	
45	11	10	
44	11	10	
43	10	11	12	
42	10	11	
41	11	10	12	
40	12	11	
39	12	11	
38	12	11	
37	10	11	12	
36	10	12	11	
35	12	10	11	
34	11	12	10	
33	11	10	
32	10	12	
31	10	11	12	
30	11	10	
29	11	10	12	
28	11	10	12	
27	10	12	
26	11	10	12	
25	12	10	11	
24	10	12	11	
23	11	10	12	
22	10	12	
21	10	12	11	
20	11	12	10	
19	10	11	12	
18	11	10	12	
17	10	12	
16	12	11	10	
15	11	12	10	
14	10	11	12	
13	10	12	
12	8	9	
11	9	8	
10	9	8	
9	5	7	
8	7	6	
7	3	1	4	
6	3	2	4	1	
5	4	3	1	2	
4	0	
3	0	
2	0	
1	0	
