# nCh	nF	nN
1	720	20
# node	nGenPack 
1	10
2	8
3	9
4	3
5	3
6	7
7	6
8	5
9	2
10	9
11	9
12	10
13	6
14	7
15	4
16	9
17	3
18	10
19	1
# nReplicas nParentLinks 
1	5
#Connectivity Graph 
# n1		n2	quality  master (Physical connectivity) 
0	1	0.87254566	1
0	2	0.69177336	1
1	3	0.8820715	0
1	4	0.87450993	0
1	5	0.83108866	0
2	3	0.8571852	0
2	4	0.98737484	0
2	5	0.9575367	0
3	7	0.9788706	0
3	8	0.99735534	0
3	4	0.99118984	0
4	6	0.865536	0
4	7	0.9364726	0
4	8	0.88977265	0
5	6	0.7499014	0
5	7	0.8516923	0
5	8	0.9935655	0
6	9	0.943768	0
6	11	0.93364394	0
6	13	0.85670394	0
6	14	0.9806918	0
6	15	0.964794	0
6	16	0.91373265	0
6	17	0.960819	0
7	10	0.8786796	0
7	11	0.9545137	0
7	12	0.92376566	0
7	13	0.9115331	0
7	14	0.91143596	0
7	15	0.753618	0
7	6	0.98034024	0
8	9	0.89341116	0
8	10	0.9128161	0
8	11	0.8892549	0
8	12	0.90216225	0
8	15	0.86291635	0
8	16	0.87573576	0
8	17	0.95891	0
9	15	0.9076038	0
9	16	0.9282031	0
10	19	0.9388955	0
10	11	0.89676684	0
10	12	0.96636695	0
10	15	0.85087204	0
10	17	0.8800652	0
11	15	0.9419871	0
12	18	0.9155872	0
12	11	0.94405323	0
12	17	0.89936966	0
13	18	0.8988931	0
13	19	0.9291182	0
13	11	0.96763855	0
13	12	0.9374066	0
13	15	0.91187274	0
13	16	0.89713836	0
14	18	0.98142993	0
14	12	0.97990096	0
15	19	0.9336362	0
15	14	0.9031831	0
16	18	0.90538466	0
17	14	0.87062484	0
17	15	0.9274024	0
17	16	0.92231125	0
# Tree 
# node parent parent parent ... 
19	15	10	13	
18	12	14	13	16	
17	8	6	
16	6	8	
15	6	8	7	
14	6	7	
13	7	6	
12	7	8	
11	8	6	7	
10	8	7	
9	8	6	
8	5	3	4	
7	4	3	5	
6	5	4	
5	2	1	
4	2	1	
3	2	1	
2	0	
1	0	
