# nCh	nF	nN
1	720	40
# node	nGenPack 
1	5
2	2
3	4
4	10
5	9
6	4
7	5
8	1
9	8
10	8
11	7
12	8
13	9
14	6
15	7
16	7
17	10
18	3
19	1
20	2
21	3
22	6
23	10
24	2
25	7
26	8
27	4
28	5
29	8
30	7
31	10
32	7
33	8
34	1
35	2
36	2
37	9
38	10
39	5
# nReplicas nParentLinks 
3	5
#Connectivity Graph 
# n1		n2	quality  master (Physical connectivity) 
0	1	0.9561012	1
0	2	0.9212963	1
1	3	0.86268485	0
1	4	0.94027114	0
1	5	0.9853371	0
2	3	0.9550981	0
2	4	0.8589791	0
2	5	0.8776321	0
2	1	0.90885305	0
3	6	0.8961126	0
3	8	0.8976735	0
3	13	0.98523	0
3	14	0.9678762	0
3	15	0.9404501	0
3	16	0.85171914	0
3	17	0.908343	0
3	19	0.9747412	0
3	20	0.88429147	0
3	21	0.92381334	0
3	22	0.93246	0
3	23	0.9088498	0
3	24	0.9511771	0
4	6	0.7409108	0
4	7	0.9407648	0
4	8	0.9899973	0
4	9	0.9345092	0
4	10	0.8550294	0
4	11	0.7739635	0
4	12	0.9172452	0
4	13	0.94135535	0
4	14	0.90004295	0
4	15	0.96283406	0
4	16	0.8921263	0
4	17	0.94654334	0
4	18	0.88989305	0
4	20	0.91575	0
4	21	0.6778569	0
4	22	0.8710076	0
4	23	0.9593815	0
4	24	0.8873989	0
5	7	0.90640086	0
5	8	0.85002863	0
5	9	0.9088064	0
5	10	0.9931573	0
5	11	0.95216614	0
5	12	0.89658546	0
5	13	0.92334044	0
5	14	0.94131464	0
5	15	0.9252179	0
5	16	0.8605424	0
5	17	0.85761964	0
5	18	0.93903244	0
5	19	0.939345	0
5	20	0.7033911	0
5	22	0.98849255	0
5	23	0.9028959	0
5	24	0.7149788	0
5	4	0.90186006	0
6	27	0.95112616	0
6	34	0.99010473	0
6	14	0.66719943	0
6	15	0.9074274	0
6	17	0.95555174	0
6	18	0.9367213	0
6	19	0.8973256	0
6	21	0.86518955	0
6	22	0.7136853	0
7	27	0.9599714	0
7	37	0.9969884	0
7	9	0.87666637	0
7	14	0.9673609	0
7	18	0.88703567	0
7	21	0.95810145	0
7	24	0.9018454	0
8	26	0.94155264	0
8	6	0.95716614	0
8	12	0.9268016	0
8	15	0.88699734	0
8	19	0.8828155	0
9	27	0.86031544	0
9	32	0.93144417	0
9	6	0.99371845	0
9	12	0.8421426	0
9	17	0.9398229	0
9	21	0.99325967	0
10	34	0.98834956	0
10	38	0.8443945	0
10	9	0.9325501	0
10	17	0.9775513	0
10	18	0.8810803	0
10	19	0.9279613	0
10	22	0.8866355	0
11	29	0.95380616	0
11	30	0.755818	0
11	32	0.98484457	0
11	34	0.8859249	0
11	35	0.9656988	0
11	8	0.7770283	0
11	9	0.95817	0
11	14	0.724568	0
11	17	0.9837088	0
11	19	0.86390203	0
11	24	0.88473403	0
12	25	0.9366277	0
12	26	0.9190691	0
12	29	0.8929868	0
12	31	0.9639713	0
12	20	0.83824176	0
12	22	0.8597854	0
12	24	0.8550511	0
13	32	0.96438926	0
13	33	0.9846089	0
13	12	0.9599659	0
13	15	0.92963296	0
13	18	0.8403733	0
13	21	0.9592417	0
13	22	0.9091661	0
13	23	0.9929656	0
13	24	0.9157471	0
14	26	0.87513864	0
14	34	0.91816485	0
14	37	0.8842742	0
14	9	0.94075644	0
14	16	0.9595637	0
14	18	0.9366862	0
14	20	0.8733581	0
14	21	0.98955023	0
14	22	0.8782075	0
14	23	0.88691294	0
15	27	0.9823617	0
15	30	0.923918	0
15	32	0.9326115	0
15	34	0.99734116	0
15	7	0.98431313	0
15	9	0.961439	0
15	12	0.8918195	0
15	18	0.6771377	0
16	25	0.8677546	0
16	26	0.94674677	0
16	32	0.7442891	0
16	34	0.96394336	0
16	36	0.8796501	0
16	7	0.99205685	0
16	9	0.86867017	0
16	11	0.8607704	0
16	12	0.86473197	0
16	15	0.9095331	0
16	18	0.8641957	0
16	19	0.9883472	0
17	26	0.9234552	0
17	34	0.8331716	0
17	38	0.9574817	0
17	20	0.9616395	0
18	26	0.96088046	0
18	29	0.86659616	0
18	31	0.85853314	0
18	32	0.89610744	0
18	33	0.9334922	0
18	36	0.87680376	0
18	38	0.9366088	0
18	39	0.93612224	0
18	11	0.85932744	0
18	17	0.86990654	0
18	21	0.9104612	0
18	22	0.7533879	0
18	23	0.70226616	0
18	24	0.9814508	0
19	26	0.67712295	0
19	27	0.9994873	0
19	32	0.8532245	0
19	36	0.9258019	0
19	39	0.9645506	0
19	7	0.8750371	0
19	9	0.8533534	0
19	12	0.896427	0
19	15	0.8938774	0
19	17	0.86089134	0
19	18	0.8775268	0
19	22	0.92076284	0
20	32	0.9895972	0
20	34	0.9982151	0
20	9	0.91247195	0
20	13	0.8922596	0
20	15	0.9943559	0
20	16	0.889618	0
20	18	0.8744299	0
20	21	0.91606176	0
20	23	0.87421167	0
21	32	0.9535931	0
21	34	0.9621332	0
21	8	0.9476615	0
21	10	0.9327952	0
21	11	0.87406975	0
21	12	0.8637643	0
21	17	0.8629229	0
21	19	0.87881494	0
21	22	0.96193105	0
22	26	0.93725324	0
22	28	0.9552923	0
22	35	0.90126926	0
22	37	0.9381954	0
22	38	0.9068176	0
22	8	0.89413345	0
22	9	0.85006684	0
22	17	0.9660449	0
22	20	0.91590035	0
23	26	0.9512622	0
23	28	0.72498876	0
23	34	0.9333893	0
23	8	0.96371025	0
23	9	0.8866664	0
23	11	0.8626396	0
23	15	0.899816	0
23	16	0.83183193	0
23	21	0.96975243	0
23	22	0.94561845	0
24	27	0.8740839	0
24	32	0.97995436	0
24	8	0.9508645	0
24	9	0.90584594	0
24	14	0.94207984	0
24	21	0.9833993	0
24	23	0.8600678	0
25	35	0.92422307	0
25	38	0.8570932	0
26	29	0.9827852	0
26	35	0.87540936	0
26	36	0.94753873	0
26	38	0.9379996	0
27	30	0.95036036	0
27	33	0.8750212	0
27	35	0.9435252	0
27	36	0.8971903	0
27	37	0.99283767	0
27	39	0.8698679	0
28	25	0.9715038	0
28	29	0.99582714	0
28	36	0.87320054	0
29	35	0.9358152	0
29	37	0.90752745	0
29	38	0.9190338	0
30	28	0.92824286	0
31	25	0.975422	0
32	25	0.8935291	0
32	28	0.9746396	0
32	31	0.9088553	0
32	35	0.91796434	0
32	36	0.9264679	0
32	37	0.8761357	0
32	39	0.99541074	0
33	25	0.91258	0
33	29	0.90552866	0
33	31	0.71869636	0
34	28	0.72734326	0
34	35	0.9895458	0
34	36	0.911497	0
34	37	0.8541816	0
34	38	0.9998485	0
35	28	0.8597299	0
35	33	0.75206286	0
36	25	0.8721615	0
36	29	0.87493044	0
36	30	0.9003762	0
36	31	0.93773806	0
36	35	0.87391806	0
37	28	0.6960481	0
37	30	0.87645507	0
37	31	0.88331705	0
37	35	0.7652655	0
37	36	0.920552	0
37	38	0.7562169	0
38	28	0.874389	0
38	30	0.94522405	0
38	31	0.889547	0
39	29	0.925807	0
39	31	0.97833467	0
39	33	0.8105199	0
39	35	0.97705495	0
39	37	0.8218979	0
# Tree 
# node parent parent parent ... 
39	19	18	
38	17	22	10	18	
37	22	14	7	
36	18	19	16	
35	11	22	
34	15	14	20	17	6	
33	18	13	
32	16	24	13	9	18	
31	18	12	
30	11	15	
29	12	18	11	
28	22	23	
27	9	19	6	15	7	
26	17	16	22	14	23	
25	16	12	
24	4	3	5	
23	5	3	4	
22	5	3	4	
21	3	4	
20	3	5	4	
19	5	3	
18	4	5	
17	3	4	5	
16	3	4	5	
15	4	3	5	
14	5	3	4	
13	5	3	4	
12	5	4	
11	5	4	
10	5	4	
9	4	5	
8	3	4	5	
7	5	4	
6	3	4	
5	2	1	
4	1	2	
3	2	1	
2	0	
1	0	
