# nCh	nF	nN
1	720	20
# node	nGenPack 
1	3
2	1
3	5
4	3
5	3
6	6
7	7
8	7
9	9
10	6
11	4
12	9
13	10
14	4
15	7
16	5
17	7
18	7
19	1
# nReplicas nParentLinks 
4	5
#Connectivity Graph 
# n1		n2	quality  master (Physical connectivity) 
0	1	0.8603291	1
0	2	0.91095924	1
1	3	0.9153156	0
1	4	0.9209929	0
2	3	0.95540637	0
2	4	0.9750517	0
3	5	0.8346917	0
3	6	0.9050347	0
3	7	0.9116777	0
4	5	0.7675065	0
4	6	0.8685019	0
4	7	0.96706045	0
5	8	0.88271046	0
5	9	0.8709846	0
5	10	0.65207696	0
5	11	0.96519786	0
6	8	0.6571907	0
6	9	0.9913847	0
6	10	0.8542663	0
6	11	0.9897168	0
6	12	0.9739448	0
7	8	0.9530074	0
7	9	0.92532444	0
7	10	0.901985	0
7	11	0.89491236	0
7	12	0.93411225	0
7	6	0.8588432	0
8	15	0.714992	0
8	16	0.7221881	0
8	9	0.949919	0
8	10	0.8655802	0
9	14	0.8682815	0
9	15	0.88549113	0
9	16	0.9814848	0
9	17	0.94961256	0
10	13	0.9881314	0
10	14	0.98209494	0
10	15	0.9684536	0
10	16	0.8966882	0
10	9	0.9364157	0
10	11	0.9732828	0
11	15	0.9646072	0
11	16	0.9097219	0
11	8	0.78482693	0
12	13	0.961798	0
12	14	0.9170793	0
12	15	0.8673237	0
12	16	0.9307709	0
12	17	0.8760892	0
12	9	0.8605017	0
13	18	0.9020564	0
13	19	0.87848276	0
13	17	0.8815474	0
14	18	0.91245645	0
14	19	0.8839009	0
14	13	0.9528634	0
15	19	0.9441973	0
15	13	0.8630861	0
16	18	0.93847984	0
16	19	0.92469347	0
16	13	0.88198066	0
16	17	0.95047706	0
17	18	0.9781675	0
17	19	0.8889671	0
17	14	0.7466626	0
# Tree 
# node parent parent parent ... 
19	13	14	16	15	17	
18	16	13	17	14	
17	12	9	
16	8	12	10	9	11	
15	11	10	9	12	8	
14	9	12	10	
13	12	10	
12	7	6	
11	7	5	6	
10	5	6	7	
9	5	7	6	
8	5	7	6	
7	4	3	
6	4	3	
5	3	4	
4	1	2	
3	1	2	
2	0	
1	0	
