# nCh	nF	nN
1	720	20
# node	nGenPack 
1	8
2	10
3	2
4	3
5	9
6	2
7	9
8	5
9	10
10	3
11	5
12	7
13	8
14	8
15	8
16	9
17	8
18	7
19	10
# nReplicas nParentLinks 
3	5
#Connectivity Graph 
# n1		n2	quality  master (Physical connectivity) 
0	1	0.9071615	1
0	2	0.7582389	1
0	3	0.96216905	1
0	4	0.9904055	1
0	5	0.9457566	1
0	6	0.99835324	1
1	7	0.9543674	0
1	10	0.93880093	0
1	13	0.97390884	0
1	15	0.9261578	0
1	16	0.9724909	0
1	2	0.8328502	0
1	6	0.94961333	0
2	7	0.735546	0
2	10	0.82520103	0
2	11	0.9209996	0
2	12	0.9532632	0
2	13	0.9354802	0
2	14	0.95300454	0
2	15	0.9857337	0
2	16	0.9745579	0
2	5	0.98634166	0
3	7	0.9560474	0
3	9	0.88991946	0
3	10	0.9833956	0
3	11	0.7461385	0
3	12	0.86417425	0
3	14	0.8874953	0
3	16	0.96101844	0
3	2	0.9128782	0
3	4	0.970655	0
4	9	0.93029666	0
4	11	0.6504794	0
4	12	0.90832454	0
4	13	0.9963872	0
4	15	0.88626516	0
5	7	0.9651751	0
5	8	0.8681085	0
5	9	0.93688923	0
5	10	0.8177911	0
5	11	0.90400386	0
5	12	0.94149864	0
5	13	0.9720136	0
5	15	0.8613667	0
5	16	0.94186014	0
5	3	0.7077825	0
6	7	0.9943505	0
6	8	0.916594	0
6	10	0.90342325	0
6	11	0.9052446	0
6	12	0.88621974	0
6	13	0.9153937	0
6	15	0.94676644	0
6	16	0.93510437	0
6	4	0.88857496	0
6	5	0.85981053	0
7	18	0.97094035	0
7	19	0.8550693	0
7	14	0.9100464	0
8	17	0.94191617	0
8	18	0.87084967	0
9	17	0.72186804	0
9	18	0.9337031	0
10	19	0.72004783	0
10	9	0.9152069	0
10	14	0.86147326	0
11	19	0.8851877	0
12	17	0.88284236	0
12	19	0.93992585	0
12	8	0.87201554	0
12	9	0.9241792	0
14	19	0.9021539	0
15	17	0.9768602	0
15	18	0.9000639	0
15	9	0.92382634	0
16	18	0.9186498	0
16	19	0.87751216	0
16	8	0.8535091	0
16	9	0.89369166	0
# Tree 
# node parent parent parent ... 
19	10	12	7	14	11	
18	9	16	7	8	15	
17	15	12	8	9	
16	1	6	3	2	5	
15	6	4	5	1	2	
14	3	2	
13	6	1	2	4	5	
12	3	2	6	4	5	
11	2	5	4	3	6	
10	5	2	6	3	1	
9	5	4	3	
8	5	6	
7	2	5	6	1	3	
6	0	
5	0	
4	0	
3	0	
2	0	
1	0	
