# nCh	nF	nN
4	720	40
# node	nGenPack 
1	5
2	10
3	1
4	4
5	6
6	2
7	1
8	4
9	3
10	1
11	6
12	9
13	7
14	8
15	2
16	5
17	10
18	4
19	9
20	4
21	7
22	10
23	8
24	4
25	8
26	6
27	10
28	4
29	8
30	5
31	5
32	7
33	8
34	4
35	10
36	5
37	3
38	6
39	1
# nReplicas nParentLinks 
3	5
#Connectivity Graph 
# n1		n2	quality  master (Physical connectivity) 
0	1	0.9985648	1
0	2	0.9198101	1
1	3	0.9483384	0
1	4	0.93584824	0
1	5	0.9546363	0
1	6	0.9675785	0
1	7	0.85614437	0
1	8	0.9783636	0
1	9	0.81398326	0
1	10	0.988212	0
1	11	0.6669365	0
2	3	0.668949	0
2	4	0.96453065	0
2	5	0.85138506	0
2	6	0.806966	0
2	7	0.971315	0
2	8	0.9645837	0
2	9	0.98309547	0
2	10	0.92004114	0
2	11	0.9904065	0
2	1	0.92510086	0
3	15	0.8232131	0
3	4	0.9824842	0
3	5	0.6910128	0
4	12	0.8844675	0
5	12	0.94076055	0
5	16	0.660516	0
5	4	0.96429014	0
6	12	0.957746	0
6	13	0.98451877	0
6	3	0.98871	0
6	4	0.9936918	0
6	5	0.96009874	0
6	9	0.80594504	0
7	12	0.92643493	0
7	13	0.89976335	0
7	3	0.8410958	0
7	9	0.7001565	0
8	14	0.9057607	0
8	16	0.907246	0
8	3	0.95053244	0
8	9	0.8579489	0
8	10	0.92747194	0
9	12	0.9131594	0
9	3	0.93577963	0
9	4	0.8678261	0
9	5	0.9965055	0
10	13	0.90082383	0
10	4	0.9853009	0
10	5	0.9028121	0
10	9	0.8992781	0
11	12	0.9903676	0
11	14	0.8919568	0
11	15	0.95121205	0
11	3	0.9214227	0
11	4	0.90441185	0
12	19	0.9052316	0
12	20	0.93178225	0
12	21	0.86473536	0
12	24	0.87867296	0
12	13	0.98689413	0
13	17	0.96181834	0
13	18	0.92980295	0
13	20	0.9731347	0
13	21	0.85302716	0
13	22	0.8888928	0
13	24	0.9539757	0
14	17	0.91753286	0
14	18	0.8865442	0
14	20	0.9512728	0
14	22	0.87897086	0
14	23	0.9323444	0
14	24	0.94760257	0
14	13	0.88389707	0
15	17	0.9233845	0
15	19	0.9386086	0
15	20	0.80259836	0
15	21	0.79697007	0
15	22	0.9997305	0
15	24	0.9679316	0
15	16	0.86139435	0
16	17	0.8534102	0
16	19	0.9715899	0
16	22	0.90163064	0
16	23	0.9256769	0
16	24	0.9627868	0
17	25	0.9270029	0
17	26	0.9304041	0
17	27	0.9397209	0
17	30	0.9756713	0
17	32	0.95818317	0
17	33	0.9317394	0
17	34	0.9380486	0
17	35	0.9932482	0
17	38	0.87565416	0
17	39	0.96778893	0
18	26	0.9543754	0
18	33	0.9855168	0
18	34	0.98722005	0
18	37	0.7497431	0
18	39	0.9504852	0
18	19	0.9631135	0
18	23	0.96085733	0
19	25	0.9439141	0
19	26	0.8808213	0
19	28	0.8967094	0
19	29	0.9781743	0
19	30	0.92354614	0
19	32	0.89074177	0
19	33	0.8716206	0
19	34	0.9317658	0
19	17	0.7631546	0
19	20	0.88452846	0
19	23	0.72728664	0
20	30	0.97118545	0
20	34	0.85613656	0
20	21	0.9256048	0
20	23	0.89570034	0
21	26	0.9017891	0
21	28	0.86018497	0
21	32	0.9427546	0
21	33	0.89527684	0
21	36	0.8856625	0
21	37	0.9882146	0
21	19	0.91360164	0
22	28	0.941752	0
22	32	0.9689008	0
22	33	0.9437296	0
22	36	0.8593215	0
22	39	0.9395349	0
22	17	0.97899354	0
22	19	0.7370969	0
22	20	0.92013526	0
22	21	0.91694766	0
23	27	0.99447155	0
23	29	0.9466506	0
23	30	0.90471303	0
23	31	0.9038838	0
23	32	0.9373921	0
23	33	0.98354316	0
23	35	0.9929267	0
23	37	0.9176148	0
23	38	0.8719737	0
23	39	0.9811915	0
23	17	0.9324495	0
24	25	0.9961827	0
24	26	0.92139274	0
24	31	0.8241217	0
24	34	0.96069765	0
24	17	0.9528568	0
24	19	0.9193772	0
24	21	0.948251	0
24	23	0.99870336	0
25	37	0.9765674	0
26	25	0.9432332	0
26	27	0.8638942	0
26	31	0.9550404	0
26	37	0.86538506	0
26	38	0.902454	0
26	39	0.8871488	0
27	25	0.9295144	0
27	28	0.9204693	0
27	36	0.8609781	0
27	37	0.97437274	0
28	25	0.9540756	0
29	25	0.85974246	0
29	27	0.9609642	0
29	28	0.7790274	0
30	25	0.8622475	0
30	27	0.897571	0
30	28	0.8511578	0
30	35	0.94561446	0
30	39	0.98062694	0
31	27	0.931847	0
31	28	0.888606	0
31	29	0.9494077	0
31	30	0.9084691	0
31	37	0.9451993	0
31	39	0.8539213	0
32	29	0.9148226	0
32	30	0.9161008	0
32	31	0.86036146	0
32	37	0.8126417	0
32	38	0.87323195	0
32	39	0.9204858	0
33	28	0.9551083	0
33	29	0.93052435	0
33	30	0.9349274	0
33	31	0.9923424	0
33	35	0.8534845	0
33	38	0.9099806	0
33	39	0.93095595	0
34	31	0.92892957	0
34	35	0.87059045	0
34	37	0.9327211	0
35	27	0.85735726	0
35	31	0.87103456	0
36	28	0.8515891	0
36	35	0.92393917	0
36	37	0.94213593	0
36	39	0.8955714	0
37	29	0.94034755	0
38	25	0.85444754	0
38	27	0.992878	0
38	29	0.9073823	0
38	30	0.8513616	0
38	35	0.87567383	0
38	37	0.8889063	0
39	35	0.92996216	0
39	37	0.6803456	0
39	38	0.99195355	0
# Tree 
# node parent parent parent ... 
39	22	18	23	17	
38	17	23	
37	21	23	18	
36	22	21	
35	17	23	
34	24	20	18	17	19	
33	23	21	19	22	18	
32	23	19	17	22	21	
31	23	24	
30	20	19	23	17	
29	23	19	
28	19	21	22	
27	17	23	
26	18	19	21	17	24	
25	17	19	24	
24	14	12	16	15	13	
23	16	14	
22	13	15	16	14	
21	13	15	12	
20	13	14	15	12	
19	16	15	12	
18	13	14	
17	16	15	14	13	
16	5	8	
15	3	11	
14	8	11	
13	6	10	7	
12	6	11	5	9	7	
11	1	2	
10	2	1	
9	1	2	
8	2	1	
7	1	2	
6	2	1	
5	1	2	
4	2	1	
3	1	2	
2	0	
1	0	
