# nCh	nF	nN
4	720	80
# node	nGenPack 
1	10
2	4
3	9
4	8
5	10
6	9
7	10
8	3
9	4
10	6
11	1
12	10
13	5
14	8
15	1
16	2
17	2
18	1
19	6
20	5
21	9
22	5
23	10
24	9
25	4
26	4
27	7
28	1
29	7
30	8
31	1
32	4
33	8
34	2
35	4
36	9
37	10
38	9
39	5
40	9
41	4
42	7
43	9
44	8
45	5
46	2
47	10
48	5
49	8
50	7
51	2
52	2
53	4
54	10
55	7
56	9
57	7
58	10
59	8
60	1
61	7
62	1
63	10
64	3
65	1
66	5
67	4
68	1
69	2
70	10
71	7
72	5
73	9
74	4
75	1
76	5
77	6
78	2
79	9
# nReplicas nParentLinks 
2	5
#Connectivity Graph 
# n1		n2	quality  master (Physical connectivity) 
0	1	0.89822435	1
0	2	0.85094434	1
0	3	0.9698175	1
1	4	0.85137	0
1	5	0.99862933	0
1	6	0.7667033	0
1	7	0.8707844	0
1	8	0.8882235	0
1	9	0.9988292	0
1	10	0.8811347	0
1	11	0.8740972	0
1	12	0.9680741	0
1	13	0.7043826	0
1	15	0.9257704	0
1	3	0.9013243	0
2	4	0.8978854	0
2	5	0.7560877	0
2	7	0.74637824	0
2	8	0.9912588	0
2	9	0.85245085	0
2	10	0.65113586	0
2	14	0.9489805	0
2	15	0.9977039	0
2	1	0.8818385	0
3	5	0.91638577	0
3	6	0.8719903	0
3	7	0.93839693	0
3	8	0.9025618	0
3	10	0.86935914	0
3	11	0.99290556	0
3	12	0.97887987	0
3	13	0.9484555	0
3	14	0.88485134	0
3	15	0.9395577	0
3	2	0.7230381	0
4	16	0.9633851	0
4	19	0.8531046	0
4	20	0.9846729	0
4	21	0.99671406	0
4	24	0.8707532	0
4	32	0.7285606	0
4	34	0.8537843	0
4	35	0.9206087	0
4	36	0.9737396	0
4	37	0.9827595	0
4	40	0.98289907	0
4	43	0.9732664	0
4	47	0.8674244	0
4	58	0.9683792	0
4	61	0.8628306	0
4	65	0.88985205	0
4	6	0.9420638	0
4	9	0.8996356	0
4	10	0.9110925	0
4	11	0.93397313	0
5	21	0.96801406	0
5	22	0.9189394	0
5	23	0.9258695	0
5	30	0.9320719	0
5	36	0.88504046	0
5	37	0.9072372	0
5	39	0.86955094	0
5	40	0.93080086	0
5	45	0.9549381	0
5	49	0.8298461	0
5	50	0.96646667	0
5	51	0.96130466	0
5	53	0.8961074	0
5	54	0.88015085	0
5	56	0.97222173	0
5	61	0.879306	0
5	63	0.88979614	0
5	64	0.90108764	0
5	65	0.8807679	0
5	66	0.97649175	0
5	7	0.9837563	0
5	9	0.95658773	0
5	10	0.90910023	0
5	11	0.85719	0
6	16	0.86432153	0
6	17	0.65297717	0
6	21	0.8543197	0
6	22	0.6663595	0
6	24	0.9765514	0
6	25	0.73809206	0
6	26	0.86885893	0
6	29	0.91360754	0
6	35	0.90200204	0
6	37	0.90368223	0
6	39	0.9529166	0
6	41	0.9698804	0
6	44	0.92673236	0
6	54	0.9490319	0
6	56	0.8634948	0
6	58	0.90970796	0
6	60	0.9288715	0
6	63	0.9650454	0
6	66	0.85565263	0
6	9	0.95579475	0
6	14	0.7728245	0
7	22	0.89687496	0
7	23	0.9967639	0
7	24	0.8644277	0
7	26	0.76084083	0
7	27	0.90043795	0
7	28	0.9876256	0
7	33	0.9801917	0
7	40	0.94254816	0
7	43	0.9011184	0
7	45	0.96463877	0
7	48	0.69572604	0
7	54	0.91588223	0
7	55	0.7500734	0
7	59	0.9804462	0
7	61	0.9904439	0
7	63	0.896187	0
7	65	0.95112735	0
7	4	0.87532437	0
7	15	0.9206622	0
8	21	0.75551885	0
8	24	0.7248811	0
8	26	0.88157237	0
8	27	0.7869527	0
8	30	0.8965822	0
8	32	0.98553026	0
8	33	0.6782768	0
8	34	0.99955785	0
8	35	0.86705256	0
8	37	0.98694336	0
8	38	0.9636119	0
8	41	0.95931906	0
8	42	0.97581	0
8	43	0.86490935	0
8	50	0.99374336	0
8	52	0.9573434	0
8	54	0.8780386	0
8	59	0.91896576	0
8	61	0.8580034	0
8	63	0.90825903	0
8	64	0.9658879	0
8	66	0.9321952	0
8	67	0.97737724	0
8	68	0.91064703	0
8	5	0.8598232	0
8	9	0.9936493	0
8	15	0.97322106	0
9	16	0.95898795	0
9	18	0.8617746	0
9	20	0.9798134	0
9	22	0.8617078	0
9	25	0.85610837	0
9	27	0.93424326	0
9	28	0.9719686	0
9	32	0.91960275	0
9	36	0.9637515	0
9	37	0.90028906	0
9	40	0.9780052	0
9	41	0.7842123	0
9	46	0.94865435	0
9	48	0.85691077	0
9	49	0.9563453	0
9	51	0.93137103	0
9	54	0.8575933	0
9	55	0.9785706	0
9	56	0.90495455	0
9	57	0.79019165	0
9	59	0.74917436	0
9	60	0.92975837	0
9	61	0.9589659	0
9	63	0.9036231	0
9	65	0.79498005	0
9	66	0.9527532	0
9	67	0.98589575	0
9	7	0.879887	0
9	11	0.7066188	0
10	19	0.86290973	0
10	21	0.94255334	0
10	27	0.92735356	0
10	37	0.8524304	0
10	40	0.75357854	0
10	52	0.91270673	0
10	53	0.99440473	0
10	59	0.7416772	0
10	61	0.8979709	0
10	7	0.94251674	0
10	9	0.8592784	0
11	17	0.8866616	0
11	19	0.9515237	0
11	26	0.97771525	0
11	27	0.8813889	0
11	29	0.89308846	0
11	33	0.8876157	0
11	37	0.93769133	0
11	38	0.81641686	0
11	41	0.8597621	0
11	46	0.86607385	0
11	47	0.99767655	0
11	50	0.9912432	0
11	51	0.8932352	0
11	53	0.8887461	0
11	55	0.6509172	0
11	56	0.9439886	0
11	57	0.7153462	0
11	58	0.98652834	0
11	60	0.9166014	0
11	61	0.86728483	0
11	67	0.8643406	0
11	68	0.96932644	0
11	6	0.9518556	0
11	8	0.9688743	0
11	10	0.9571914	0
12	21	0.87098306	0
12	22	0.87498206	0
12	24	0.89315546	0
12	25	0.9501899	0
12	26	0.98023385	0
12	28	0.98028475	0
12	36	0.86417794	0
12	37	0.9568538	0
12	42	0.99597645	0
12	45	0.9067513	0
12	52	0.7233715	0
12	54	0.88684183	0
12	67	0.7209505	0
12	4	0.9323055	0
12	6	0.8915544	0
12	8	0.8196906	0
12	9	0.9626296	0
12	10	0.9549568	0
12	11	0.95465034	0
13	18	0.872427	0
13	22	0.92156607	0
13	24	0.94812715	0
13	26	0.9825871	0
13	29	0.7162616	0
13	31	0.991339	0
13	32	0.97006816	0
13	34	0.89604616	0
13	38	0.93592477	0
13	39	0.9805225	0
13	40	0.97289574	0
13	42	0.8681597	0
13	45	0.97483426	0
13	48	0.977422	0
13	54	0.7811734	0
13	62	0.9141836	0
13	63	0.9613263	0
13	8	0.9121307	0
14	21	0.9219701	0
14	22	0.99601126	0
14	26	0.98613447	0
14	28	0.9867501	0
14	29	0.88167953	0
14	31	0.8694523	0
14	35	0.9010761	0
14	37	0.9380165	0
14	42	0.86505723	0
14	44	0.9967757	0
14	45	0.9794922	0
14	47	0.9515509	0
14	51	0.93909466	0
14	52	0.917459	0
14	54	0.99154925	0
14	55	0.9262448	0
14	56	0.99875736	0
14	59	0.9518358	0
14	61	0.90064037	0
14	62	0.96596885	0
14	63	0.99149394	0
14	66	0.9375917	0
14	4	0.92712986	0
14	5	0.9023534	0
14	10	0.9130003	0
14	11	0.86684823	0
15	16	0.9614686	0
15	19	0.88373846	0
15	22	0.9919767	0
15	25	0.944543	0
15	26	0.87644947	0
15	27	0.91486585	0
15	28	0.74891925	0
15	34	0.9396323	0
15	37	0.8394304	0
15	38	0.70791584	0
15	39	0.91614884	0
15	40	0.81318676	0
15	44	0.88994807	0
15	51	0.92327285	0
15	57	0.8819967	0
15	61	0.9656035	0
15	63	0.99921983	0
15	64	0.8571486	0
15	67	0.8893086	0
15	4	0.9474112	0
15	9	0.88317114	0
15	10	0.91204035	0
15	11	0.95876056	0
15	12	0.97127545	0
15	14	0.91883194	0
16	79	0.9453763	0
16	31	0.8543053	0
16	44	0.9147138	0
16	53	0.86828864	0
16	58	0.96864784	0
16	68	0.9310921	0
17	16	0.9665102	0
17	20	0.8507495	0
17	23	0.9127816	0
17	29	0.9539677	0
17	32	0.9616296	0
17	34	0.72938144	0
17	35	0.8615488	0
17	41	0.9740322	0
17	44	0.65408087	0
17	46	0.945613	0
17	49	0.9395251	0
17	53	0.9568883	0
17	58	0.88577014	0
17	60	0.94606	0
17	62	0.8896124	0
18	29	0.9182108	0
18	30	0.98690975	0
18	39	0.88504213	0
18	41	0.9115425	0
18	43	0.9798536	0
18	44	0.8664761	0
18	47	0.9313878	0
18	49	0.9513421	0
18	50	0.89740807	0
18	53	0.9548545	0
18	60	0.9191251	0
18	62	0.7922918	0
18	68	0.9093249	0
19	70	0.98662776	0
19	71	0.86659294	0
19	79	0.87594175	0
19	23	0.9002872	0
19	30	0.8193751	0
19	49	0.9098611	0
19	50	0.91511154	0
19	53	0.99766713	0
19	57	0.91200995	0
19	60	0.8671488	0
19	64	0.89866424	0
20	70	0.8991827	0
20	75	0.92671174	0
20	16	0.92989093	0
20	23	0.9350486	0
20	29	0.9452922	0
20	30	0.75689054	0
20	31	0.99638516	0
20	36	0.789902	0
20	39	0.8666702	0
20	41	0.8557076	0
20	43	0.88827395	0
20	57	0.8869367	0
20	60	0.90513366	0
21	23	0.8542005	0
21	25	0.9320524	0
21	33	0.99245393	0
21	41	0.9896385	0
21	43	0.85196173	0
21	44	0.7510084	0
21	46	0.7931361	0
21	47	0.9862605	0
21	48	0.68270344	0
21	55	0.95721513	0
21	57	0.85470575	0
21	62	0.9116794	0
21	68	0.9676196	0
22	75	0.9332569	0
22	19	0.9937452	0
22	20	0.9038832	0
22	23	0.8749959	0
22	31	0.75501704	0
22	34	0.87533504	0
22	41	0.9803225	0
22	42	0.99205273	0
22	43	0.7073247	0
22	44	0.8689909	0
22	50	0.7984467	0
22	57	0.9201868	0
22	68	0.9782028	0
23	74	0.97574854	0
23	79	0.7038712	0
23	31	0.9603777	0
23	41	0.94220346	0
23	48	0.95736253	0
23	49	0.9789983	0
23	50	0.9271041	0
23	53	0.911104	0
24	69	0.8703711	0
24	75	0.9812026	0
24	34	0.9911037	0
24	35	0.7837109	0
24	39	0.85107535	0
24	41	0.8771585	0
24	43	0.9172406	0
24	48	0.86687773	0
24	50	0.8735406	0
24	53	0.985695	0
24	60	0.9472932	0
24	65	0.9918531	0
24	68	0.94717914	0
25	16	0.9959038	0
25	23	0.9241246	0
25	29	0.94376725	0
25	30	0.87920177	0
25	31	0.98457193	0
25	39	0.8775628	0
25	41	0.8580174	0
25	43	0.90783393	0
25	44	0.9455735	0
25	50	0.98557603	0
25	55	0.9683131	0
25	62	0.9601486	0
25	65	0.67334735	0
26	20	0.91361463	0
26	23	0.9146921	0
26	25	0.93480414	0
26	34	0.9251883	0
26	35	0.7895102	0
26	44	0.9593579	0
26	46	0.88583505	0
26	50	0.8820037	0
26	57	0.8704537	0
26	60	0.90572554	0
26	64	0.93947005	0
26	65	0.882646	0
26	68	0.9953939	0
27	75	0.74967253	0
27	76	0.94417953	0
27	78	0.86029583	0
27	19	0.9172148	0
27	20	0.9713199	0
27	31	0.9247082	0
27	33	0.9886774	0
27	35	0.83478564	0
27	41	0.68482864	0
27	48	0.8688872	0
27	57	0.95029616	0
27	62	0.9014587	0
27	65	0.9114616	0
28	75	0.9510784	0
28	79	0.97985095	0
28	30	0.9653053	0
28	31	0.9365421	0
28	33	0.89901	0
28	34	0.8539609	0
28	39	0.89840406	0
28	46	0.92776555	0
28	57	0.9992202	0
28	60	0.923317	0
28	65	0.93504244	0
29	75	0.933604	0
29	16	0.8945253	0
29	19	0.90212584	0
29	30	0.960726	0
29	34	0.8501023	0
29	46	0.9835887	0
30	72	0.87518656	0
30	16	0.9756313	0
30	23	0.8684326	0
30	33	0.71744025	0
30	35	0.8696881	0
30	39	0.9712234	0
30	60	0.8507856	0
31	75	0.9631236	0
31	36	0.8083314	0
31	44	0.91265845	0
31	58	0.99616486	0
31	60	0.95154554	0
31	62	0.98302543	0
31	65	0.9251463	0
32	71	0.91938907	0
32	75	0.91378474	0
32	30	0.92275023	0
32	39	0.95194596	0
32	43	0.853524	0
32	44	0.8568451	0
32	46	0.7781811	0
32	48	0.89904976	0
32	53	0.88214195	0
32	57	0.9909026	0
32	58	0.86159605	0
32	64	0.90524435	0
32	65	0.9212986	0
32	68	0.8705415	0
33	75	0.845648	0
33	78	0.9647445	0
33	79	0.93403316	0
33	17	0.95219046	0
33	18	0.9168356	0
33	35	0.95230037	0
33	39	0.9378051	0
33	41	0.6721278	0
33	53	0.99234825	0
33	57	0.9219484	0
33	65	0.91315395	0
33	68	0.9752516	0
34	75	0.83751976	0
34	79	0.98032373	0
34	16	0.8698296	0
34	19	0.9552459	0
34	32	0.9765129	0
34	43	0.8536223	0
34	49	0.92423165	0
34	50	0.96966344	0
34	57	0.9879978	0
34	60	0.9723406	0
34	64	0.9191569	0
35	79	0.87878084	0
35	16	0.90356255	0
35	19	0.88157827	0
35	23	0.8987538	0
35	31	0.9600845	0
35	34	0.8964538	0
35	39	0.9717934	0
35	41	0.89405084	0
35	48	0.91085196	0
35	57	0.94453955	0
36	77	0.88445586	0
36	39	0.8960447	0
36	41	0.8952278	0
36	62	0.950796	0
37	69	0.8837405	0
37	23	0.9747561	0
37	39	0.9322083	0
37	41	0.6849139	0
37	43	0.9184567	0
37	44	0.94314396	0
37	46	0.89367044	0
37	57	0.88466567	0
37	60	0.8957523	0
38	75	0.9633462	0
38	76	0.9602796	0
38	23	0.8530009	0
38	30	0.94490296	0
38	31	0.98457396	0
38	34	0.921462	0
38	39	0.90476954	0
38	41	0.95046914	0
38	42	0.9263634	0
38	43	0.9790826	0
38	49	0.978735	0
38	53	0.9493015	0
38	57	0.99656755	0
38	60	0.8390587	0
39	75	0.9036368	0
39	76	0.87173504	0
39	19	0.9032365	0
39	29	0.9203935	0
39	46	0.99790406	0
39	57	0.91620845	0
40	74	0.9027337	0
40	16	0.9891868	0
40	23	0.9894619	0
40	29	0.89810514	0
40	33	0.86418283	0
40	41	0.950386	0
40	43	0.83648837	0
40	48	0.9214529	0
40	49	0.7521233	0
40	57	0.85370755	0
40	58	0.9793315	0
40	60	0.97826105	0
40	65	0.9901921	0
40	68	0.90430945	0
41	74	0.89095014	0
41	75	0.97105193	0
41	79	0.7829878	0
41	19	0.8567488	0
41	29	0.90121007	0
41	30	0.8526509	0
41	39	0.87904316	0
41	44	0.8915698	0
41	48	0.9985863	0
41	49	0.94110197	0
41	50	0.75198287	0
41	65	0.92262936	0
41	68	0.9676042	0
42	75	0.98658335	0
42	79	0.87162584	0
42	16	0.9165349	0
42	20	0.9011734	0
42	25	0.9429174	0
42	29	0.8933956	0
42	30	0.87643814	0
42	33	0.9980079	0
42	34	0.9105122	0
42	41	0.85473573	0
42	52	0.9754618	0
42	64	0.93910563	0
42	65	0.88072175	0
43	75	0.95907456	0
43	79	0.98022676	0
43	16	0.809266	0
43	19	0.8815777	0
43	23	0.7068069	0
43	29	0.9895182	0
43	30	0.9972931	0
43	31	0.8539411	0
43	35	0.92289954	0
43	39	0.9192297	0
43	41	0.91003364	0
43	49	0.98455995	0
43	57	0.9440728	0
43	58	0.6759115	0
44	75	0.9539706	0
44	79	0.8535908	0
44	29	0.9383965	0
44	36	0.9570607	0
44	39	0.92001975	0
44	42	0.97288585	0
44	43	0.8524086	0
44	50	0.9330791	0
44	68	0.8590864	0
45	16	0.94405156	0
45	30	0.97175837	0
45	31	0.86144227	0
45	34	0.95266503	0
45	41	0.97571677	0
45	44	0.91765976	0
46	75	0.9972789	0
46	20	0.99386185	0
46	23	0.87297624	0
46	30	0.92167705	0
46	31	0.9024508	0
46	34	0.8913061	0
46	35	0.8748899	0
46	41	0.98494405	0
46	43	0.8811072	0
46	44	0.85362	0
46	62	0.9560934	0
47	79	0.94265443	0
47	23	0.95199037	0
47	30	0.8543295	0
47	31	0.730615	0
47	36	0.93691075	0
47	39	0.8599523	0
47	41	0.94144183	0
47	44	0.69054794	0
47	48	0.9185173	0
47	60	0.94372916	0
47	62	0.9281585	0
47	65	0.9556985	0
47	68	0.94298077	0
48	69	0.99039745	0
48	72	0.8831938	0
48	75	0.7988604	0
48	79	0.9188211	0
48	16	0.91231036	0
48	17	0.9306386	0
48	18	0.9792462	0
48	29	0.8628565	0
48	43	0.8708407	0
48	44	0.88533914	0
48	46	0.8511557	0
48	49	0.8745482	0
48	50	0.8703072	0
49	75	0.6651349	0
49	77	0.92268753	0
49	30	0.9300612	0
49	35	0.7989542	0
49	44	0.94821435	0
49	46	0.93512547	0
49	50	0.934016	0
49	53	0.86638963	0
49	58	0.9070263	0
49	65	0.9817063	0
50	79	0.9580166	0
50	16	0.96691763	0
50	20	0.85091907	0
50	30	0.9712201	0
50	33	0.9935715	0
50	43	0.890629	0
50	46	0.92980486	0
50	53	0.93103	0
50	58	0.7814967	0
50	60	0.82413286	0
50	65	0.8657773	0
51	75	0.88982534	0
51	79	0.86945605	0
51	19	0.96482354	0
51	29	0.90909886	0
51	30	0.965133	0
51	31	0.9862559	0
51	39	0.9926083	0
51	42	0.9040216	0
51	43	0.88411796	0
51	46	0.95472497	0
51	48	0.7561781	0
51	60	0.8852008	0
51	68	0.8712059	0
52	79	0.91410935	0
52	16	0.9340216	0
52	25	0.94595	0
52	39	0.9647199	0
52	43	0.98913383	0
52	46	0.9001197	0
52	48	0.9803182	0
52	49	0.75453866	0
52	50	0.90788203	0
52	53	0.8655606	0
52	57	0.8961816	0
52	58	0.9388681	0
52	60	0.7018447	0
52	64	0.9295043	0
52	65	0.8921061	0
53	79	0.9824364	0
53	29	0.9244205	0
53	31	0.9002115	0
53	39	0.7870015	0
53	46	0.87637156	0
53	62	0.8651739	0
53	65	0.923914	0
54	75	0.94668645	0
54	79	0.86950314	0
54	16	0.8678962	0
54	19	0.7220422	0
54	30	0.90547264	0
54	46	0.698212	0
54	47	0.9427337	0
54	50	0.7314659	0
54	57	0.8960796	0
54	60	0.91595876	0
54	64	0.91367894	0
55	75	0.99346876	0
55	16	0.8855712	0
55	33	0.89116156	0
55	34	0.89247316	0
55	35	0.9075349	0
55	41	0.9939157	0
55	43	0.9279785	0
55	48	0.7772191	0
55	62	0.908282	0
55	64	0.91111207	0
55	65	0.95287454	0
55	68	0.95510274	0
56	16	0.9502969	0
56	20	0.8893492	0
56	29	0.7437434	0
56	30	0.85616446	0
56	31	0.9743343	0
56	35	0.8800883	0
56	39	0.9586438	0
56	50	0.8975276	0
56	53	0.9725741	0
56	57	0.8805522	0
56	58	0.96077967	0
56	60	0.9663226	0
56	65	0.9110669	0
57	79	0.9817151	0
57	16	0.8775052	0
57	25	0.9260903	0
57	29	0.9311372	0
57	30	0.9215382	0
57	31	0.98535174	0
57	44	0.8862953	0
57	46	0.90840805	0
57	47	0.9193339	0
57	48	0.99901736	0
57	50	0.9289986	0
57	53	0.91061735	0
57	62	0.8626245	0
57	68	0.9619462	0
58	75	0.8597426	0
58	20	0.85112226	0
58	29	0.89477485	0
58	30	0.94760126	0
58	33	0.98508847	0
58	39	0.9815786	0
58	46	0.93985766	0
58	48	0.9640611	0
58	55	0.67991936	0
58	62	0.8523933	0
59	79	0.9579617	0
59	20	0.922985	0
59	29	0.96929437	0
59	30	0.7924272	0
59	39	0.71132827	0
59	41	0.83478343	0
59	50	0.96310925	0
59	53	0.9611004	0
59	60	0.72700804	0
59	68	0.9733478	0
60	79	0.9410166	0
60	16	0.91967773	0
60	23	0.9558183	0
60	25	0.9466585	0
60	39	0.90013355	0
60	41	0.93367857	0
60	43	0.771213	0
60	46	0.96659595	0
60	64	0.86057365	0
61	70	0.9980774	0
61	75	0.9218043	0
61	79	0.7172831	0
61	16	0.9186466	0
61	23	0.90542865	0
61	29	0.9279149	0
61	30	0.9095075	0
61	31	0.75502896	0
61	35	0.9437528	0
61	39	0.9455175	0
61	42	0.9143057	0
61	43	0.9576847	0
61	44	0.7630243	0
61	53	0.89405227	0
61	57	0.9572257	0
61	65	0.9700238	0
62	75	0.97222006	0
62	79	0.8651632	0
62	16	0.879493	0
62	20	0.904149	0
62	29	0.85563457	0
62	35	0.87294126	0
62	38	0.93159443	0
62	39	0.8825969	0
62	41	0.9808324	0
62	43	0.95740587	0
62	44	0.9667152	0
62	48	0.94843245	0
62	60	0.94700915	0
62	64	0.8913834	0
63	73	0.9853548	0
63	75	0.99759984	0
63	25	0.998862	0
63	38	0.66922164	0
63	41	0.8714396	0
63	42	0.8967926	0
63	46	0.9696453	0
63	53	0.89475673	0
63	57	0.92906713	0
63	60	0.85072875	0
63	62	0.8716103	0
63	65	0.70912313	0
64	69	0.8756737	0
64	75	0.98641974	0
64	31	0.9307092	0
64	36	0.89883524	0
64	39	0.998106	0
64	43	0.9610141	0
64	44	0.9611107	0
64	46	0.88895106	0
64	47	0.68794006	0
64	48	0.8903783	0
64	57	0.9399186	0
64	58	0.9753861	0
64	65	0.946817	0
65	75	0.90139866	0
65	16	0.7035892	0
65	20	0.9457675	0
65	23	0.88822025	0
65	35	0.91917545	0
65	39	0.9165913	0
65	43	0.8928898	0
65	44	0.8761356	0
65	46	0.81932014	0
65	48	0.9125739	0
65	60	0.90901804	0
65	62	0.8786945	0
65	68	0.7067325	0
66	75	0.6994663	0
66	79	0.9892817	0
66	20	0.81398475	0
66	30	0.97497255	0
66	31	0.8729674	0
66	35	0.9609293	0
66	41	0.87329584	0
66	43	0.7810796	0
66	44	0.6538901	0
66	53	0.992425	0
66	64	0.97841054	0
66	65	0.9705314	0
66	68	0.954324	0
67	73	0.8893248	0
67	79	0.90805906	0
67	43	0.9553554	0
67	53	0.96108943	0
67	57	0.9262981	0
67	58	0.96674544	0
67	60	0.9176956	0
67	65	0.90520346	0
68	73	0.88348174	0
68	79	0.93036973	0
68	19	0.92371875	0
68	23	0.88273644	0
68	31	0.973575	0
68	35	0.9640606	0
68	38	0.94230884	0
68	39	0.9059263	0
68	43	0.86777645	0
68	50	0.8550262	0
68	53	0.9363291	0
68	58	0.87490296	0
68	60	0.96186274	0
68	64	0.8556183	0
69	70	0.8975783	0
69	73	0.8617371	0
71	78	0.9552797	0
73	71	0.92670065	0
73	76	0.9116902	0
74	69	0.8617294	0
74	70	0.9664365	0
74	72	0.8817105	0
75	69	0.8746958	0
75	71	0.9377732	0
75	77	0.94530904	0
75	78	0.91992724	0
76	69	0.98790056	0
76	71	0.9083891	0
76	72	0.95735884	0
76	74	0.99351144	0
77	69	0.9011539	0
77	70	0.92388284	0
77	71	0.9457469	0
77	72	0.959723	0
78	69	0.9575006	0
78	72	0.87387663	0
78	76	0.9240452	0
79	70	0.9869794	0
79	74	0.97074795	0
79	78	0.98537415	0
# Tree 
# node parent parent parent ... 
79	47	23	68	52	66	
78	27	33	
77	36	49	
76	39	38	27	
75	64	31	66	42	51	
74	41	23	40	
73	63	68	67	
72	48	30	
71	19	32	
70	19	20	61	
69	24	37	48	64	
68	8	11	
67	12	15	8	11	9	
66	14	8	5	9	6	
65	9	5	7	4	
64	15	8	5	
63	9	5	6	15	13	
62	13	14	
61	8	7	9	4	5	
60	9	11	6	
59	9	7	8	14	10	
58	11	6	4	
57	9	11	15	
56	6	11	5	14	9	
55	9	14	7	11	
54	14	8	6	7	9	
53	10	11	5	
52	8	10	12	14	
51	14	15	11	5	9	
50	8	11	5	
49	9	5	
48	9	13	7	
47	14	11	4	
46	11	9	
45	5	13	7	14	12	
44	14	6	15	
43	8	7	4	
42	14	8	13	12	
41	8	11	6	9	
40	10	7	9	13	15	
39	13	6	15	5	
38	15	11	8	13	
37	8	6	15	14	10	
36	9	4	5	12	
35	6	8	14	4	
34	4	15	8	13	
33	7	8	11	
32	8	4	13	9	
31	13	14	
30	8	5	
29	14	6	13	11	
28	7	14	12	15	9	
27	11	10	9	8	7	
26	11	15	13	14	6	
25	9	6	12	15	
24	13	7	8	4	12	
23	7	5	
22	7	9	15	6	14	
21	6	12	4	10	14	
20	4	9	
19	15	10	4	11	
18	13	9	
17	11	6	
16	4	6	15	9	
15	2	3	1	
14	3	2	
13	1	3	
12	3	1	
11	1	3	
10	3	1	2	
9	1	2	
8	3	1	2	
7	1	2	3	
6	1	3	
5	2	1	3	
4	2	1	
3	0	
2	0	
1	0	
