# nCh	nF	nN
4	720	40
# node	nGenPack 
1	4
2	5
3	4
4	1
5	4
6	5
7	3
8	9
9	9
10	7
11	5
12	2
13	6
14	9
15	2
16	10
17	1
18	10
19	3
20	7
21	10
22	1
23	5
24	3
25	8
26	1
27	7
28	9
29	10
30	6
31	3
32	2
33	2
34	3
35	6
36	5
37	4
38	4
39	5
# nReplicas nParentLinks 
5	5
#Connectivity Graph 
# n1		n2	quality  master (Physical connectivity) 
0	1	0.91688836	1
0	2	0.86755925	1
1	3	0.7104359	0
1	4	0.92442006	0
1	5	0.9030667	0
1	6	0.8672782	0
1	7	0.97402596	0
2	3	0.9092747	0
2	4	0.9566521	0
2	5	0.8926435	0
2	6	0.819006	0
2	7	0.93761224	0
2	1	0.90002465	0
3	8	0.8624889	0
3	9	0.8860895	0
3	10	0.96836084	0
3	11	0.69719034	0
3	6	0.9654909	0
4	8	0.97375643	0
4	9	0.90724844	0
4	10	0.94997054	0
4	11	0.9604242	0
4	5	0.97748387	0
4	6	0.9908096	0
5	8	0.96404576	0
5	9	0.9826464	0
5	10	0.9500755	0
5	11	0.99268574	0
5	3	0.9090414	0
5	7	0.85058343	0
6	8	0.79079974	0
6	10	0.85340816	0
6	11	0.86602503	0
6	5	0.99773544	0
6	7	0.98979646	0
7	8	0.8543396	0
7	11	0.9964387	0
7	4	0.9656919	0
8	12	0.96762264	0
8	13	0.9162596	0
8	15	0.9638176	0
8	16	0.95084536	0
8	17	0.89792866	0
8	18	0.91034836	0
8	20	0.9814384	0
8	21	0.88311887	0
9	12	0.76913303	0
9	13	0.9109903	0
9	14	0.85700864	0
9	15	0.8858941	0
9	16	0.8198348	0
9	17	0.91408587	0
9	18	0.85759634	0
9	19	0.93686485	0
9	21	0.98670596	0
10	14	0.94649565	0
10	16	0.93064487	0
10	17	0.93447673	0
10	18	0.88312024	0
10	19	0.8586334	0
11	12	0.948522	0
11	13	0.9052613	0
11	14	0.9241263	0
11	15	0.96467674	0
11	16	0.7412723	0
11	17	0.8515773	0
11	18	0.69417304	0
11	20	0.9379853	0
11	21	0.92951804	0
12	22	0.9009155	0
12	24	0.8584858	0
12	38	0.69172055	0
12	39	0.91560775	0
12	14	0.90649015	0
12	18	0.93699765	0
12	21	0.80576473	0
13	26	0.9157605	0
13	27	0.9808789	0
13	29	0.9820434	0
13	31	0.86020875	0
13	32	0.8509906	0
13	33	0.9054461	0
13	38	0.89424795	0
13	39	0.9027933	0
13	12	0.6604055	0
13	14	0.9731068	0
13	15	0.8594472	0
13	18	0.990308	0
13	19	0.9753664	0
13	20	0.89865667	0
14	25	0.8694611	0
14	37	0.9648772	0
14	39	0.85027945	0
14	18	0.9349188	0
14	20	0.97831184	0
15	23	0.97530514	0
15	25	0.89364487	0
15	26	0.8750277	0
15	27	0.91114837	0
15	39	0.95012444	0
15	14	0.9796987	0
15	19	0.9975171	0
16	23	0.85597676	0
16	25	0.94407827	0
16	28	0.9810608	0
16	31	0.947415	0
16	33	0.9929012	0
16	12	0.7342195	0
16	13	0.96851027	0
16	14	0.90659785	0
17	23	0.867987	0
17	24	0.86343694	0
17	25	0.98643005	0
17	29	0.9895168	0
17	30	0.90924954	0
17	33	0.88692427	0
17	35	0.92511135	0
17	37	0.9883127	0
17	39	0.69472873	0
17	12	0.987519	0
17	19	0.9635455	0
18	23	0.92965585	0
18	26	0.99249196	0
18	29	0.78670025	0
18	30	0.9814952	0
18	31	0.9245287	0
18	34	0.9793292	0
18	35	0.933686	0
18	36	0.87296057	0
18	37	0.94156843	0
18	38	0.88357306	0
18	39	0.8561828	0
18	17	0.7156025	0
18	21	0.9792734	0
19	25	0.85329306	0
19	27	0.87992126	0
19	32	0.90259343	0
19	34	0.9686012	0
19	37	0.97601014	0
19	38	0.8594235	0
19	39	0.7380913	0
19	12	0.97400254	0
20	22	0.8817058	0
20	25	0.9118888	0
20	26	0.95227766	0
20	31	0.9334326	0
20	32	0.9240691	0
20	36	0.8683224	0
20	37	0.96172506	0
20	39	0.9864898	0
20	17	0.8510431	0
21	25	0.8627306	0
21	27	0.7867038	0
21	28	0.9027025	0
21	29	0.9764248	0
21	32	0.9328584	0
21	33	0.9288202	0
21	36	0.89086145	0
21	37	0.9041695	0
21	39	0.9825671	0
21	13	0.8776623	0
21	14	0.9537085	0
21	15	0.9038318	0
21	17	0.9399118	0
21	19	0.9221293	0
21	20	0.698794	0
22	24	0.8673414	0
22	28	0.8614721	0
22	29	0.96158266	0
23	24	0.9350326	0
23	27	0.8727425	0
23	32	0.9631561	0
23	36	0.96586907	0
24	28	0.96488994	0
25	22	0.89870656	0
25	26	0.9461887	0
25	28	0.9752023	0
25	29	0.9969529	0
25	35	0.90154773	0
25	38	0.9580848	0
26	22	0.987599	0
26	24	0.9552241	0
26	30	0.9692254	0
26	35	0.9551038	0
26	38	0.9397957	0
27	36	0.851073	0
28	26	0.8683444	0
28	30	0.91871583	0
28	32	0.66931725	0
28	34	0.99774706	0
29	23	0.973438	0
29	28	0.90447855	0
29	33	0.95205504	0
29	36	0.8973563	0
29	38	0.8439772	0
30	24	0.989868	0
30	29	0.90807396	0
31	22	0.8959203	0
31	24	0.87720186	0
31	29	0.8410545	0
31	30	0.9554703	0
31	32	0.8745081	0
31	33	0.7377336	0
31	36	0.9327793	0
32	22	0.911359	0
32	24	0.9560983	0
32	38	0.79514045	0
33	22	0.9461413	0
33	28	0.9262458	0
33	30	0.9670436	0
33	36	0.86672	0
34	29	0.9129481	0
34	30	0.71683925	0
34	32	0.8997006	0
34	35	0.8540711	0
34	38	0.9424807	0
35	24	0.96004796	0
35	28	0.8941517	0
35	29	0.9577091	0
35	30	0.90021485	0
35	38	0.7522442	0
36	22	0.95730484	0
36	28	0.8988668	0
36	30	0.8930912	0
37	22	0.92907536	0
37	32	0.9329151	0
37	33	0.9231628	0
38	28	0.99972284	0
38	30	0.96290565	0
38	33	0.947568	0
39	24	0.87089276	0
39	28	0.95926964	0
39	30	0.90048635	0
39	32	0.96177375	0
# Tree 
# node parent parent parent ... 
39	12	13	18	17	19	
38	13	18	12	19	
37	18	19	21	17	20	
36	20	18	21	
35	17	18	
34	19	18	
33	16	13	21	17	
32	20	19	21	13	
31	18	16	13	20	
30	17	18	
29	21	17	13	18	
28	16	21	
27	13	21	19	15	
26	15	20	13	18	
25	21	15	19	17	20	
24	17	12	
23	16	18	17	15	
22	20	12	
21	8	9	11	
20	11	8	
19	9	10	
18	10	11	8	9	
17	10	8	9	11	
16	8	11	9	10	
15	9	8	11	
14	11	10	9	
13	11	8	9	
12	11	8	9	
11	6	5	7	3	4	
10	4	5	6	3	
9	5	4	3	
8	6	4	3	7	5	
7	1	2	
6	2	1	
5	1	2	
4	2	1	
3	2	1	
2	0	
1	0	
