# nCh	nF	nN
4	720	60
# node	nGenPack 
1	2
2	5
3	7
4	7
5	9
6	1
7	7
8	3
9	7
10	1
11	4
12	5
13	4
14	4
15	5
16	3
17	7
18	2
19	3
20	5
21	9
22	8
23	4
24	8
25	10
26	2
27	2
28	7
29	6
30	1
31	4
32	5
33	1
34	1
35	1
36	1
37	5
38	10
39	6
40	5
41	3
42	1
43	9
44	8
45	2
46	2
47	3
48	7
49	5
50	5
51	9
52	9
53	4
54	1
55	4
56	1
57	5
58	1
59	7
# nReplicas nParentLinks 
1	5
#Connectivity Graph 
# n1		n2	quality  master (Physical connectivity) 
0	1	0.8084302	1
0	2	0.9258174	1
0	3	0.8458022	1
0	4	0.9094163	1
1	5	0.9699171	0
1	7	0.93381894	0
1	8	0.9163749	0
1	10	0.8982165	0
1	11	0.9510478	0
1	2	0.98781234	0
2	5	0.9471611	0
2	7	0.9447094	0
2	8	0.94234	0
2	9	0.8963648	0
2	10	0.9133971	0
3	6	0.9000824	0
3	7	0.9849206	0
3	8	0.9992713	0
3	9	0.90307504	0
3	10	0.98693496	0
3	11	0.91105443	0
3	2	0.9576488	0
4	6	0.87844265	0
4	7	0.9648111	0
4	8	0.8910044	0
4	9	0.96633965	0
4	10	0.87441593	0
4	11	0.94929093	0
4	3	0.990406	0
5	15	0.86809903	0
5	16	0.9787777	0
5	17	0.9524931	0
5	20	0.9625569	0
6	15	0.9636632	0
6	16	0.87342596	0
6	18	0.86752	0
6	19	0.85134864	0
6	20	0.83005977	0
6	21	0.95353085	0
7	13	0.9320021	0
7	14	0.8575936	0
7	15	0.9964872	0
7	17	0.94255835	0
7	20	0.89731073	0
7	5	0.9465424	0
8	12	0.9960875	0
8	13	0.95365864	0
8	14	0.8661949	0
8	16	0.86357844	0
8	19	0.9124753	0
8	20	0.993268	0
8	21	0.89530665	0
8	5	0.981626	0
8	6	0.97887367	0
9	13	0.8887749	0
9	15	0.9352967	0
9	16	0.79530174	0
9	17	0.9470521	0
9	18	0.8931841	0
9	19	0.9870662	0
9	6	0.86572564	0
9	8	0.93602824	0
9	11	0.8525753	0
10	16	0.98829716	0
10	17	0.8436943	0
10	18	0.93929183	0
10	20	0.8921234	0
10	5	0.96397835	0
10	6	0.9147255	0
10	7	0.86298543	0
10	8	0.95249313	0
10	11	0.909544	0
11	12	0.88557965	0
11	13	0.85229826	0
11	15	0.95297456	0
11	17	0.9761092	0
11	18	0.8677598	0
11	20	0.90588933	0
11	5	0.88436484	0
11	6	0.6518074	0
11	7	0.91236573	0
11	8	0.8249221	0
12	26	0.866787	0
12	31	0.87668955	0
12	35	0.85575026	0
12	37	0.9222449	0
12	38	0.87023747	0
12	19	0.76732165	0
13	22	0.99577314	0
13	25	0.92457443	0
13	31	0.9451866	0
13	32	0.8965573	0
13	36	0.9969235	0
13	18	0.9496057	0
14	23	0.96200013	0
14	27	0.97469217	0
14	29	0.9831686	0
14	30	0.97155255	0
14	31	0.8272045	0
14	37	0.97558033	0
14	13	0.87123185	0
14	21	0.8994087	0
15	30	0.9947342	0
15	31	0.9235163	0
15	33	0.8297788	0
15	34	0.99116087	0
15	39	0.9724367	0
15	12	0.9826124	0
15	14	0.861915	0
15	18	0.92874676	0
15	19	0.85831475	0
16	23	0.85219336	0
16	26	0.90432507	0
16	27	0.7061486	0
16	28	0.907581	0
16	31	0.93408775	0
16	35	0.9902244	0
16	18	0.9875328	0
16	19	0.8885545	0
17	22	0.7674131	0
17	23	0.99429834	0
17	24	0.8717059	0
17	27	0.9397285	0
17	28	0.9880267	0
17	29	0.9536148	0
17	32	0.8996543	0
17	33	0.9518969	0
17	34	0.9900063	0
17	38	0.94198394	0
17	13	0.8518146	0
17	21	0.95588714	0
18	23	0.8525315	0
18	24	0.95483893	0
18	28	0.9746613	0
18	31	0.65064204	0
18	36	0.8772641	0
18	14	0.8353397	0
19	22	0.92902184	0
19	25	0.8959028	0
19	27	0.96356946	0
19	28	0.9038579	0
19	34	0.96999985	0
19	35	0.8957862	0
19	36	0.895891	0
19	37	0.9504913	0
19	38	0.92939156	0
19	14	0.9004702	0
19	21	0.96614665	0
20	23	0.7750002	0
20	27	0.95972097	0
20	28	0.9163179	0
20	31	0.96125585	0
20	33	0.9647238	0
20	36	0.938205	0
20	39	0.8604752	0
20	18	0.86802393	0
20	19	0.8918361	0
21	24	0.8989427	0
21	27	0.94712406	0
21	28	0.944247	0
21	30	0.98281944	0
21	31	0.9403537	0
21	34	0.926033	0
21	35	0.9509104	0
21	39	0.87499285	0
21	12	0.9954725	0
21	13	0.9825483	0
21	18	0.9559873	0
22	43	0.9296462	0
22	44	0.993884	0
22	45	0.6812747	0
22	47	0.98152107	0
22	53	0.9430601	0
22	54	0.7822855	0
22	55	0.94912326	0
22	59	0.9943318	0
22	25	0.9236937	0
22	33	0.88060844	0
22	36	0.9892159	0
22	37	0.9016924	0
23	40	0.9673639	0
23	49	0.9188684	0
23	51	0.96517307	0
23	52	0.99112135	0
23	55	0.88763994	0
23	59	0.90814614	0
23	22	0.8834457	0
23	29	0.7674506	0
23	33	0.96839076	0
23	34	0.9569063	0
23	36	0.8775056	0
23	39	0.9839324	0
24	40	0.96599686	0
24	43	0.90863514	0
24	48	0.9087209	0
24	52	0.97022825	0
24	53	0.9493321	0
24	54	0.9049158	0
24	59	0.91691935	0
24	29	0.928717	0
24	30	0.66044766	0
24	35	0.9902403	0
25	40	0.94431794	0
25	42	0.93486685	0
25	45	0.93213564	0
25	50	0.9338581	0
25	53	0.8441504	0
25	54	0.89708567	0
25	59	0.90750146	0
25	29	0.96384925	0
25	30	0.9766174	0
25	32	0.89529973	0
25	33	0.9627528	0
25	34	0.9504603	0
25	37	0.8783778	0
26	40	0.94428724	0
26	43	0.910649	0
26	47	0.9088472	0
26	48	0.8687029	0
26	52	0.94247204	0
26	58	0.9413761	0
26	24	0.86204296	0
26	34	0.91467565	0
26	35	0.8984232	0
26	37	0.86635303	0
26	39	0.918936	0
27	41	0.8821283	0
27	43	0.9887296	0
27	47	0.99829376	0
27	52	0.97273433	0
27	54	0.89516866	0
27	59	0.6706585	0
27	22	0.720371	0
27	32	0.89234257	0
27	36	0.68045676	0
28	42	0.8972911	0
28	43	0.86278397	0
28	46	0.95455515	0
28	47	0.73958415	0
28	49	0.88017654	0
28	51	0.88548046	0
28	54	0.96135527	0
28	55	0.95142734	0
28	59	0.93732584	0
28	25	0.9969877	0
28	30	0.9591126	0
28	34	0.9768149	0
28	36	0.9550806	0
28	39	0.95739275	0
29	41	0.95721513	0
29	42	0.9587261	0
29	47	0.7128435	0
29	53	0.95030844	0
29	57	0.95383453	0
29	59	0.7788252	0
29	22	0.9064393	0
30	40	0.87983364	0
30	49	0.86493456	0
30	52	0.84931153	0
30	53	0.9502341	0
30	55	0.8508415	0
30	56	0.88385665	0
30	57	0.91269946	0
30	59	0.869298	0
30	29	0.9753134	0
30	32	0.79730725	0
31	40	0.68868554	0
31	42	0.9215953	0
31	45	0.9333563	0
31	47	0.99863696	0
31	49	0.89740926	0
31	52	0.97993404	0
31	53	0.9119422	0
31	54	0.765321	0
31	24	0.9734705	0
31	29	0.8956749	0
31	34	0.89638203	0
32	40	0.9466524	0
32	47	0.9688271	0
32	52	0.9901436	0
32	54	0.903285	0
32	59	0.9362635	0
32	22	0.9899667	0
32	24	0.9958144	0
32	29	0.96856254	0
32	34	0.8856394	0
32	36	0.9519054	0
32	37	0.9000703	0
32	39	0.98782724	0
33	40	0.97468203	0
33	47	0.7886203	0
33	53	0.9759449	0
33	54	0.99615186	0
33	55	0.69526774	0
33	57	0.98774165	0
33	24	0.8815631	0
33	32	0.9892627	0
34	40	0.92140275	0
34	50	0.9933101	0
34	54	0.95216113	0
34	55	0.955065	0
34	22	0.93115705	0
34	24	0.9407041	0
34	30	0.865112	0
34	36	0.9529171	0
35	43	0.6874494	0
35	44	0.99449164	0
35	47	0.9192689	0
35	50	0.8186332	0
35	52	0.94989026	0
35	54	0.91965926	0
35	56	0.9167865	0
35	58	0.8531267	0
35	25	0.7078886	0
35	29	0.89130825	0
35	30	0.96906716	0
35	33	0.70252454	0
36	40	0.9754749	0
36	43	0.91883063	0
36	46	0.9107187	0
36	51	0.8754498	0
36	53	0.8600484	0
36	54	0.87298495	0
36	24	0.90588176	0
36	29	0.76922363	0
36	30	0.9361649	0
37	43	0.93709576	0
37	51	0.979094	0
37	52	0.98729813	0
37	59	0.8636884	0
37	29	0.8709681	0
37	34	0.95431775	0
37	39	0.97143316	0
38	40	0.8754668	0
38	47	0.9973947	0
38	53	0.88435143	0
38	59	0.9157145	0
38	24	0.99938154	0
38	25	0.66472137	0
38	32	0.8782608	0
38	37	0.93698096	0
39	40	0.98237145	0
39	44	0.93375343	0
39	46	0.9700021	0
39	48	0.8557225	0
39	53	0.9782766	0
39	56	0.8847591	0
39	59	0.99839497	0
39	22	0.9854853	0
39	29	0.96402043	0
39	33	0.93804955	0
39	34	0.94137967	0
39	36	0.9453704	0
40	46	0.8562215	0
40	48	0.92379045	0
40	50	0.8989638	0
40	56	0.95030993	0
41	42	0.9007091	0
41	44	0.93256056	0
41	56	0.90279233	0
42	44	0.9862448	0
42	48	0.94723445	0
42	50	0.6798162	0
42	57	0.9319707	0
43	41	0.982862	0
43	49	0.8767693	0
43	56	0.9900878	0
44	45	0.8663608	0
44	46	0.97756296	0
44	48	0.98554176	0
44	50	0.85490465	0
44	58	0.6745802	0
45	50	0.9025544	0
45	57	0.86643726	0
45	58	0.974271	0
46	42	0.97867036	0
46	49	0.94897985	0
46	50	0.9071443	0
47	42	0.9973302	0
47	44	0.8842856	0
47	56	0.92293715	0
47	58	0.85144645	0
48	41	0.91535187	0
48	46	0.85135585	0
48	49	0.9957361	0
48	51	0.8567684	0
49	41	0.94371825	0
50	48	0.9023375	0
50	56	0.8894512	0
50	58	0.82720464	0
51	41	0.66368586	0
51	46	0.9883693	0
51	49	0.9711975	0
51	50	0.9058028	0
51	56	0.92601514	0
51	57	0.8830079	0
52	50	0.85485476	0
52	56	0.94705266	0
53	41	0.8531883	0
53	44	0.8640376	0
53	48	0.78726494	0
53	50	0.8789032	0
53	56	0.9295101	0
53	58	0.85528886	0
54	41	0.86528754	0
54	42	0.8796275	0
54	44	0.85565585	0
54	49	0.86791897	0
54	56	0.8356256	0
54	57	0.89117795	0
55	42	0.70810664	0
55	44	0.87889725	0
55	45	0.97222096	0
55	49	0.89428264	0
55	50	0.97246194	0
55	51	0.86143315	0
55	57	0.980451	0
56	42	0.9229519	0
56	44	0.84791106	0
56	46	0.79871297	0
56	48	0.79851973	0
56	49	0.948819	0
57	44	0.88715553	0
57	46	0.7338569	0
57	49	0.8765747	0
57	56	0.9946094	0
58	42	0.998081	0
58	51	0.92402	0
58	56	0.9089814	0
58	57	0.9268821	0
59	41	0.98259497	0
59	42	0.9555482	0
59	48	0.91100883	0
59	49	0.9986173	0
59	51	0.8502799	0
59	56	0.93934184	0
59	57	0.8907818	0
59	58	0.92082286	0
# Tree 
# node parent parent parent ... 
59	38	27	30	32	37	
58	26	35	
57	29	30	33	
56	35	39	30	
55	23	22	28	30	33	
54	24	33	22	34	36	
53	39	22	25	33	38	
52	32	35	37	23	27	
51	36	28	37	23	
50	35	34	25	
49	31	28	23	30	
48	24	26	39	
47	26	29	31	38	27	
46	39	36	28	
45	31	25	22	
44	39	35	22	
43	28	27	26	22	36	
42	25	31	29	28	
41	27	29	
40	32	33	39	31	25	
39	20	21	15	
38	19	12	17	
37	14	12	19	
36	20	13	19	18	
35	19	16	12	21	
34	19	21	17	15	
33	20	15	17	
32	17	13	
31	13	12	18	21	15	
30	15	21	14	
29	14	17	
28	18	17	21	19	20	
27	16	21	14	20	17	
26	16	12	
25	19	13	
24	21	18	17	
23	14	18	20	17	16	
22	13	19	17	
21	8	6	
20	5	7	10	11	8	
19	9	8	6	
18	10	9	11	6	
17	7	11	9	5	10	
16	8	5	6	10	9	
15	5	7	6	11	9	
14	7	8	
13	7	8	11	9	
12	8	11	
11	1	3	4	
10	2	1	4	3	
9	2	4	3	
8	4	2	3	1	
7	2	3	1	4	
6	4	3	
5	1	2	
4	0	
3	0	
2	0	
1	0	
