# nCh	nF	nN
4	720	40
# node	nGenPack 
1	8
2	3
3	1
4	10
5	10
6	2
7	2
8	9
9	9
10	10
11	3
12	7
13	4
14	7
15	3
16	7
17	8
18	4
19	8
20	7
21	3
22	8
23	6
24	2
25	8
26	6
27	8
28	4
29	7
30	1
31	2
32	5
33	2
34	9
35	3
36	8
37	3
38	7
39	5
# nReplicas nParentLinks 
1	5
#Connectivity Graph 
# n1		n2	quality  master (Physical connectivity) 
0	1	0.9721281	1
0	2	0.9203952	1
1	3	0.82330096	0
1	4	0.9545015	0
1	5	0.8625739	0
1	6	0.9237463	0
1	7	0.87308	0
1	8	0.9279125	0
1	9	0.78461444	0
1	10	0.9617981	0
1	11	0.7853953	0
1	12	0.8842597	0
2	3	0.7138835	0
2	4	0.9740962	0
2	5	0.94148606	0
2	6	0.96690446	0
2	7	0.99546033	0
2	8	0.8933372	0
2	9	0.80581945	0
2	10	0.90879756	0
2	11	0.7530873	0
2	12	0.89287	0
2	1	0.9929004	0
3	13	0.968673	0
3	15	0.7429384	0
3	16	0.9650905	0
3	4	0.7386709	0
3	5	0.8788412	0
3	11	0.8735797	0
4	13	0.99823666	0
4	19	0.6688648	0
4	9	0.99489564	0
5	13	0.90813714	0
5	16	0.9175058	0
5	6	0.898577	0
6	16	0.9345298	0
6	18	0.95032465	0
6	19	0.9700985	0
6	4	0.95435566	0
6	7	0.90920955	0
6	12	0.9364095	0
7	18	0.9558593	0
7	19	0.87106264	0
7	3	0.8549093	0
7	4	0.8870676	0
7	5	0.89989275	0
7	12	0.94404715	0
8	14	0.8926564	0
8	15	0.8882228	0
8	16	0.88685596	0
8	19	0.9853077	0
8	4	0.89125115	0
8	5	0.91546756	0
8	7	0.8789181	0
9	14	0.9273886	0
9	15	0.944458	0
9	16	0.96286434	0
9	19	0.829089	0
9	5	0.88593024	0
9	6	0.84335214	0
9	7	0.93646353	0
9	8	0.76973134	0
9	12	0.87947524	0
10	14	0.68235385	0
10	15	0.9417737	0
10	16	0.9462317	0
10	19	0.9439235	0
10	4	0.99029744	0
10	5	0.90059465	0
10	6	0.8914417	0
10	8	0.86671996	0
10	9	0.86792725	0
11	17	0.8658043	0
11	19	0.9559823	0
11	4	0.91585445	0
11	5	0.938744	0
11	8	0.8795238	0
11	9	0.9759065	0
12	16	0.8895968	0
12	17	0.8978225	0
12	18	0.89833003	0
12	19	0.87724066	0
12	4	0.96607107	0
12	10	0.7190735	0
12	11	0.88693595	0
13	20	0.9989323	0
13	21	0.93421483	0
13	22	0.9845704	0
13	23	0.8580627	0
13	24	0.88468975	0
13	26	0.9414626	0
13	27	0.9667436	0
13	31	0.96216226	0
13	32	0.863983	0
13	36	0.9658864	0
13	37	0.85851336	0
14	21	0.96107846	0
14	23	0.86555773	0
14	24	0.9510227	0
14	25	0.8567757	0
14	27	0.922079	0
14	28	0.9461566	0
14	30	0.8805602	0
14	32	0.88327885	0
14	34	0.9213768	0
14	36	0.9553373	0
14	37	0.98826003	0
14	38	0.85396457	0
15	20	0.86479133	0
15	21	0.98725754	0
15	22	0.9081486	0
15	24	0.86340827	0
15	26	0.9950075	0
15	27	0.76518375	0
15	28	0.9726291	0
15	30	0.8980932	0
15	31	0.9207933	0
15	34	0.94370615	0
15	35	0.9603385	0
15	36	0.9987689	0
15	39	0.94370407	0
15	18	0.8684055	0
16	21	0.6654773	0
16	22	0.90267247	0
16	23	0.91192645	0
16	24	0.99006623	0
16	26	0.9125193	0
16	27	0.9857669	0
16	29	0.9402564	0
16	32	0.85503876	0
16	34	0.86701095	0
16	35	0.9357047	0
16	37	0.91077465	0
16	39	0.9286538	0
16	13	0.8708995	0
16	17	0.90818816	0
17	20	0.9078197	0
17	23	0.86080897	0
17	24	0.927659	0
17	31	0.65751785	0
17	32	0.99829817	0
17	33	0.8851752	0
17	34	0.8289408	0
17	35	0.99432606	0
17	36	0.9784177	0
17	38	0.8559665	0
17	39	0.91774213	0
17	13	0.8962738	0
17	15	0.6830902	0
18	23	0.9618534	0
18	25	0.91864526	0
18	27	0.806668	0
18	34	0.94632137	0
18	13	0.77981544	0
19	23	0.9915092	0
19	24	0.9546844	0
19	26	0.8760831	0
19	28	0.9882463	0
19	29	0.9531869	0
19	30	0.98976046	0
19	31	0.9248304	0
19	33	0.8689657	0
19	34	0.8889453	0
19	35	0.8517077	0
19	36	0.97404104	0
19	37	0.8528912	0
19	15	0.8717637	0
19	17	0.87753826	0
19	18	0.9141388	0
20	28	0.9973054	0
20	29	0.90543187	0
20	31	0.97834295	0
20	32	0.89321643	0
22	20	0.9363494	0
22	21	0.8561828	0
22	26	0.97351223	0
22	32	0.8576031	0
22	39	0.9372525	0
23	20	0.94632095	0
23	22	0.9181788	0
23	26	0.95278853	0
23	28	0.97139066	0
23	29	0.7473929	0
23	31	0.91414165	0
23	35	0.8679504	0
23	38	0.8212554	0
24	20	0.91851455	0
24	26	0.88007194	0
24	29	0.8988529	0
24	31	0.99418676	0
24	39	0.8706405	0
25	22	0.9743064	0
25	26	0.92434007	0
25	31	0.8713037	0
25	35	0.98238456	0
26	21	0.75894845	0
26	35	0.8748881	0
27	21	0.98652995	0
27	22	0.9459924	0
27	25	0.74883294	0
27	26	0.9799712	0
28	21	0.92719024	0
28	22	0.9495888	0
28	25	0.85538036	0
28	29	0.92650175	0
28	31	0.94578695	0
28	38	0.9436394	0
28	39	0.96827793	0
29	21	0.9599141	0
29	22	0.71532553	0
30	20	0.97736776	0
30	22	0.8697494	0
30	26	0.98159397	0
30	29	0.9727863	0
30	39	0.93800956	0
31	21	0.9662401	0
31	22	0.8987423	0
31	26	0.8584838	0
31	39	0.8734666	0
32	26	0.96990275	0
32	28	0.9696154	0
33	20	0.9690137	0
33	21	0.95142406	0
33	22	0.9124949	0
33	25	0.9669323	0
33	39	0.88594794	0
34	20	0.94184554	0
34	22	0.9823953	0
34	26	0.9747846	0
34	28	0.89613354	0
34	39	0.9218179	0
35	31	0.93975115	0
35	39	0.9227697	0
36	21	0.93247205	0
36	22	0.88200283	0
36	29	0.91638565	0
36	38	0.8783231	0
36	39	0.92206794	0
37	20	0.9123553	0
37	21	0.9379674	0
37	22	0.9256554	0
37	31	0.994784	0
38	22	0.93261117	0
38	29	0.8555901	0
38	35	0.9873367	0
39	20	0.9677718	0
# Tree 
# node parent parent parent ... 
39	16	17	15	
38	14	17	
37	19	16	14	13	
36	17	14	15	19	13	
35	19	15	16	17	
34	16	17	15	18	14	
33	17	19	
32	13	14	17	16	
31	15	13	19	17	
30	15	19	14	
29	16	19	
28	14	19	15	
27	14	15	18	16	13	
26	15	16	13	19	
25	14	18	
24	19	16	13	17	14	
23	19	13	18	17	16	
22	13	15	16	
21	16	14	15	13	
20	17	15	13	
19	10	4	11	7	8	
18	12	7	6	
17	12	11	
16	9	10	8	5	6	
15	8	9	10	3	
14	8	9	10	
13	4	3	5	
12	2	1	
11	2	1	
10	1	2	
9	1	2	
8	2	1	
7	1	2	
6	2	1	
5	2	1	
4	1	2	
3	1	2	
2	0	
1	0	
