# nCh	nF	nN
4	720	60
# node	nGenPack 
1	10
2	1
3	9
4	8
5	2
6	2
7	4
8	5
9	1
10	8
11	9
12	4
13	7
14	9
15	4
16	9
17	9
18	2
19	10
20	7
21	10
22	5
23	5
24	10
25	10
26	3
27	5
28	1
29	4
30	6
31	8
32	8
33	3
34	7
35	2
36	2
37	2
38	9
39	7
40	8
41	8
42	4
43	4
44	6
45	5
46	3
47	6
48	5
49	10
50	5
51	1
52	1
53	7
54	3
55	4
56	1
57	1
58	6
59	3
# nReplicas nParentLinks 
2	5
#Connectivity Graph 
# n1		n2	quality  master (Physical connectivity) 
0	1	0.9329449	1
0	2	0.92571294	1
0	3	0.8888697	1
1	4	0.85375786	0
1	5	0.6940491	0
1	6	0.9610439	0
1	7	0.9127962	0
1	8	0.987432	0
1	9	0.97726893	0
1	10	0.98114115	0
1	11	0.69604725	0
1	13	0.72783184	0
1	14	0.8359455	0
1	16	0.88864595	0
1	17	0.9769112	0
1	18	0.9561253	0
1	19	0.9828031	0
1	20	0.86056006	0
1	21	0.8852701	0
1	22	0.80894154	0
1	23	0.96810794	0
1	24	0.94646233	0
1	26	0.85005087	0
1	28	0.9397814	0
1	29	0.9652391	0
1	30	0.98389775	0
1	31	0.78467685	0
1	32	0.93788755	0
1	33	0.997964	0
1	34	0.85573554	0
1	35	0.89016634	0
1	36	0.9344495	0
1	37	0.90043354	0
1	38	0.9952792	0
1	40	0.9739801	0
1	41	0.9692218	0
2	4	0.9552988	0
2	5	0.9844102	0
2	6	0.97867125	0
2	7	0.9436343	0
2	8	0.89587	0
2	9	0.87884265	0
2	10	0.940808	0
2	12	0.8786419	0
2	13	0.9889949	0
2	14	0.90616345	0
2	15	0.77572346	0
2	16	0.8538655	0
2	18	0.860325	0
2	21	0.96004885	0
2	22	0.85197854	0
2	23	0.90324396	0
2	24	0.9581879	0
2	25	0.9815935	0
2	26	0.97736573	0
2	27	0.8788337	0
2	29	0.99027866	0
2	30	0.9048271	0
2	31	0.9150448	0
2	33	0.8723307	0
2	34	0.90873164	0
2	36	0.8532576	0
2	37	0.97098535	0
2	38	0.8978104	0
2	39	0.706735	0
2	40	0.9874555	0
2	41	0.97665536	0
2	42	0.91494226	0
3	4	0.95662564	0
3	5	0.8742102	0
3	6	0.97026175	0
3	7	0.9987365	0
3	8	0.9715714	0
3	9	0.88157815	0
3	10	0.90236986	0
3	11	0.96404356	0
3	12	0.8999389	0
3	13	0.9070017	0
3	14	0.85698843	0
3	15	0.9346628	0
3	16	0.9449906	0
3	17	0.98143715	0
3	19	0.918011	0
3	20	0.87358373	0
3	21	0.93819433	0
3	22	0.9934333	0
3	23	0.998259	0
3	24	0.9456962	0
3	25	0.923816	0
3	27	0.90850204	0
3	28	0.71139556	0
3	29	0.927573	0
3	30	0.95189136	0
3	31	0.92793936	0
3	32	0.90884036	0
3	35	0.9706604	0
3	36	0.9704329	0
3	37	0.99508977	0
3	38	0.87197924	0
3	39	0.8931866	0
3	41	0.8869756	0
3	42	0.9453374	0
3	1	0.75001794	0
4	49	0.9686742	0
4	50	0.876172	0
4	53	0.99603033	0
4	5	0.9538434	0
4	22	0.9628186	0
4	23	0.9460591	0
4	35	0.8845726	0
4	36	0.8826445	0
4	37	0.9555845	0
4	41	0.9283463	0
5	46	0.86647916	0
5	7	0.9899149	0
5	35	0.9771403	0
5	42	0.865593	0
6	46	0.94283867	0
6	50	0.87972325	0
6	53	0.8805868	0
6	54	0.9627587	0
6	57	0.739316	0
6	5	0.85267264	0
6	8	0.9773206	0
6	13	0.9023898	0
6	14	0.9457188	0
6	15	0.9707595	0
6	16	0.9180107	0
6	19	0.92223907	0
6	23	0.8942768	0
6	24	0.8875884	0
6	26	0.92171866	0
6	33	0.9108784	0
6	35	0.9979444	0
6	41	0.9885827	0
7	46	0.968522	0
7	47	0.9825664	0
7	50	0.99656105	0
7	57	0.9306495	0
7	4	0.8815797	0
7	11	0.9187558	0
7	13	0.7388988	0
7	14	0.94840384	0
7	22	0.7046864	0
7	24	0.95333326	0
7	27	0.91584545	0
7	30	0.9082318	0
7	38	0.9367533	0
7	41	0.88920015	0
8	46	0.92975795	0
8	50	0.91824526	0
8	57	0.8971139	0
8	4	0.87074125	0
8	5	0.90525186	0
8	10	0.85815805	0
8	14	0.9699279	0
8	22	0.98609793	0
8	24	0.98793024	0
8	26	0.966939	0
8	33	0.98862076	0
8	36	0.7497836	0
8	37	0.9104639	0
8	38	0.93502176	0
9	43	0.9285025	0
9	50	0.8684155	0
9	57	0.9922636	0
9	5	0.9703529	0
9	16	0.99700063	0
9	17	0.99272627	0
9	22	0.8894267	0
9	23	0.8777801	0
9	30	0.89569396	0
9	31	0.8848894	0
9	35	0.92812365	0
9	37	0.8544891	0
9	42	0.9695835	0
10	45	0.9319618	0
10	53	0.8563722	0
10	57	0.9272159	0
10	4	0.65772855	0
10	5	0.8883128	0
10	13	0.87371856	0
10	15	0.69929147	0
10	17	0.87935907	0
10	20	0.9335377	0
10	27	0.85832036	0
10	28	0.85898006	0
10	29	0.9635868	0
10	30	0.8854001	0
10	31	0.8732524	0
10	32	0.91223806	0
10	34	0.91080385	0
10	35	0.86824507	0
10	37	0.90486443	0
10	40	0.8552319	0
10	41	0.9525123	0
10	42	0.8696689	0
11	53	0.8753272	0
11	55	0.8561859	0
11	5	0.9188373	0
11	10	0.9851007	0
11	13	0.86765474	0
11	16	0.9475231	0
11	22	0.9541506	0
11	26	0.9514088	0
11	30	0.97326195	0
11	31	0.9102708	0
11	34	0.7984883	0
11	37	0.9299437	0
11	41	0.9739631	0
12	43	0.91174173	0
12	50	0.86175853	0
12	53	0.86968726	0
12	4	0.93324286	0
12	14	0.98978627	0
12	23	0.94922334	0
12	24	0.9179569	0
12	35	0.8522551	0
12	37	0.8563799	0
12	42	0.9102623	0
13	46	0.69441247	0
13	57	0.8777746	0
13	4	0.9364699	0
13	5	0.94465953	0
13	8	0.93425053	0
13	12	0.9388351	0
13	17	0.99226534	0
13	21	0.9851397	0
13	22	0.88468295	0
13	34	0.9154818	0
14	43	0.8874283	0
14	50	0.9723809	0
14	57	0.94533354	0
14	10	0.8691952	0
14	11	0.9911047	0
14	13	0.8562129	0
14	30	0.8665034	0
14	34	0.9852558	0
14	42	0.9061748	0
15	43	0.9258847	0
15	45	0.96582437	0
15	52	0.9711397	0
15	57	0.6576812	0
15	5	0.8875975	0
15	13	0.96228284	0
15	16	0.8976294	0
15	19	0.9328543	0
15	23	0.94289887	0
15	24	0.999998	0
15	29	0.95538396	0
15	34	0.98508465	0
15	35	0.85393536	0
15	37	0.9861187	0
15	41	0.97099775	0
15	42	0.7062792	0
16	43	0.96935034	0
16	44	0.9423734	0
16	48	0.92630196	0
16	50	0.9004652	0
16	54	0.6987055	0
16	57	0.89357173	0
16	59	0.92662394	0
16	14	0.90664387	0
16	23	0.9245095	0
16	26	0.95473135	0
16	34	0.76540375	0
16	35	0.9307175	0
16	36	0.86609477	0
17	53	0.92456377	0
17	5	0.76672226	0
17	8	0.6843094	0
17	12	0.95589864	0
17	15	0.8666145	0
17	16	0.90115714	0
17	22	0.87466604	0
17	24	0.89097077	0
17	27	0.87624204	0
17	31	0.8850588	0
17	36	0.8945806	0
17	37	0.9489672	0
17	42	0.9169798	0
18	43	0.90698487	0
18	46	0.972788	0
18	47	0.894793	0
18	50	0.9621368	0
18	53	0.9134937	0
18	57	0.89624745	0
18	59	0.9385996	0
18	5	0.9329999	0
18	10	0.8789839	0
18	13	0.9493081	0
18	14	0.74496573	0
18	16	0.95436656	0
18	19	0.8913723	0
18	23	0.8949033	0
18	24	0.86866844	0
18	25	0.95781404	0
18	27	0.9716761	0
18	29	0.96375096	0
18	30	0.7999971	0
18	31	0.8753274	0
18	36	0.9089379	0
19	46	0.959026	0
19	5	0.9806207	0
19	8	0.96232605	0
19	12	0.8628446	0
19	13	0.9148034	0
19	14	0.9446771	0
19	16	0.87724173	0
19	17	0.9349164	0
19	34	0.9535517	0
19	35	0.9351515	0
20	45	0.9749838	0
20	46	0.69540644	0
20	50	0.8616121	0
20	51	0.9180413	0
20	53	0.89858204	0
20	4	0.8740934	0
20	5	0.92609113	0
20	13	0.99626505	0
20	14	0.978468	0
20	15	0.98594946	0
20	18	0.79582655	0
20	23	0.92126894	0
20	26	0.9752868	0
20	27	0.90219617	0
20	31	0.8856487	0
20	34	0.87400246	0
20	35	0.9176729	0
20	37	0.8631918	0
21	46	0.8669038	0
21	47	0.99787223	0
21	50	0.9727111	0
21	53	0.7838763	0
21	57	0.98625374	0
21	4	0.8929137	0
21	12	0.93967277	0
21	20	0.8973877	0
21	23	0.9371547	0
21	24	0.9312973	0
21	26	0.8850004	0
21	30	0.95754766	0
21	31	0.9176633	0
21	34	0.9000276	0
21	35	0.8974995	0
21	36	0.9895308	0
22	46	0.88311476	0
22	50	0.9298869	0
22	51	0.9910588	0
22	53	0.8940397	0
22	57	0.6718056	0
22	12	0.9151591	0
22	14	0.9287212	0
22	15	0.93980235	0
22	16	0.75708354	0
22	19	0.9590855	0
22	24	0.98953396	0
22	27	0.9178945	0
22	30	0.862165	0
22	36	0.85996795	0
23	46	0.94430363	0
23	50	0.7142373	0
23	51	0.9892848	0
23	53	0.88782865	0
23	55	0.86437833	0
23	57	0.66973054	0
23	5	0.9893818	0
23	7	0.8736286	0
23	13	0.94575983	0
23	14	0.9434276	0
23	17	0.6985562	0
23	19	0.86931413	0
23	35	0.87301385	0
23	42	0.8652712	0
24	43	0.9071192	0
24	50	0.98320526	0
24	52	0.98713785	0
24	57	0.86658525	0
24	4	0.9532784	0
24	13	0.6626748	0
24	14	0.6765301	0
24	16	0.6735693	0
24	35	0.8306809	0
24	37	0.97299814	0
25	48	0.8618606	0
25	53	0.8697608	0
25	57	0.88820386	0
25	4	0.91678023	0
25	14	0.90182996	0
25	15	0.9180645	0
25	19	0.9180163	0
25	22	0.855733	0
25	23	0.7132307	0
25	24	0.9639442	0
25	27	0.9498711	0
25	28	0.86860585	0
25	31	0.9884296	0
25	33	0.8883298	0
25	34	0.98428863	0
25	41	0.97195023	0
25	42	0.94999224	0
26	4	0.90754664	0
26	5	0.9495531	0
26	14	0.9107969	0
26	17	0.9147478	0
26	19	0.9664837	0
26	22	0.9736163	0
26	23	0.96783537	0
26	24	0.8657659	0
26	31	0.86541504	0
26	41	0.9278589	0
27	50	0.8556736	0
27	53	0.88239187	0
27	57	0.9222493	0
27	4	0.9617723	0
27	13	0.8610376	0
27	14	0.9273288	0
27	15	0.982319	0
27	19	0.8996819	0
27	23	0.9615575	0
27	24	0.9066597	0
27	26	0.9416828	0
27	29	0.91221905	0
27	31	0.953748	0
27	34	0.89051247	0
27	35	0.8747376	0
27	42	0.97095656	0
28	50	0.89641404	0
28	53	0.9166178	0
28	4	0.8904749	0
28	5	0.88089764	0
28	8	0.93761814	0
28	13	0.95780665	0
28	14	0.9549573	0
28	15	0.9325451	0
28	16	0.9909332	0
28	19	0.8855975	0
28	21	0.944204	0
28	22	0.98221743	0
28	23	0.90886176	0
28	24	0.8658615	0
28	26	0.8764221	0
28	29	0.92271966	0
28	35	0.7346743	0
28	41	0.94242543	0
28	42	0.94843876	0
29	46	0.95120054	0
29	54	0.9883448	0
29	4	0.9392993	0
29	5	0.94182795	0
29	8	0.96713966	0
29	12	0.9461333	0
29	14	0.8587727	0
29	16	0.96031094	0
29	20	0.868256	0
29	22	0.9235113	0
29	23	0.9910207	0
29	24	0.99641806	0
29	25	0.8882859	0
29	26	0.7276259	0
29	34	0.96069837	0
29	42	0.6889615	0
30	46	0.98157495	0
30	50	0.855699	0
30	56	0.73809725	0
30	57	0.8615892	0
30	4	0.95815265	0
30	8	0.86123633	0
30	13	0.90904206	0
30	17	0.695143	0
30	19	0.69207615	0
30	24	0.85416734	0
30	26	0.87114644	0
30	28	0.9365186	0
30	36	0.74708855	0
31	43	0.9633739	0
31	46	0.8850429	0
31	47	0.8865075	0
31	4	0.96056104	0
31	5	0.8604994	0
31	12	0.89201224	0
31	13	0.9053963	0
31	14	0.90879995	0
31	15	0.87151885	0
31	16	0.77274275	0
31	19	0.9160231	0
31	22	0.92038333	0
31	23	0.926321	0
31	24	0.8537149	0
31	29	0.9420378	0
31	41	0.89124286	0
32	46	0.9444163	0
32	53	0.9325185	0
32	55	0.9901428	0
32	57	0.8639032	0
32	58	0.87916136	0
32	14	0.85415393	0
32	15	0.9762918	0
32	23	0.8814408	0
32	26	0.78737265	0
32	29	0.85775846	0
32	30	0.91061884	0
32	31	0.91563493	0
32	34	0.7013838	0
32	38	0.89401066	0
32	40	0.96263117	0
32	42	0.900968	0
33	46	0.8637635	0
33	50	0.8640143	0
33	53	0.91452277	0
33	57	0.9588978	0
33	58	0.8648589	0
33	5	0.96497214	0
33	15	0.8811941	0
33	16	0.97858113	0
33	17	0.9996717	0
33	18	0.92521995	0
33	19	0.9097425	0
33	22	0.97027	0
33	23	0.97298795	0
33	24	0.9515358	0
33	26	0.9421561	0
33	27	0.86414444	0
33	30	0.93276924	0
33	31	0.889366	0
33	35	0.8717553	0
33	37	0.9127125	0
34	44	0.9526363	0
34	46	0.93418694	0
34	50	0.9494734	0
34	57	0.91986495	0
34	4	0.71870476	0
34	5	0.9859488	0
34	17	0.91635996	0
34	22	0.88171613	0
34	26	0.89158785	0
34	30	0.94487035	0
34	31	0.8840937	0
35	50	0.9335793	0
35	56	0.91806114	0
35	11	0.9301058	0
35	13	0.9308424	0
35	14	0.92124027	0
35	17	0.98295534	0
35	22	0.93183595	0
35	26	0.9408607	0
35	31	0.8708468	0
35	32	0.89474547	0
35	41	0.9217883	0
36	49	0.97507334	0
36	50	0.96394694	0
36	53	0.93642235	0
36	5	0.8429057	0
36	13	0.94748306	0
36	20	0.897283	0
36	23	0.95493644	0
36	24	0.9027845	0
36	26	0.9722258	0
36	27	0.8702543	0
36	34	0.81753486	0
36	35	0.96374726	0
36	40	0.8642451	0
36	42	0.9475175	0
37	46	0.97386146	0
37	50	0.9973452	0
37	5	0.721347	0
37	13	0.93433774	0
37	16	0.94721067	0
37	18	0.859402	0
37	19	0.9696561	0
37	22	0.87018627	0
37	23	0.85784936	0
37	26	0.89807445	0
37	27	0.8884092	0
37	30	0.95312756	0
37	31	0.91484684	0
37	42	0.7467886	0
38	46	0.91558594	0
38	53	0.86346096	0
38	56	0.96550936	0
38	57	0.87245303	0
38	4	0.85206056	0
38	11	0.8950509	0
38	13	0.87358	0
38	15	0.9197517	0
38	16	0.90719795	0
38	17	0.9157845	0
38	19	0.86443233	0
38	23	0.9479192	0
38	24	0.9150019	0
38	27	0.97965366	0
38	34	0.7398517	0
38	35	0.8617255	0
38	42	0.8768924	0
39	46	0.9369785	0
39	53	0.9338748	0
39	4	0.9138527	0
39	5	0.90213054	0
39	13	0.66887933	0
39	14	0.8778937	0
39	19	0.9546416	0
39	26	0.9346912	0
39	27	0.8696038	0
39	32	0.9516164	0
39	36	0.86802125	0
39	40	0.88101995	0
39	41	0.7237447	0
39	42	0.97654206	0
40	55	0.85196733	0
40	56	0.8621338	0
40	57	0.9328893	0
40	59	0.6736612	0
40	4	0.8606023	0
40	5	0.94052696	0
40	6	0.86581445	0
40	9	0.9865654	0
40	11	0.92180693	0
40	12	0.98275846	0
40	13	0.94672304	0
40	14	0.9964458	0
40	16	0.99150395	0
40	19	0.98862994	0
40	22	0.9217501	0
40	24	0.9223161	0
40	26	0.9059231	0
40	31	0.8951934	0
40	35	0.9679448	0
41	45	0.8769921	0
41	46	0.9519714	0
41	50	0.9418006	0
41	53	0.97927535	0
41	54	0.8581317	0
41	58	0.98893344	0
41	5	0.88414	0
41	8	0.764686	0
41	12	0.8509761	0
41	13	0.9532836	0
41	16	0.8646537	0
41	17	0.9234657	0
41	21	0.86903954	0
41	22	0.8634246	0
41	23	0.8839749	0
41	24	0.9334303	0
41	27	0.6840904	0
41	29	0.9823962	0
41	30	0.9408442	0
41	32	0.89066756	0
41	36	0.8479698	0
41	42	0.82595855	0
42	43	0.891535	0
42	4	0.89256334	0
42	11	0.8615352	0
42	13	0.9940241	0
42	16	0.9911541	0
42	19	0.9628079	0
42	20	0.68010736	0
42	21	0.98941666	0
42	22	0.8986168	0
42	24	0.98135805	0
42	26	0.9263537	0
42	30	0.93094945	0
42	31	0.8515506	0
42	35	0.85510474	0
43	44	0.87830865	0
43	48	0.86056507	0
43	49	0.93491364	0
43	52	0.9333512	0
43	56	0.9056656	0
43	58	0.9841323	0
43	59	0.8570646	0
44	45	0.85061556	0
44	47	0.9090626	0
44	48	0.8504556	0
44	49	0.87255865	0
44	52	0.9730616	0
44	56	0.8549771	0
44	58	0.8578125	0
45	55	0.96457714	0
45	56	0.8564418	0
46	47	0.94297487	0
46	55	0.93468803	0
46	56	0.8529614	0
46	59	0.9813657	0
47	45	0.7305746	0
47	48	0.92809564	0
48	45	0.730958	0
48	56	0.9195815	0
48	59	0.87854	0
49	45	0.92701435	0
49	48	0.9391123	0
49	51	0.966315	0
50	45	0.9677259	0
50	58	0.9420362	0
50	59	0.9822103	0
51	44	0.98273474	0
51	45	0.898155	0
51	47	0.919937	0
51	52	0.93751997	0
51	59	0.90706885	0
52	45	0.8597826	0
52	47	0.9085455	0
52	49	0.9307838	0
52	56	0.91491055	0
53	45	0.9362395	0
53	47	0.9376099	0
53	48	0.9216887	0
53	49	0.9261565	0
53	51	0.66922694	0
53	56	0.8774127	0
53	58	0.9915791	0
53	59	0.9876144	0
54	45	0.91238344	0
54	48	0.85013837	0
54	49	0.7650124	0
54	51	0.9404906	0
55	44	0.7612775	0
55	51	0.9909332	0
56	49	0.9954169	0
56	51	0.8977281	0
57	45	0.8934831	0
57	47	0.8726785	0
57	48	0.6798868	0
57	49	0.8831702	0
57	51	0.89175403	0
57	54	0.9829535	0
57	58	0.95565706	0
58	45	0.9803929	0
58	48	0.9788621	0
58	49	0.9923951	0
58	51	0.98117393	0
58	54	0.8990162	0
58	56	0.92568725	0
59	45	0.86245334	0
59	49	0.8542847	0
59	54	0.7924369	0
59	55	0.8973383	0
59	56	0.88990426	0
59	58	0.67511094	0
# Tree 
# node parent parent parent ... 
59	18	40	16	
58	33	32	41	
57	22	23	34	24	38	
56	40	38	35	30	
55	40	23	11	32	
54	41	29	16	6	
53	22	18	28	36	11	
52	15	24	
51	20	23	22	
50	23	33	41	18	22	
49	4	36	
48	25	16	
47	7	31	18	21	
46	37	38	5	19	7	
45	20	41	10	15	
44	16	34	
43	16	15	12	31	9	
42	2	3	
41	1	3	2	
40	2	1	
39	2	3	
38	1	3	2	
37	1	3	2	
36	1	3	2	
35	1	3	
34	1	2	
33	1	2	
32	1	3	
31	1	3	2	
30	3	1	2	
29	2	3	1	
28	3	1	
27	2	3	
26	2	1	
25	3	2	
24	2	1	3	
23	3	2	1	
22	1	2	3	
21	3	1	2	
20	3	1	
19	1	3	
18	1	2	
17	1	3	
16	1	2	3	
15	3	2	
14	3	2	1	
13	1	3	2	
12	2	3	
11	1	3	
10	1	3	2	
9	2	1	3	
8	2	1	3	
7	3	2	1	
6	3	1	2	
5	2	3	1	
4	2	1	3	
3	0	
2	0	
1	0	
