# nCh	nF	nN
4	720	20
# node	nGenPack 
1	5
2	9
3	6
4	10
5	7
6	8
7	4
8	8
9	8
10	1
11	7
12	9
13	2
14	3
15	2
16	7
17	1
18	7
19	3
# nReplicas nParentLinks 
4	5
#Connectivity Graph 
# n1		n2	quality  master (Physical connectivity) 
0	1	0.85975355	1
0	2	0.98765963	1
0	3	0.9898666	1
0	4	0.8636754	1
0	5	0.8872001	1
1	6	0.87310195	0
1	7	0.99689656	0
1	9	0.95181555	0
1	2	0.8670706	0
1	5	0.7851299	0
2	6	0.9290627	0
2	10	0.94445246	0
3	6	0.9381706	0
3	7	0.8740787	0
3	8	0.97287875	0
3	9	0.68187124	0
3	10	0.9629902	0
3	1	0.6676919	0
3	2	0.97133404	0
3	4	0.9402031	0
3	5	0.65166885	0
4	6	0.85428524	0
4	8	0.9089542	0
5	6	0.96579117	0
5	7	0.87520194	0
5	9	0.67329884	0
5	10	0.9852279	0
5	4	0.98441494	0
6	11	0.8101065	0
6	12	0.8768325	0
6	13	0.93558073	0
6	14	0.94268477	0
6	15	0.97824275	0
6	16	0.9727018	0
6	17	0.8470401	0
6	19	0.95508313	0
7	11	0.89738584	0
7	13	0.9990196	0
7	14	0.95417553	0
7	17	0.85108453	0
7	18	0.70135415	0
7	19	0.8626011	0
8	11	0.9202446	0
8	12	0.66730094	0
8	13	0.81239235	0
8	14	0.946091	0
8	15	0.90428185	0
8	17	0.94559216	0
8	19	0.9946726	0
8	7	0.94326365	0
9	11	0.9710185	0
9	13	0.92628264	0
9	16	0.85015184	0
9	17	0.9869692	0
9	18	0.89362276	0
9	19	0.9657836	0
9	8	0.8781643	0
10	11	0.9491159	0
10	12	0.9269504	0
10	13	0.9316589	0
10	14	0.73228574	0
10	15	0.9663925	0
10	18	0.9192601	0
10	19	0.8898891	0
10	7	0.97935766	0
10	8	0.86302066	0
10	9	0.963316	0
11	12	0.89233744	0
12	14	0.98193896	0
13	12	0.95887166	0
13	14	0.9950937	0
13	16	0.9133667	0
13	17	0.9211202	0
13	18	0.92490596	0
14	18	0.95975614	0
15	16	0.99885887	0
16	12	0.9674171	0
16	17	0.9341133	0
17	12	0.87625384	0
17	14	0.65622324	0
18	12	0.8078177	0
18	15	0.98821795	0
18	16	0.989276	0
19	14	0.76324487	0
19	16	0.8910975	0
19	18	0.9041539	0
# Tree 
# node parent parent parent ... 
19	6	10	8	7	9	
18	9	10	7	
17	7	6	9	8	
16	6	9	
15	6	8	10	
14	7	10	8	6	
13	6	9	7	10	8	
12	8	10	6	
11	6	8	9	10	7	
10	2	5	3	
9	1	5	3	
8	3	4	
7	1	3	5	
6	5	1	4	3	2	
5	0	
4	0	
3	0	
2	0	
1	0	
