# nCh	nF	nN
1	720	20
# node	nGenPack 
1	3
2	3
3	6
4	2
5	1
6	10
7	3
8	8
9	1
10	9
11	9
12	4
13	1
14	2
15	8
16	6
17	4
18	4
19	8
# nReplicas nParentLinks 
4	5
#Connectivity Graph 
# n1		n2	quality  master (Physical connectivity) 
0	1	0.8736474	1
0	2	0.9705531	1
0	3	0.90956473	1
0	4	0.8431852	1
0	5	0.89398026	1
1	6	0.8988008	0
1	7	0.95265174	0
1	8	0.76288897	0
1	11	0.8554142	0
1	12	0.98119944	0
1	15	0.99067605	0
2	6	0.93958783	0
2	7	0.6577505	0
2	8	0.8959209	0
2	12	0.8929699	0
2	14	0.92749757	0
3	6	0.75393105	0
3	7	0.92876	0
3	8	0.8672615	0
3	9	0.86851436	0
3	10	0.90659773	0
3	11	0.9431827	0
3	12	0.869748	0
3	13	0.8995428	0
3	14	0.8841723	0
3	15	0.97115153	0
3	4	0.9857692	0
4	6	0.93557745	0
4	7	0.92489207	0
4	8	0.90370965	0
4	11	0.92268324	0
4	12	0.9772682	0
4	13	0.97932535	0
4	14	0.92358047	0
4	15	0.8721578	0
5	6	0.91003436	0
5	7	0.85644406	0
5	8	0.72760755	0
5	9	0.9035504	0
5	10	0.6872704	0
5	11	0.86986154	0
5	12	0.84745383	0
5	13	0.9428826	0
5	15	0.97389346	0
5	4	0.8969794	0
6	10	0.904883	0
7	18	0.95707136	0
7	11	0.9931221	0
8	18	0.8722237	0
8	19	0.9706782	0
8	9	0.9248185	0
8	10	0.9399401	0
8	11	0.86213	0
8	13	0.97706896	0
8	15	0.88745344	0
9	17	0.89792883	0
9	18	0.96538407	0
10	17	0.9237667	0
10	18	0.94170123	0
10	9	0.98288846	0
10	13	0.9427106	0
10	14	0.9504277	0
11	16	0.876011	0
11	18	0.73767686	0
11	9	0.9619676	0
11	10	0.87541157	0
11	13	0.87838763	0
11	15	0.94633883	0
12	16	0.9257391	0
12	18	0.8703839	0
12	9	0.86469275	0
12	13	0.8601349	0
12	14	0.8629813	0
13	18	0.9678485	0
13	9	0.9959021	0
13	14	0.88574696	0
14	17	0.9137293	0
14	9	0.97018814	0
14	11	0.8871418	0
15	16	0.97294676	0
15	17	0.70644027	0
15	19	0.9138663	0
15	9	0.9482376	0
15	10	0.86038524	0
18	19	0.92379296	0
19	17	0.9312113	0
# Tree 
# node parent parent parent ... 
19	8	15	
18	10	12	11	8	7	
17	10	9	15	14	
16	12	11	15	
15	5	4	1	3	
14	3	4	2	
13	4	3	5	
12	4	1	5	3	2	
11	5	1	4	3	
10	3	5	
9	3	5	
8	1	2	4	3	5	
7	2	5	4	1	3	
6	3	4	2	5	1	
5	0	
4	0	
3	0	
2	0	
1	0	
