# nCh	nF	nN
1	720	80
# node	nGenPack 
1	3
2	2
3	1
4	9
5	3
6	1
7	7
8	8
9	6
10	4
11	2
12	5
13	9
14	1
15	5
16	1
17	7
18	4
19	4
20	1
21	5
22	7
23	9
24	10
25	4
26	4
27	3
28	5
29	3
30	10
31	5
32	3
33	1
34	1
35	5
36	2
37	9
38	5
39	4
40	2
41	6
42	5
43	2
44	9
45	5
46	10
47	4
48	5
49	8
50	8
51	8
52	7
53	2
54	4
55	2
56	4
57	9
58	5
59	1
60	1
61	2
62	10
63	10
64	1
65	8
66	6
67	9
68	9
69	2
70	2
71	8
72	3
73	3
74	7
75	4
76	5
77	7
78	6
79	8
# nReplicas nParentLinks 
5	5
#Connectivity Graph 
# n1		n2	quality  master (Physical connectivity) 
0	1	0.8676461	1
0	2	0.90536696	1
0	3	0.79341274	1
0	4	0.943246	1
0	5	0.6868515	1
0	6	0.79635197	1
0	7	0.90664107	1
0	8	0.8959598	1
0	9	0.91565746	1
0	10	0.80558157	1
0	11	0.9676374	1
0	12	0.88207775	1
0	13	0.8663666	1
0	14	0.65771335	1
0	15	0.9781679	1
0	16	0.975057	1
1	23	0.95975006	0
1	32	0.9267919	0
1	35	0.9279329	0
1	37	0.9846891	0
1	38	0.98906094	0
1	39	0.97530264	0
1	40	0.8615506	0
1	7	0.9467892	0
1	12	0.98961884	0
1	13	0.9493664	0
2	23	0.9157836	0
2	32	0.89677125	0
2	33	0.72027206	0
2	37	0.9946937	0
2	38	0.97695744	0
2	1	0.89091456	0
2	3	0.9150488	0
2	11	0.8591511	0
3	18	0.9407158	0
3	19	0.8736315	0
3	21	0.9355978	0
3	26	0.8671726	0
3	31	0.9731387	0
3	36	0.9713713	0
3	37	0.9296342	0
3	38	0.72921705	0
4	18	0.89265305	0
4	20	0.91519	0
4	22	0.99413365	0
4	24	0.9078875	0
4	26	0.9347743	0
4	30	0.8972291	0
4	31	0.91298896	0
4	37	0.7145166	0
4	38	0.7061204	0
4	39	0.94512105	0
4	1	0.863169	0
4	2	0.94759697	0
4	3	0.9623195	0
4	10	0.91688746	0
4	16	0.75322074	0
5	20	0.9815447	0
5	21	0.9811802	0
5	24	0.85256857	0
5	25	0.88587284	0
5	30	0.88820904	0
5	37	0.96160764	0
5	39	0.8695826	0
5	40	0.92080295	0
5	1	0.8935328	0
5	4	0.91876274	0
5	6	0.98341775	0
5	11	0.96138024	0
5	12	0.96228695	0
6	20	0.95643485	0
6	21	0.93504006	0
6	22	0.92976546	0
6	25	0.9214398	0
6	26	0.90200573	0
6	28	0.95491844	0
6	32	0.954627	0
6	34	0.90868866	0
6	36	0.88081235	0
6	38	0.8058214	0
6	1	0.97013813	0
6	2	0.66542757	0
6	3	0.8344078	0
6	13	0.9813545	0
6	15	0.8638526	0
7	19	0.860689	0
7	20	0.86844516	0
7	22	0.8529757	0
7	24	0.8987046	0
7	25	0.9840329	0
7	26	0.9691772	0
7	30	0.86564183	0
7	37	0.86571926	0
7	38	0.95523345	0
7	2	0.9421714	0
7	3	0.86751294	0
7	12	0.8055991	0
7	14	0.940194	0
8	17	0.90673506	0
8	18	0.8887118	0
8	19	0.94077915	0
8	22	0.906816	0
8	24	0.94802195	0
8	25	0.9480366	0
8	26	0.9469082	0
8	35	0.92319095	0
8	37	0.9247147	0
8	38	0.9746146	0
8	2	0.8685619	0
8	4	0.9178878	0
8	5	0.8647454	0
8	6	0.9045766	0
8	9	0.8797681	0
9	19	0.9711611	0
9	22	0.88711363	0
9	24	0.9425573	0
9	25	0.9855294	0
9	26	0.79466456	0
9	29	0.9289826	0
9	6	0.9248179	0
9	7	0.8791202	0
9	11	0.99648756	0
9	12	0.91306204	0
9	13	0.921976	0
10	20	0.8136575	0
10	22	0.9347827	0
10	37	0.9171945	0
10	2	0.88087	0
10	5	0.8547242	0
10	6	0.9467377	0
10	7	0.86458635	0
10	8	0.93315643	0
10	12	0.88190234	0
11	22	0.9432979	0
11	24	0.887414	0
11	26	0.911797	0
11	27	0.98765504	0
11	28	0.8627341	0
11	29	0.92806035	0
11	34	0.9792708	0
11	1	0.8899893	0
11	3	0.8526195	0
11	6	0.8673984	0
11	7	0.895516	0
11	8	0.99063015	0
11	10	0.9490559	0
11	13	0.8923013	0
11	14	0.9374547	0
12	20	0.99335515	0
12	24	0.9736762	0
12	25	0.98540425	0
12	26	0.91598976	0
12	27	0.912418	0
12	31	0.9462725	0
12	32	0.9376877	0
12	36	0.9154208	0
12	37	0.95257163	0
12	2	0.8891034	0
12	3	0.99735063	0
12	6	0.9751903	0
12	8	0.96697116	0
12	13	0.96119404	0
12	15	0.74744594	0
13	21	0.9620821	0
13	24	0.85218644	0
13	25	0.84701693	0
13	29	0.98763025	0
13	37	0.8764043	0
13	40	0.67996657	0
13	2	0.8559982	0
13	3	0.9544746	0
13	7	0.99411964	0
13	8	0.8800937	0
13	10	0.9597218	0
13	15	0.85007715	0
14	17	0.6810786	0
14	18	0.92943156	0
14	28	0.9049647	0
14	31	0.93827486	0
14	33	0.94896543	0
14	34	0.95809156	0
14	36	0.7916668	0
14	37	0.7039993	0
14	38	0.9477501	0
14	3	0.9770933	0
14	4	0.87261426	0
14	5	0.88426256	0
14	8	0.87598825	0
14	12	0.86811	0
14	15	0.9478214	0
14	16	0.88356495	0
15	24	0.66154224	0
15	26	0.92896867	0
15	33	0.9147409	0
15	37	0.85491973	0
15	38	0.9639617	0
15	39	0.9294292	0
15	1	0.96267414	0
15	4	0.8539057	0
15	5	0.94025433	0
15	7	0.9048268	0
16	20	0.9518431	0
16	22	0.975963	0
16	24	0.90186495	0
16	25	0.9643915	0
16	26	0.7595025	0
16	38	0.86378783	0
16	1	0.9492049	0
16	2	0.8708466	0
16	3	0.93994373	0
16	6	0.99587005	0
16	7	0.89859587	0
16	8	0.9371775	0
16	10	0.94103974	0
16	12	0.76330096	0
17	54	0.87200826	0
17	57	0.9813958	0
17	60	0.9519144	0
17	62	0.9501378	0
17	31	0.97745806	0
18	41	0.87970036	0
18	42	0.9756317	0
18	49	0.97069937	0
18	53	0.8525985	0
18	54	0.9415527	0
18	58	0.7210757	0
18	59	0.907241	0
18	60	0.9082489	0
18	29	0.94350773	0
18	31	0.9444229	0
18	32	0.9402486	0
18	35	0.89569443	0
18	40	0.91810715	0
19	41	0.892619	0
19	44	0.8972648	0
19	49	0.9149638	0
19	52	0.95911366	0
19	57	0.87048435	0
19	59	0.9677217	0
19	60	0.9076709	0
19	18	0.9732028	0
19	31	0.8922487	0
19	32	0.8535465	0
19	33	0.9779219	0
20	42	0.990669	0
20	48	0.91358656	0
20	49	0.98774755	0
20	54	0.95139146	0
20	58	0.9266335	0
20	59	0.9500345	0
20	60	0.8704611	0
20	19	0.86657566	0
20	31	0.7110439	0
20	32	0.86546475	0
20	33	0.76270133	0
20	40	0.98498976	0
21	41	0.91082	0
21	59	0.93613577	0
21	60	0.857622	0
21	61	0.909629	0
21	17	0.8534879	0
21	32	0.9547187	0
21	33	0.89415145	0
21	36	0.9787013	0
22	41	0.8893006	0
22	42	0.96111363	0
22	17	0.94437915	0
22	18	0.9948749	0
22	23	0.9290629	0
22	29	0.924719	0
22	34	0.9406737	0
22	40	0.8725078	0
23	41	0.87736285	0
23	42	0.9310111	0
23	49	0.89847314	0
23	50	0.9839469	0
23	52	0.9194795	0
23	54	0.91831625	0
23	56	0.6571341	0
23	63	0.95449954	0
23	21	0.8292298	0
23	29	0.99176335	0
23	31	0.8513683	0
24	55	0.9106309	0
24	57	0.8678749	0
24	60	0.8739722	0
24	19	0.88946867	0
24	29	0.9202185	0
24	32	0.9525971	0
24	35	0.86462337	0
24	36	0.9076312	0
25	41	0.8928476	0
25	46	0.9138719	0
25	51	0.944079	0
25	52	0.954606	0
25	54	0.89880633	0
25	18	0.98838276	0
25	23	0.7267789	0
25	31	0.9971797	0
25	33	0.94168717	0
25	35	0.85187423	0
25	36	0.93285185	0
26	46	0.7312567	0
26	47	0.88233674	0
26	49	0.85055006	0
26	54	0.8821494	0
26	60	0.88870335	0
26	62	0.95807034	0
26	18	0.9950865	0
26	19	0.9127747	0
26	29	0.8507626	0
26	31	0.71812266	0
26	32	0.92158836	0
26	33	0.86905086	0
26	35	0.8733849	0
27	41	0.91022086	0
27	42	0.99465865	0
27	44	0.85358363	0
27	49	0.92812014	0
27	50	0.8866872	0
27	59	0.93713933	0
27	31	0.9248387	0
27	32	0.7790876	0
27	34	0.903557	0
27	35	0.9135457	0
27	36	0.78003603	0
28	41	0.9674042	0
28	49	0.8803458	0
28	18	0.97753525	0
28	19	0.8944772	0
28	29	0.94932157	0
28	31	0.9948343	0
28	32	0.9857649	0
28	35	0.90417343	0
28	39	0.875947	0
29	55	0.9364678	0
29	61	0.9378716	0
29	27	0.8927323	0
30	41	0.9956248	0
30	43	0.9152177	0
30	44	0.95299226	0
30	49	0.978908	0
30	52	0.88233423	0
30	60	0.92428964	0
30	18	0.9336375	0
30	29	0.94999	0
30	32	0.6500227	0
30	35	0.93929696	0
30	40	0.97591794	0
31	41	0.8781789	0
31	42	0.90302324	0
31	43	0.8916487	0
31	44	0.6967725	0
31	53	0.9178679	0
31	54	0.9542354	0
31	59	0.9900017	0
31	60	0.9591507	0
31	29	0.86064535	0
31	33	0.9367575	0
31	36	0.87518024	0
32	41	0.99841034	0
32	49	0.9599317	0
32	54	0.9376308	0
32	56	0.9912756	0
32	59	0.8921849	0
32	61	0.9724377	0
32	17	0.9259257	0
32	29	0.9796094	0
32	31	0.8959068	0
32	36	0.97691214	0
32	40	0.83794665	0
33	42	0.9783294	0
33	49	0.9104045	0
33	50	0.9904127	0
33	51	0.8753806	0
33	59	0.8510141	0
33	23	0.96516484	0
33	29	0.9546087	0
33	32	0.9488043	0
33	35	0.962781	0
33	40	0.83681875	0
34	41	0.89144313	0
34	42	0.9591486	0
34	43	0.9099	0
34	44	0.9063944	0
34	49	0.9790129	0
34	50	0.78297526	0
34	52	0.96569556	0
34	19	0.9263853	0
34	21	0.9529178	0
34	29	0.8855279	0
34	31	0.986535	0
34	32	0.9129539	0
34	33	0.88251126	0
34	40	0.90844274	0
35	42	0.97655886	0
35	44	0.8808664	0
35	49	0.92886126	0
35	54	0.8689713	0
35	57	0.946884	0
35	60	0.6743036	0
35	19	0.9573713	0
35	23	0.9374024	0
35	29	0.94465744	0
35	31	0.85722494	0
35	32	0.9935033	0
36	42	0.9802317	0
36	46	0.8727859	0
36	47	0.8649041	0
36	51	0.9960722	0
36	17	0.780359	0
36	18	0.9551395	0
36	19	0.95731115	0
36	29	0.99895835	0
36	33	0.9641113	0
36	34	0.92878616	0
36	35	0.86093485	0
37	42	0.96570504	0
37	44	0.993583	0
37	49	0.85509205	0
37	54	0.90193933	0
37	59	0.9919705	0
37	63	0.98959285	0
37	17	0.9491856	0
37	29	0.81756556	0
37	32	0.9621456	0
37	33	0.97482437	0
37	35	0.985111	0
38	44	0.87556493	0
38	45	0.857787	0
38	48	0.94604397	0
38	49	0.9902916	0
38	52	0.99845034	0
38	59	0.90391994	0
38	62	0.9370603	0
38	23	0.9482534	0
38	29	0.8548776	0
38	31	0.93183947	0
38	32	0.969072	0
39	42	0.90102655	0
39	44	0.97495776	0
39	45	0.97463006	0
39	49	0.95665914	0
39	52	0.7758707	0
39	53	0.85599524	0
39	59	0.8515275	0
39	19	0.9061692	0
39	27	0.8646667	0
39	29	0.94302136	0
39	31	0.8859147	0
39	33	0.99170846	0
39	34	0.67886287	0
39	35	0.9422261	0
40	42	0.9777572	0
40	44	0.94804764	0
40	45	0.88574654	0
40	49	0.97783136	0
40	54	0.9053119	0
40	17	0.9614784	0
40	19	0.8985042	0
40	23	0.96574867	0
40	35	0.8658142	0
40	39	0.9497506	0
41	66	0.98942983	0
41	69	0.92874706	0
41	70	0.95462954	0
41	72	0.8826888	0
41	79	0.9011162	0
41	43	0.95384413	0
41	46	0.9705197	0
41	47	0.86094403	0
41	48	0.95874715	0
41	53	0.9822676	0
42	69	0.94486284	0
42	76	0.88222075	0
42	48	0.89360946	0
42	55	0.6611236	0
43	68	0.99828434	0
43	69	0.9048428	0
43	70	0.9399865	0
43	76	0.9893305	0
43	78	0.9298625	0
43	79	0.9586569	0
43	53	0.9603327	0
44	70	0.88592595	0
44	76	0.97884786	0
44	46	0.67026526	0
44	47	0.8868013	0
44	48	0.7406894	0
44	53	0.9307448	0
44	55	0.9948155	0
44	57	0.936734	0
44	58	0.8568791	0
44	62	0.8868013	0
45	69	0.93139654	0
45	71	0.99649346	0
45	43	0.99554485	0
45	48	0.9303095	0
45	51	0.9253768	0
45	53	0.958281	0
45	55	0.79868484	0
45	57	0.8519428	0
45	58	0.9738313	0
45	62	0.8902926	0
46	67	0.95531124	0
46	70	0.96341753	0
46	77	0.9827213	0
46	43	0.9209876	0
46	55	0.867248	0
46	57	0.6600181	0
46	58	0.99483114	0
47	65	0.9622122	0
47	70	0.95648474	0
47	76	0.9757152	0
47	45	0.96372694	0
47	46	0.96180314	0
47	58	0.99376076	0
47	62	0.9203997	0
48	70	0.9780841	0
48	71	0.9609326	0
48	73	0.9434971	0
48	79	0.90551543	0
48	43	0.89109015	0
49	64	0.88896585	0
49	66	0.8900718	0
49	48	0.99273	0
49	58	0.9946285	0
50	69	0.8549309	0
50	70	0.93658537	0
50	76	0.9357832	0
50	78	0.9193074	0
50	79	0.9112456	0
50	45	0.902102	0
50	46	0.9647242	0
50	47	0.91725516	0
50	48	0.82549936	0
50	58	0.8724822	0
51	65	0.9617431	0
51	69	0.8747702	0
51	70	0.858179	0
51	43	0.9398541	0
51	48	0.80454594	0
51	55	0.9771274	0
52	69	0.8708171	0
52	79	0.87890744	0
52	58	0.96644235	0
53	70	0.93657565	0
53	71	0.8808423	0
53	75	0.8762246	0
53	77	0.88617116	0
53	79	0.8986642	0
53	47	0.99872077	0
53	51	0.9780287	0
53	55	0.91065514	0
53	56	0.8612541	0
53	58	0.9347568	0
53	62	0.89080846	0
54	65	0.73812914	0
54	76	0.91436017	0
54	46	0.8522421	0
54	47	0.97532505	0
54	53	0.98591477	0
54	55	0.892852	0
54	57	0.99741286	0
54	62	0.88988286	0
55	64	0.87552327	0
55	69	0.8595565	0
55	72	0.8602482	0
55	74	0.9672594	0
55	76	0.9436229	0
55	78	0.9364347	0
55	43	0.8678187	0
55	48	0.99061376	0
55	58	0.98639476	0
55	62	0.8792086	0
56	68	0.99170053	0
56	69	0.9170156	0
56	76	0.86419195	0
56	43	0.8945361	0
56	46	0.9857549	0
56	55	0.9093392	0
57	66	0.95316947	0
57	67	0.94147617	0
57	69	0.8855743	0
57	43	0.77341425	0
57	47	0.8581389	0
57	51	0.89597213	0
57	56	0.9773048	0
58	64	0.7184983	0
58	69	0.9206764	0
58	70	0.8854099	0
58	74	0.98492736	0
58	75	0.9955393	0
58	76	0.96304494	0
58	79	0.8995552	0
58	43	0.95515114	0
58	48	0.7182052	0
59	68	0.934344	0
59	69	0.9470641	0
59	70	0.92190313	0
59	76	0.92747724	0
59	46	0.85591	0
60	69	0.9588375	0
60	71	0.85057825	0
60	56	0.9489017	0
60	58	0.89182943	0
61	69	0.85494244	0
61	70	0.9721872	0
61	73	0.8839895	0
61	74	0.667157	0
61	76	0.9045226	0
61	78	0.91420966	0
61	43	0.8684381	0
61	45	0.9726095	0
61	46	0.90428215	0
61	48	0.94390935	0
61	57	0.87712383	0
61	62	0.89675397	0
62	66	0.89775777	0
62	69	0.94096124	0
62	70	0.9225831	0
62	72	0.9353639	0
62	79	0.98766154	0
62	48	0.98778284	0
63	69	0.86391824	0
63	70	0.9181186	0
63	76	0.8657058	0
63	79	0.9608365	0
63	50	0.9475682	0
64	75	0.98513305	0
64	78	0.888985	0
66	65	0.8609638	0
66	77	0.91691893	0
67	65	0.86263794	0
67	74	0.9845187	0
67	75	0.93102515	0
67	77	0.86250657	0
68	65	0.94243604	0
68	75	0.9403343	0
68	78	0.86725736	0
69	68	0.9792456	0
69	75	0.86201054	0
69	77	0.8723233	0
70	67	0.9558857	0
70	72	0.7298501	0
70	74	0.883452	0
70	75	0.91769713	0
70	77	0.73530376	0
71	65	0.6703937	0
71	68	0.8583007	0
71	73	0.9109165	0
71	74	0.97996354	0
72	65	0.8111393	0
72	67	0.9651049	0
72	68	0.95293444	0
72	77	0.92784303	0
73	64	0.93830675	0
73	65	0.95918095	0
73	72	0.9333154	0
73	74	0.8559245	0
73	77	0.9781954	0
74	65	0.96834695	0
75	65	0.9899146	0
75	66	0.9476861	0
75	72	0.92829704	0
76	65	0.96672696	0
76	68	0.9413302	0
76	72	0.9311379	0
76	77	0.99813855	0
76	78	0.89259976	0
77	65	0.86338425	0
77	71	0.8914964	0
77	74	0.87240285	0
77	75	0.96169585	0
78	66	0.9167101	0
78	72	0.9162241	0
78	73	0.93255466	0
79	68	0.9795144	0
79	75	0.97015023	0
79	77	0.9925238	0
# Tree 
# node parent parent parent ... 
79	43	50	63	41	52	
78	55	61	50	43	
77	53	46	
76	54	63	55	56	47	
75	58	53	
74	55	58	61	
73	48	61	
72	55	41	62	
71	60	45	48	53	
70	46	62	43	51	53	
69	51	42	45	55	63	
68	56	59	43	
67	46	57	
66	57	41	49	62	
65	54	51	47	
64	49	58	55	
63	23	37	
62	26	17	38	
61	32	21	29	
60	20	19	24	17	26	
59	31	37	21	18	20	
58	20	18	
57	24	19	35	17	
56	23	32	
55	29	24	
54	32	37	35	20	26	
53	18	39	31	
52	19	38	30	23	25	
51	33	25	36	
50	27	23	33	34	
49	33	40	26	28	19	
48	38	20	
47	26	36	
46	26	36	25	
45	40	39	38	
44	37	19	40	38	27	
43	30	31	34	
42	27	37	31	36	40	
41	28	34	27	32	18	
40	5	13	1	
39	5	15	4	1	
38	16	3	7	6	1	
37	2	15	1	10	8	
36	12	6	3	14	
35	1	8	
34	14	6	11	
33	14	15	2	
32	2	12	1	6	
31	14	3	12	4	
30	5	4	7	
29	11	13	9	
28	14	6	11	
27	11	12	
26	7	16	3	9	4	
25	8	16	13	7	5	
24	12	15	8	9	7	
23	1	2	
22	8	16	10	6	11	
21	13	6	3	5	
20	10	4	6	16	5	
19	3	9	8	7	
18	4	14	8	3	
17	14	8	
16	0	
15	0	
14	0	
13	0	
12	0	
11	0	
10	0	
9	0	
8	0	
7	0	
6	0	
5	0	
4	0	
3	0	
2	0	
1	0	
