# nCh	nF	nN
4	720	80
# node	nGenPack 
1	5
2	2
3	8
4	2
5	7
6	9
7	1
8	5
9	7
10	1
11	4
12	5
13	7
14	4
15	1
16	8
17	2
18	5
19	2
20	5
21	10
22	5
23	5
24	8
25	7
26	4
27	8
28	5
29	7
30	5
31	4
32	7
33	7
34	4
35	5
36	5
37	5
38	10
39	5
40	8
41	5
42	8
43	2
44	3
45	3
46	1
47	7
48	9
49	10
50	5
51	8
52	8
53	1
54	5
55	8
56	9
57	6
58	2
59	4
60	3
61	5
62	4
63	1
64	2
65	4
66	10
67	8
68	6
69	6
70	1
71	1
72	7
73	8
74	2
75	10
76	4
77	6
78	9
79	8
# nReplicas nParentLinks 
2	5
#Connectivity Graph 
# n1		n2	quality  master (Physical connectivity) 
0	1	0.670968	1
0	2	0.8635061	1
0	3	0.8998273	1
0	4	0.88420403	1
1	5	0.9288335	0
1	6	0.93700755	0
1	8	0.9687719	0
1	9	0.7027897	0
1	10	0.90177464	0
2	5	0.8696392	0
2	6	0.8632137	0
2	8	0.98069274	0
2	9	0.9425755	0
2	1	0.9302592	0
3	5	0.9216757	0
3	6	0.9059038	0
3	7	0.9071356	0
3	8	0.92738444	0
3	9	0.92271394	0
3	10	0.93601805	0
4	6	0.9709211	0
4	7	0.85421884	0
4	8	0.89781	0
4	9	0.9482225	0
4	10	0.85685027	0
4	1	0.88070583	0
5	11	0.98889047	0
5	13	0.89414954	0
5	14	0.9594584	0
5	15	0.94891775	0
5	16	0.8561245	0
5	18	0.92127	0
5	19	0.87357426	0
5	21	0.90816927	0
5	22	0.9703739	0
5	23	0.97017026	0
5	24	0.9312093	0
5	25	0.9554585	0
5	26	0.96511054	0
5	29	0.98794407	0
5	31	0.94377464	0
5	33	0.9781619	0
5	34	0.9896033	0
5	35	0.92681056	0
5	36	0.91938305	0
5	37	0.8948995	0
5	38	0.9518508	0
5	42	0.86545336	0
5	43	0.85193247	0
5	44	0.9418084	0
5	47	0.939343	0
5	48	0.8722179	0
5	49	0.96437746	0
5	50	0.88756937	0
5	51	0.72557604	0
5	52	0.9217591	0
5	53	0.9893558	0
5	54	0.963477	0
5	55	0.96428305	0
5	56	0.94656646	0
5	57	0.86031663	0
5	58	0.93928146	0
5	6	0.9447127	0
5	7	0.9401154	0
6	11	0.95446503	0
6	12	0.88072073	0
6	13	0.99033695	0
6	14	0.9815251	0
6	15	0.9145089	0
6	16	0.8539321	0
6	19	0.8619328	0
6	21	0.9308218	0
6	22	0.8613307	0
6	23	0.9414745	0
6	26	0.90810573	0
6	28	0.896371	0
6	32	0.9650104	0
6	34	0.91866964	0
6	37	0.80166775	0
6	38	0.84062046	0
6	40	0.913233	0
6	41	0.9041824	0
6	42	0.86968553	0
6	45	0.9387436	0
6	46	0.8749385	0
6	48	0.9882635	0
6	50	0.9617134	0
6	52	0.86710274	0
6	55	0.9947875	0
6	56	0.86016357	0
6	58	0.9033938	0
6	7	0.9080939	0
7	11	0.95296615	0
7	12	0.89565635	0
7	13	0.9967024	0
7	15	0.95517254	0
7	16	0.97845143	0
7	17	0.90885407	0
7	18	0.9500775	0
7	19	0.87295896	0
7	20	0.7241525	0
7	21	0.88246256	0
7	22	0.9682822	0
7	24	0.8616881	0
7	28	0.86101484	0
7	29	0.97380096	0
7	32	0.93288016	0
7	33	0.94866544	0
7	34	0.9265789	0
7	35	0.8920545	0
7	36	0.98531	0
7	37	0.9818042	0
7	40	0.8575637	0
7	41	0.88694257	0
7	44	0.99653643	0
7	45	0.80368686	0
7	46	0.9073874	0
7	47	0.95350766	0
7	49	0.90112096	0
7	50	0.69740176	0
7	51	0.99139583	0
7	53	0.90027195	0
7	57	0.9293412	0
7	58	0.88401204	0
7	10	0.9443646	0
8	11	0.8828177	0
8	15	0.9717566	0
8	22	0.9899849	0
8	25	0.97194195	0
8	26	0.93747723	0
8	27	0.9584651	0
8	28	0.9418026	0
8	29	0.9349433	0
8	30	0.8743394	0
8	31	0.9520859	0
8	33	0.90871775	0
8	34	0.8718424	0
8	37	0.9391918	0
8	39	0.9063128	0
8	41	0.927227	0
8	42	0.96678257	0
8	44	0.9597262	0
8	46	0.8891048	0
8	47	0.9521154	0
8	48	0.9463182	0
8	49	0.8866617	0
8	50	0.97985387	0
8	52	0.9725785	0
8	53	0.9274412	0
8	55	0.9194029	0
8	56	0.92793137	0
8	57	0.9847574	0
8	58	0.7603357	0
8	6	0.93926215	0
8	7	0.9200622	0
8	10	0.7622927	0
9	14	0.89056695	0
9	17	0.9095564	0
9	19	0.9373823	0
9	21	0.9602177	0
9	24	0.86103743	0
9	26	0.72903687	0
9	32	0.94759595	0
9	35	0.94987947	0
9	39	0.8876447	0
9	40	0.8587888	0
9	41	0.89515185	0
9	43	0.9348952	0
9	44	0.8834468	0
9	46	0.94419247	0
9	47	0.81346893	0
9	48	0.9772582	0
9	49	0.9396763	0
9	50	0.8476883	0
9	52	0.89593935	0
9	53	0.6592629	0
9	56	0.9331201	0
9	57	0.9617428	0
10	11	0.85992116	0
10	15	0.8919908	0
10	16	0.67215616	0
10	18	0.85573316	0
10	19	0.98003876	0
10	20	0.9775888	0
10	22	0.891614	0
10	24	0.8703479	0
10	27	0.9917821	0
10	28	0.89295137	0
10	30	0.97150123	0
10	33	0.8953836	0
10	34	0.9980616	0
10	35	0.9893426	0
10	36	0.92551935	0
10	37	0.8654293	0
10	38	0.9140979	0
10	39	0.85167396	0
10	40	0.883633	0
10	42	0.8544326	0
10	44	0.9264878	0
10	45	0.9997857	0
10	46	0.9586118	0
10	47	0.88982886	0
10	48	0.8636674	0
10	49	0.9340981	0
10	51	0.8951151	0
10	53	0.9031534	0
10	54	0.9857775	0
10	57	0.80321187	0
10	58	0.8991447	0
10	5	0.885234	0
10	6	0.9409212	0
11	59	0.94830054	0
11	60	0.9762783	0
11	61	0.98826593	0
11	12	0.9760408	0
11	16	0.9184736	0
11	20	0.93869066	0
11	21	0.95769644	0
11	25	0.96271175	0
11	29	0.9946121	0
11	38	0.85496366	0
11	51	0.9678784	0
11	55	0.96401495	0
12	59	0.88396424	0
12	61	0.8989298	0
12	63	0.86423975	0
12	64	0.95147926	0
12	20	0.8658443	0
12	21	0.9692172	0
12	26	0.9665883	0
12	28	0.92431396	0
12	39	0.956698	0
12	42	0.9091593	0
12	52	0.8888618	0
13	59	0.987239	0
13	16	0.8847664	0
13	20	0.9684147	0
13	27	0.8504238	0
13	29	0.8548689	0
13	32	0.9484599	0
13	36	0.8847701	0
13	39	0.8574804	0
13	42	0.77259123	0
13	56	0.88164014	0
14	59	0.98469126	0
14	13	0.98060834	0
14	18	0.8993343	0
14	25	0.93891525	0
14	38	0.93252605	0
14	39	0.89896196	0
14	42	0.99651194	0
14	51	0.9997947	0
14	54	0.91084325	0
14	56	0.68077624	0
15	12	0.94161797	0
15	14	0.94486654	0
15	16	0.95791537	0
15	21	0.9715364	0
15	25	0.9754479	0
15	27	0.7938303	0
15	28	0.82882303	0
15	29	0.87312776	0
15	31	0.89949983	0
15	32	0.8932314	0
15	38	0.87155217	0
15	45	0.92361516	0
15	56	0.9186964	0
16	59	0.9957596	0
16	12	0.92277586	0
16	24	0.9339888	0
16	26	0.9324285	0
16	29	0.90242064	0
16	42	0.92824554	0
16	54	0.9623688	0
17	65	0.9825254	0
17	16	0.78264546	0
17	29	0.86845535	0
17	30	0.95555353	0
17	32	0.99051636	0
17	33	0.9377214	0
17	36	0.947891	0
17	41	0.98890257	0
17	43	0.8910341	0
17	52	0.92014	0
18	59	0.8565041	0
18	16	0.9381869	0
18	25	0.8821853	0
18	28	0.7245202	0
18	29	0.94653714	0
18	36	0.7024974	0
18	38	0.92344195	0
18	39	0.993424	0
18	40	0.9028679	0
18	54	0.89186996	0
18	56	0.67073315	0
19	59	0.8688385	0
19	66	0.9353282	0
19	12	0.75535154	0
19	16	0.8501138	0
19	18	0.97928333	0
19	20	0.8847601	0
19	21	0.9509738	0
19	29	0.9611642	0
19	31	0.9378371	0
19	38	0.8782248	0
19	42	0.82419246	0
19	52	0.8706329	0
19	56	0.6929275	0
20	16	0.8876186	0
20	17	0.8631301	0
20	32	0.85638833	0
20	38	0.87531203	0
20	52	0.89101243	0
20	56	0.89928514	0
21	16	0.7987353	0
21	17	0.881129	0
21	20	0.90267706	0
21	31	0.91506714	0
21	39	0.92122114	0
22	12	0.89403105	0
22	16	0.96422935	0
22	20	0.93442357	0
22	32	0.91083515	0
22	33	0.98856336	0
22	36	0.92446494	0
22	39	0.9797434	0
22	40	0.9625681	0
22	51	0.95765144	0
22	52	0.88770527	0
22	54	0.92558265	0
22	56	0.9671106	0
23	59	0.9473343	0
23	14	0.93900263	0
23	29	0.9579152	0
23	35	0.96079206	0
23	36	0.9088032	0
23	42	0.9248394	0
23	45	0.8707116	0
23	54	0.8343989	0
24	59	0.8971023	0
24	14	0.87151253	0
24	21	0.76524585	0
24	26	0.93757075	0
24	29	0.9187929	0
24	32	0.93233943	0
24	52	0.93396467	0
25	12	0.86351895	0
25	16	0.90220755	0
25	17	0.9538404	0
25	28	0.9233033	0
25	30	0.87720025	0
25	56	0.8754465	0
26	59	0.92839104	0
26	64	0.99711996	0
26	21	0.9734132	0
26	36	0.99840534	0
26	38	0.98620725	0
26	56	0.90662235	0
27	12	0.95909244	0
27	14	0.92759776	0
27	16	0.9627818	0
27	18	0.97873294	0
27	20	0.8693606	0
27	21	0.65580547	0
27	24	0.88838005	0
27	25	0.9086459	0
27	26	0.9481602	0
27	38	0.84039074	0
27	54	0.9571006	0
27	56	0.8990944	0
28	63	0.89797187	0
28	13	0.93680626	0
28	14	0.98590285	0
28	16	0.9126616	0
28	20	0.9343354	0
28	21	0.8799375	0
28	27	0.7405081	0
28	29	0.9281252	0
28	32	0.85015714	0
29	12	0.9891846	0
29	14	0.91882753	0
29	21	0.9586716	0
29	25	0.98769224	0
29	26	0.9832327	0
29	27	0.8952895	0
29	38	0.9256001	0
29	39	0.93020153	0
29	45	0.88758457	0
30	59	0.8955587	0
30	14	0.97529316	0
30	16	0.9284346	0
30	20	0.80946624	0
30	21	0.9510103	0
30	31	0.8635671	0
30	35	0.93866336	0
30	36	0.98597705	0
30	38	0.82604796	0
30	39	0.89483434	0
30	45	0.9739422	0
30	51	0.96543175	0
30	52	0.9409894	0
30	56	0.6982768	0
31	59	0.9631641	0
31	12	0.8981002	0
31	14	0.8934743	0
31	25	0.7491994	0
31	26	0.9669178	0
31	29	0.91325015	0
31	32	0.9287815	0
31	38	0.96231335	0
31	39	0.92168957	0
31	42	0.9758538	0
31	45	0.8526924	0
31	54	0.9283972	0
31	55	0.7183069	0
31	56	0.99286306	0
32	12	0.973892	0
32	14	0.9676508	0
32	16	0.8796013	0
32	21	0.9276689	0
32	26	0.8787307	0
32	38	0.9031603	0
32	51	0.87831885	0
32	52	0.80557895	0
33	62	0.89061165	0
33	13	0.9257009	0
33	16	0.9359821	0
33	20	0.850805	0
33	25	0.85852337	0
33	27	0.7127287	0
33	45	0.8593772	0
33	52	0.8727455	0
33	55	0.9940305	0
34	59	0.9888146	0
34	65	0.95864344	0
34	29	0.9952343	0
34	31	0.88788503	0
34	32	0.8875704	0
34	38	0.9321799	0
34	39	0.92124456	0
34	42	0.87004197	0
34	45	0.91918063	0
34	51	0.8662649	0
34	54	0.89729005	0
35	59	0.76871794	0
35	16	0.9056115	0
35	18	0.962762	0
35	21	0.88192314	0
35	25	0.9874573	0
35	26	0.8810991	0
35	27	0.79422307	0
35	28	0.9792898	0
35	32	0.9469577	0
35	36	0.93157023	0
35	38	0.81203413	0
35	52	0.94986355	0
35	56	0.86504215	0
36	63	0.95328104	0
36	68	0.9424879	0
36	12	0.8728695	0
36	14	0.8889027	0
36	16	0.95112914	0
36	21	0.9413193	0
36	24	0.95491105	0
36	27	0.9708396	0
36	29	0.996871	0
36	32	0.9600096	0
36	45	0.89302945	0
36	52	0.99560463	0
36	56	0.69172764	0
37	67	0.91758126	0
37	20	0.9110342	0
37	21	0.9681118	0
37	23	0.94073594	0
37	25	0.8925971	0
37	31	0.9303889	0
37	32	0.9381752	0
37	56	0.8585147	0
38	12	0.92583025	0
38	13	0.8561235	0
38	17	0.97288257	0
38	21	0.9117029	0
38	28	0.90780324	0
38	33	0.9140676	0
39	59	0.9498249	0
39	67	0.934848	0
39	20	0.8732803	0
39	25	0.89985025	0
39	28	0.8960542	0
39	32	0.98578227	0
39	36	0.8927844	0
39	45	0.9791359	0
39	52	0.9283294	0
39	54	0.9298018	0
39	56	0.9921504	0
40	12	0.9722902	0
40	14	0.9921499	0
40	21	0.877534	0
40	25	0.94170845	0
40	27	0.67227066	0
40	29	0.9041637	0
40	36	0.92539716	0
40	38	0.9473572	0
40	52	0.90407175	0
40	54	0.99100256	0
41	59	0.94570565	0
41	63	0.9421705	0
41	66	0.9920133	0
41	13	0.90069443	0
41	16	0.92749375	0
41	21	0.99886346	0
41	25	0.888159	0
41	26	0.85342896	0
41	29	0.96107686	0
41	38	0.9527809	0
41	39	0.69489247	0
41	43	0.98704123	0
41	45	0.9532853	0
41	52	0.92150134	0
41	54	0.96885663	0
42	61	0.92871016	0
42	63	0.88216734	0
42	17	0.89304435	0
42	20	0.867666	0
42	26	0.9856039	0
42	29	0.8286972	0
42	35	0.8596572	0
42	36	0.97325563	0
42	38	0.9272976	0
42	41	0.9087744	0
42	54	0.94505423	0
43	59	0.86158246	0
43	12	0.74223727	0
43	16	0.9569989	0
43	21	0.92756397	0
43	26	0.86401904	0
43	29	0.9464289	0
43	35	0.8947709	0
43	38	0.85144585	0
43	39	0.94580674	0
43	55	0.9321254	0
44	20	0.97049946	0
44	21	0.8745156	0
44	24	0.89426535	0
44	25	0.96913433	0
44	27	0.995576	0
44	29	0.9903116	0
44	36	0.7692866	0
44	38	0.9338329	0
44	52	0.6610681	0
44	54	0.78508127	0
44	56	0.9206219	0
45	66	0.82685834	0
45	20	0.88602436	0
45	21	0.8629292	0
45	24	0.90009403	0
45	25	0.7279047	0
45	26	0.92166615	0
45	38	0.87011856	0
45	40	0.9601559	0
45	42	0.93992764	0
45	52	0.96650994	0
45	56	0.99129033	0
46	59	0.83566767	0
46	65	0.8678454	0
46	12	0.86203396	0
46	14	0.92396224	0
46	16	0.8818931	0
46	20	0.9449088	0
46	21	0.9624831	0
46	25	0.99886394	0
46	26	0.9703775	0
46	27	0.85247016	0
46	28	0.927486	0
46	29	0.87795264	0
46	32	0.87414163	0
46	35	0.91197634	0
46	36	0.8571755	0
46	39	0.8828379	0
46	42	0.8931354	0
46	45	0.9129125	0
46	56	0.99458224	0
47	60	0.9934455	0
47	68	0.933597	0
47	20	0.92173195	0
47	21	0.93746734	0
47	25	0.828467	0
47	32	0.884027	0
47	33	0.9373344	0
47	39	0.8989425	0
47	42	0.8963162	0
47	43	0.9483049	0
47	54	0.9373286	0
48	59	0.95609117	0
48	12	0.94713974	0
48	13	0.9946671	0
48	14	0.8997042	0
48	21	0.9785293	0
48	31	0.9596471	0
48	36	0.78123015	0
48	43	0.9667118	0
48	45	0.98485637	0
48	52	0.9185549	0
48	54	0.85546046	0
48	55	0.952067	0
48	56	0.79730326	0
49	59	0.9703198	0
49	60	0.93172675	0
49	12	0.990996	0
49	16	0.9172807	0
49	20	0.99135655	0
49	21	0.92929846	0
49	26	0.9444661	0
49	27	0.91575384	0
49	28	0.9361151	0
49	29	0.899788	0
49	31	0.88764673	0
49	36	0.97001934	0
49	38	0.85909015	0
49	39	0.9809305	0
49	42	0.9670205	0
49	43	0.9977803	0
49	52	0.91089404	0
49	54	0.9651287	0
50	62	0.9993648	0
50	14	0.93129814	0
50	21	0.88079673	0
50	25	0.9355557	0
50	26	0.996267	0
50	29	0.923932	0
50	32	0.7332197	0
50	39	0.9740342	0
50	52	0.9549337	0
50	56	0.85844713	0
51	16	0.9884486	0
51	21	0.9960851	0
51	25	0.9870985	0
51	26	0.79171246	0
51	27	0.95075834	0
51	29	0.90436965	0
51	31	0.97628635	0
51	38	0.79267824	0
51	39	0.8716494	0
51	40	0.85236746	0
51	42	0.96608114	0
51	56	0.85767436	0
52	59	0.94677645	0
52	14	0.9105211	0
52	26	0.8578133	0
52	27	0.9409753	0
52	28	0.8615542	0
52	29	0.963632	0
52	38	0.98189896	0
52	42	0.9381994	0
52	43	0.96863896	0
53	12	0.930611	0
53	20	0.9067978	0
53	23	0.9322475	0
53	25	0.909706	0
53	27	0.862626	0
53	28	0.9658748	0
53	38	0.88162607	0
53	39	0.9474756	0
53	40	0.9730623	0
53	42	0.8564456	0
53	45	0.9480078	0
53	51	0.8817909	0
53	52	0.9089352	0
53	54	0.9363853	0
53	55	0.93618953	0
54	59	0.8633699	0
54	61	0.95741415	0
54	66	0.9072018	0
54	12	0.9362153	0
54	17	0.97120374	0
54	20	0.9008168	0
54	26	0.9652151	0
54	29	0.91835654	0
54	36	0.89651096	0
54	38	0.96454376	0
54	43	0.87087137	0
54	56	0.9249978	0
55	16	0.90412664	0
55	20	0.87370765	0
55	25	0.9210654	0
55	26	0.8745584	0
55	27	0.9121544	0
55	29	0.9896283	0
55	36	0.9667023	0
55	38	0.91034997	0
55	39	0.974601	0
55	40	0.95119655	0
55	45	0.8056479	0
55	51	0.91161275	0
56	59	0.85419756	0
56	62	0.85990834	0
56	12	0.9029385	0
56	16	0.8901221	0
56	21	0.9026877	0
56	28	0.8899663	0
56	29	0.90959543	0
56	32	0.9669429	0
56	33	0.87996507	0
56	38	0.9093001	0
56	40	0.88665724	0
56	42	0.899409	0
57	59	0.9858769	0
57	18	0.88923424	0
57	21	0.9934942	0
57	25	0.9343202	0
57	26	0.919474	0
57	27	0.83915275	0
57	28	0.9388487	0
57	32	0.9999844	0
57	36	0.9176785	0
57	42	0.97340393	0
57	45	0.9376568	0
57	52	0.95357496	0
57	56	0.86640775	0
58	63	0.85735637	0
58	12	0.81407946	0
58	17	0.9238099	0
58	20	0.94602036	0
58	26	0.9596521	0
58	28	0.886634	0
58	29	0.9676679	0
58	32	0.9084195	0
58	36	0.7306665	0
58	39	0.8752021	0
58	52	0.9717042	0
58	55	0.96169716	0
58	56	0.8894109	0
59	73	0.9406323	0
59	76	0.8762414	0
59	77	0.8725815	0
59	78	0.8905316	0
59	79	0.9108452	0
59	61	0.99749196	0
59	64	0.99768454	0
59	67	0.8765856	0
60	69	0.9441464	0
60	70	0.901013	0
60	71	0.8562103	0
60	74	0.90142834	0
60	79	0.8500731	0
60	64	0.861246	0
61	76	0.8551848	0
61	78	0.925114	0
61	66	0.83210105	0
61	68	0.99485075	0
62	72	0.9647245	0
62	75	0.8200863	0
62	78	0.9536526	0
62	61	0.9425761	0
62	66	0.8558442	0
63	69	0.85979706	0
63	72	0.9904232	0
63	73	0.8688278	0
63	75	0.8913572	0
63	76	0.9911369	0
63	79	0.91970146	0
63	61	0.9725906	0
63	64	0.89738554	0
63	66	0.91478175	0
63	67	0.86859524	0
63	68	0.94328195	0
64	73	0.9348589	0
64	77	0.9796521	0
64	78	0.8600733	0
64	79	0.9465429	0
64	66	0.98902476	0
64	68	0.88213307	0
65	77	0.98366827	0
65	79	0.6662785	0
65	64	0.938775	0
65	66	0.91533744	0
65	67	0.92208415	0
65	68	0.8557677	0
66	72	0.97404134	0
66	74	0.8834807	0
66	75	0.9338356	0
66	77	0.8908779	0
66	78	0.9743819	0
66	60	0.87423754	0
66	67	0.8710221	0
67	70	0.9565877	0
67	71	0.9954004	0
67	73	0.88209534	0
67	78	0.9722867	0
67	64	0.970823	0
68	69	0.9652846	0
68	71	0.9745822	0
68	66	0.86781156	0
68	67	0.85415274	0
69	75	0.90649194	0
71	73	0.9854317	0
72	69	0.98189247	0
72	70	0.91749865	0
72	73	0.89733213	0
74	69	0.9237099	0
74	73	0.9712234	0
74	77	0.93775165	0
75	70	0.8665997	0
75	73	0.9635873	0
75	74	0.9849437	0
76	73	0.9529362	0
76	77	0.9461116	0
77	69	0.92977643	0
77	70	0.99821085	0
77	75	0.97834575	0
78	70	0.91021407	0
78	76	0.8762764	0
79	69	0.99197733	0
79	70	0.9870294	0
79	72	0.97833145	0
79	75	0.97273815	0
# Tree 
# node parent parent parent ... 
79	64	59	60	63	65	
78	64	62	59	61	67	
77	59	65	64	66	
76	59	63	61	
75	63	62	66	
74	60	66	
73	63	59	67	64	
72	63	66	62	
71	67	68	60	
70	67	60	
69	68	60	63	
68	47	36	
67	37	39	
66	45	54	19	41	
65	17	46	34	
64	26	12	
63	58	12	36	42	28	
62	50	33	56	
61	12	42	54	11	
60	47	49	11	
59	12	48	11	14	34	
58	5	8	6	10	7	
57	5	9	10	7	8	
56	8	5	9	6	
55	6	8	5	
54	5	10	
53	7	10	5	8	9	
52	5	6	9	8	
51	5	7	10	
50	8	7	5	6	9	
49	7	8	9	5	10	
48	6	5	8	10	9	
47	10	8	9	5	7	
46	10	9	6	8	7	
45	10	6	7	
44	8	10	5	9	7	
43	9	5	
42	10	8	6	5	
41	7	8	6	9	
40	7	10	6	9	
39	9	8	10	
38	10	6	5	
37	6	10	5	8	7	
36	7	10	5	
35	9	5	7	10	
34	6	10	7	5	8	
33	7	10	5	8	
32	9	7	6	
31	5	8	
30	10	8	
29	7	8	5	
28	7	6	10	8	
27	8	10	
26	5	8	9	6	
25	8	5	
24	5	9	7	10	
23	6	5	
22	6	8	5	7	10	
21	7	6	9	5	
20	10	7	
19	10	5	6	7	9	
18	5	10	7	
17	7	9	
16	7	5	10	6	
15	8	6	5	10	7	
14	5	9	6	
13	7	6	5	
12	6	7	
11	10	7	6	8	5	
10	1	3	4	
9	2	1	4	3	
8	1	4	2	3	
7	3	4	
6	2	4	3	1	
5	1	2	3	
4	0	
3	0	
2	0	
1	0	
