# nCh	nF	nN
1	720	80
# node	nGenPack 
1	10
2	4
3	1
4	7
5	2
6	9
7	6
8	10
9	2
10	1
11	6
12	7
13	5
14	10
15	1
16	7
17	8
18	10
19	7
20	6
21	10
22	6
23	10
24	4
25	3
26	5
27	1
28	10
29	4
30	2
31	5
32	9
33	4
34	10
35	8
36	5
37	7
38	10
39	5
40	2
41	3
42	1
43	9
44	9
45	9
46	9
47	1
48	10
49	4
50	8
51	2
52	10
53	8
54	7
55	2
56	2
57	5
58	7
59	1
60	5
61	1
62	9
63	1
64	2
65	10
66	4
67	1
68	5
69	1
70	6
71	6
72	10
73	1
74	6
75	3
76	5
77	3
78	3
79	10
# nReplicas nParentLinks 
1	5
#Connectivity Graph 
# n1		n2	quality  master (Physical connectivity) 
0	1	0.86944175	1
0	2	0.90563023	1
0	3	0.92812085	1
0	4	0.8635075	1
0	5	0.86122924	1
0	6	0.97810036	1
0	7	0.97074014	1
0	8	0.9533184	1
0	9	0.76310563	1
0	10	0.94056255	1
0	11	0.85690165	1
0	12	0.96989053	1
0	13	0.8944218	1
0	14	0.8746211	1
0	15	0.8742207	1
0	16	0.8958121	1
0	17	0.9558586	1
0	18	0.95085865	1
0	19	0.8092814	1
0	20	0.85641366	1
0	21	0.9885709	1
0	22	0.9375901	1
0	23	0.9564506	1
0	24	0.7440727	1
0	25	0.97410375	1
0	26	0.87963086	1
0	27	0.8543179	1
0	28	0.90650785	1
0	29	0.97332036	1
1	35	0.9276566	0
1	7	0.9627857	0
1	11	0.9769485	0
1	14	0.6652093	0
1	18	0.98081297	0
1	20	0.9744835	0
1	27	0.9381504	0
1	29	0.9358359	0
2	1	0.9918209	0
2	14	0.9987386	0
2	15	0.9600558	0
2	21	0.9559465	0
2	25	0.97797394	0
2	27	0.99901545	0
2	28	0.94086856	0
3	30	0.87241644	0
3	33	0.99751115	0
3	34	0.9282723	0
3	1	0.916941	0
3	2	0.8684613	0
3	4	0.97090745	0
3	5	0.771455	0
3	7	0.88649213	0
3	11	0.93936074	0
3	16	0.99533486	0
3	17	0.9635526	0
3	21	0.94382834	0
3	25	0.8541557	0
3	26	0.90391904	0
4	33	0.86802775	0
4	1	0.9652658	0
4	2	0.85495585	0
4	5	0.8622699	0
4	11	0.8965333	0
4	20	0.9117058	0
4	21	0.8978785	0
4	22	0.9372918	0
5	35	0.9292556	0
5	2	0.9885999	0
5	7	0.8691151	0
5	16	0.8960183	0
5	17	0.9834372	0
5	20	0.89696395	0
5	25	0.89833057	0
5	26	0.94113725	0
6	32	0.9001111	0
6	35	0.97684884	0
6	1	0.898003	0
6	5	0.93074936	0
6	7	0.94002414	0
6	14	0.8719033	0
6	20	0.8508131	0
6	21	0.9104082	0
6	22	0.9536283	0
6	25	0.937601	0
6	27	0.89629763	0
7	30	0.99522644	0
7	31	0.88518494	0
7	2	0.95888305	0
7	4	0.8634257	0
7	16	0.8864494	0
7	18	0.8942882	0
7	20	0.89299023	0
7	21	0.8911232	0
7	25	0.86437494	0
7	27	0.86413366	0
8	35	0.85831326	0
8	1	0.9067364	0
8	2	0.9465322	0
8	7	0.9861925	0
8	13	0.92406154	0
8	15	0.8722991	0
8	18	0.99435794	0
8	22	0.8801723	0
9	2	0.7399943	0
9	3	0.98054326	0
9	4	0.94775766	0
9	5	0.7922946	0
9	7	0.9292604	0
9	10	0.96485686	0
9	17	0.8998492	0
9	18	0.9237669	0
9	20	0.8943433	0
9	23	0.98291624	0
9	25	0.9513988	0
9	26	0.9485419	0
10	2	0.99128735	0
10	4	0.80634487	0
10	5	0.9266354	0
10	7	0.90994287	0
10	12	0.87730664	0
10	13	0.8709399	0
10	17	0.98209196	0
10	22	0.8517989	0
10	27	0.87218016	0
10	28	0.95990646	0
11	35	0.8835354	0
11	2	0.8984823	0
11	5	0.8963588	0
11	8	0.9166434	0
11	10	0.8874638	0
11	20	0.85156405	0
11	26	0.93585926	0
11	27	0.8509801	0
11	28	0.9556944	0
11	29	0.9148299	0
12	33	0.9952152	0
12	4	0.95567834	0
12	7	0.8873052	0
12	13	0.9205641	0
12	15	0.90678644	0
12	16	0.86461234	0
12	17	0.9810864	0
12	18	0.999708	0
12	19	0.65389955	0
12	23	0.8887677	0
13	2	0.97887754	0
13	4	0.87364733	0
13	5	0.94158083	0
13	11	0.88468856	0
13	16	0.91247654	0
13	21	0.9601852	0
13	23	0.8903418	0
13	24	0.8797611	0
13	27	0.9699791	0
13	28	0.8635453	0
14	33	0.8984816	0
14	3	0.8448978	0
14	8	0.8961468	0
14	13	0.9179499	0
14	23	0.9781505	0
14	25	0.94329363	0
15	30	0.95206034	0
15	34	0.6685372	0
15	3	0.8239121	0
15	4	0.9058448	0
15	6	0.9217011	0
15	7	0.8929158	0
15	11	0.985164	0
15	14	0.9739166	0
15	16	0.9459601	0
15	18	0.6984385	0
15	20	0.99024624	0
15	21	0.8990062	0
15	23	0.9318296	0
16	1	0.9540409	0
16	4	0.98839325	0
16	10	0.85281473	0
16	11	0.87694556	0
16	14	0.940634	0
16	23	0.92354524	0
16	28	0.97328556	0
17	1	0.8622354	0
17	2	0.92609257	0
17	4	0.81152695	0
17	6	0.926857	0
17	7	0.8943205	0
17	11	0.89875513	0
17	13	0.9612944	0
17	14	0.930037	0
17	20	0.98950493	0
17	25	0.91564107	0
18	34	0.97335047	0
18	2	0.9143484	0
18	3	0.9703996	0
18	4	0.87583977	0
18	5	0.88857895	0
18	6	0.85118824	0
18	10	0.8901473	0
18	11	0.99145186	0
18	13	0.97694254	0
18	14	0.8639178	0
18	16	0.86894727	0
18	22	0.702586	0
19	35	0.99345183	0
19	1	0.94650495	0
19	4	0.93808407	0
19	5	0.8801394	0
19	7	0.9056293	0
19	8	0.9391209	0
19	11	0.99774814	0
19	13	0.9341529	0
19	14	0.9171931	0
19	20	0.88871	0
19	21	0.88537437	0
19	22	0.9673268	0
19	23	0.9390405	0
19	25	0.90707886	0
19	26	0.6676989	0
19	28	0.70458394	0
20	35	0.9457468	0
20	2	0.9674222	0
20	3	0.99723697	0
20	12	0.92012244	0
20	13	0.9245045	0
20	14	0.6983548	0
20	21	0.87294763	0
20	23	0.881968	0
21	1	0.98992187	0
21	8	0.8406825	0
21	10	0.9424839	0
21	12	0.96067864	0
21	14	0.9295645	0
21	17	0.9134143	0
21	25	0.9035395	0
22	32	0.880075	0
22	7	0.95015085	0
22	11	0.98487365	0
22	12	0.8572752	0
22	13	0.9951663	0
22	16	0.99815416	0
22	17	0.99387246	0
22	21	0.95987934	0
22	27	0.973805	0
22	28	0.8520036	0
23	34	0.9544379	0
23	2	0.9239191	0
23	4	0.9327725	0
23	10	0.8848408	0
23	11	0.984154	0
23	17	0.9983863	0
23	22	0.8652997	0
24	31	0.9311162	0
24	35	0.9253796	0
24	1	0.9311732	0
24	2	0.9581572	0
24	7	0.88371044	0
24	8	0.976521	0
24	12	0.8712283	0
24	14	0.9489327	0
24	16	0.9080192	0
24	20	0.88916004	0
24	22	0.90274686	0
24	23	0.8812844	0
24	26	0.9253857	0
24	29	0.8715467	0
25	35	0.99643064	0
25	1	0.9471089	0
25	4	0.9914916	0
25	8	0.9222848	0
25	10	0.90134317	0
25	11	0.8811114	0
25	13	0.9528105	0
25	16	0.897305	0
25	18	0.9637885	0
25	20	0.94893026	0
25	23	0.978249	0
25	29	0.79662573	0
26	31	0.95353967	0
26	2	0.9180711	0
26	4	0.91336083	0
26	7	0.9577484	0
26	8	0.91395795	0
26	10	0.93385834	0
26	15	0.9153229	0
26	17	0.972475	0
26	20	0.8500727	0
26	21	0.9080281	0
26	23	0.9072919	0
26	25	0.87776774	0
27	8	0.88482976	0
27	14	0.9322682	0
27	16	0.9049316	0
27	17	0.89053947	0
27	23	0.94719523	0
27	24	0.8871393	0
27	25	0.9414052	0
27	26	0.8557875	0
27	29	0.91091055	0
28	35	0.7730222	0
28	3	0.99044245	0
28	4	0.8899454	0
28	7	0.9277012	0
28	8	0.9423789	0
28	12	0.9182753	0
28	17	0.9638935	0
28	18	0.9258959	0
28	20	0.9976728	0
28	21	0.94724816	0
28	23	0.96612525	0
28	24	0.8609397	0
28	25	0.9974497	0
28	26	0.9319084	0
28	27	0.9616499	0
29	4	0.96033025	0
29	5	0.8555064	0
29	7	0.9377777	0
29	9	0.9865157	0
29	13	0.8970818	0
29	17	0.66463196	0
29	18	0.86889195	0
29	20	0.90170044	0
29	21	0.95812124	0
29	22	0.89041567	0
29	23	0.8598034	0
29	26	0.8504863	0
29	28	0.859165	0
30	39	0.9637529	0
30	41	0.9659084	0
30	42	0.8689067	0
30	43	0.94995207	0
30	45	0.86473626	0
30	47	0.99788666	0
30	34	0.878927	0
31	36	0.7930665	0
31	37	0.8879806	0
31	40	0.91312355	0
31	42	0.8796004	0
31	43	0.902566	0
31	44	0.9837673	0
31	45	0.8618706	0
31	47	0.9693997	0
31	30	0.89246535	0
32	36	0.88062274	0
32	39	0.98425114	0
32	40	0.9696456	0
32	41	0.969605	0
32	42	0.89180154	0
32	43	0.878256	0
32	45	0.99828434	0
32	46	0.8629142	0
33	36	0.8832125	0
33	37	0.9972099	0
33	38	0.8515575	0
33	42	0.89950114	0
33	44	0.86392987	0
33	46	0.96968794	0
33	30	0.8742645	0
33	32	0.8872725	0
34	37	0.76630944	0
34	38	0.88805664	0
34	40	0.8956262	0
34	41	0.9899359	0
34	43	0.97022635	0
34	45	0.93292785	0
34	31	0.8641652	0
34	32	0.8588783	0
35	36	0.9077089	0
35	42	0.939757	0
35	44	0.6688583	0
35	45	0.75247395	0
35	46	0.9113987	0
35	30	0.9815233	0
35	31	0.87844324	0
35	33	0.9415751	0
35	34	0.8532438	0
36	50	0.9612465	0
36	38	0.98577386	0
37	36	0.9207285	0
37	38	0.939457	0
37	39	0.88447165	0
37	44	0.9837644	0
37	47	0.87763256	0
38	48	0.96633	0
38	49	0.7875948	0
39	49	0.8133301	0
39	38	0.9502816	0
39	47	0.89590573	0
40	48	0.9230396	0
40	49	0.9018864	0
40	36	0.8909567	0
40	38	0.953682	0
41	49	0.65516156	0
41	40	0.96756494	0
41	46	0.9557998	0
41	47	0.9210787	0
42	48	0.8782451	0
42	50	0.852921	0
42	37	0.89988875	0
42	38	0.9974748	0
42	39	0.6635965	0
42	40	0.999823	0
42	44	0.8945113	0
43	49	0.9062302	0
43	37	0.8904744	0
43	39	0.86927426	0
43	40	0.9584362	0
43	47	0.92455286	0
44	49	0.9292222	0
44	38	0.99688953	0
44	39	0.86214316	0
45	50	0.9600912	0
45	36	0.72971404	0
45	37	0.9313846	0
45	47	0.89618444	0
46	36	0.88478625	0
47	49	0.8734426	0
47	36	0.78860456	0
47	40	0.9968844	0
47	44	0.91596586	0
47	46	0.87621605	0
48	51	0.975776	0
48	52	0.9901046	0
49	52	0.99830467	0
50	51	0.9040542	0
50	52	0.86256266	0
50	48	0.8501066	0
51	53	0.8750187	0
51	54	0.89325345	0
51	55	0.93051267	0
51	56	0.9958662	0
51	57	0.93935996	0
51	58	0.9755897	0
51	59	0.9088548	0
51	60	0.9543043	0
52	53	0.85224265	0
52	54	0.9114584	0
52	55	0.9807001	0
52	56	0.8911407	0
52	57	0.91528326	0
52	58	0.8888698	0
52	59	0.9415077	0
52	60	0.8549294	0
53	61	0.9731783	0
53	62	0.89574295	0
53	63	0.8792015	0
53	65	0.8805751	0
53	67	0.89658153	0
53	68	0.9613732	0
53	70	0.89917487	0
53	72	0.73001426	0
53	73	0.93353266	0
53	74	0.9106824	0
53	76	0.90923387	0
53	79	0.92040884	0
53	56	0.88696843	0
54	61	0.9557781	0
54	64	0.8795696	0
54	66	0.9062048	0
54	69	0.8765313	0
54	71	0.90123653	0
54	73	0.9150367	0
54	74	0.9730072	0
54	76	0.9614045	0
54	59	0.89473325	0
55	65	0.9427478	0
55	66	0.9297263	0
55	67	0.98252034	0
55	68	0.8518937	0
55	70	0.9362121	0
55	73	0.9655506	0
55	78	0.95999944	0
55	53	0.95747375	0
55	54	0.86406785	0
55	60	0.85293204	0
56	65	0.95961905	0
56	67	0.84390455	0
56	71	0.89949167	0
56	72	0.98067	0
56	75	0.9867361	0
56	78	0.854009	0
56	79	0.8703661	0
56	54	0.86522746	0
57	63	0.6916095	0
57	67	0.8977438	0
57	73	0.89012516	0
57	78	0.9611557	0
57	53	0.8933637	0
57	54	0.9281039	0
57	55	0.8893665	0
57	59	0.9814303	0
57	60	0.88535035	0
58	62	0.9883978	0
58	65	0.8757484	0
58	66	0.6862665	0
58	68	0.889591	0
58	77	0.765306	0
58	78	0.96180564	0
58	79	0.7499028	0
58	53	0.9702278	0
58	55	0.86697143	0
59	61	0.9308608	0
59	62	0.94964355	0
59	64	0.9086469	0
59	67	0.9796333	0
59	69	0.98013157	0
59	73	0.9650521	0
59	74	0.9354553	0
59	75	0.91873294	0
59	76	0.8770379	0
59	53	0.92886907	0
59	55	0.9542919	0
59	56	0.92803085	0
59	58	0.9549507	0
60	65	0.8397466	0
60	67	0.93334746	0
60	68	0.8711144	0
60	71	0.9023994	0
60	74	0.9913411	0
60	76	0.9747101	0
60	77	0.8857056	0
60	53	0.95940864	0
60	54	0.917614	0
60	56	0.93003917	0
60	58	0.9892137	0
60	59	0.9946898	0
61	62	0.87534	0
61	68	0.91549325	0
61	76	0.94183326	0
61	77	0.78574	0
62	68	0.6944503	0
63	64	0.90342605	0
63	66	0.8630463	0
63	68	0.9988671	0
63	70	0.9969283	0
63	72	0.91575116	0
63	75	0.69796693	0
63	78	0.96101236	0
64	61	0.94616413	0
64	62	0.94429773	0
64	70	0.8054043	0
64	71	0.8758399	0
64	76	0.89273345	0
65	61	0.92007124	0
65	62	0.9220339	0
65	64	0.7236761	0
65	66	0.8683408	0
65	78	0.97739255	0
65	79	0.8511119	0
66	61	0.77484167	0
66	62	0.92294556	0
66	64	0.98565894	0
67	64	0.87950855	0
67	66	0.88044333	0
67	70	0.91441697	0
67	72	0.96390057	0
67	78	0.8640041	0
67	79	0.91209394	0
68	64	0.9708996	0
68	66	0.92381793	0
68	72	0.94205225	0
68	75	0.8237866	0
69	61	0.90225077	0
69	70	0.9772519	0
69	72	0.971918	0
69	74	0.97029656	0
69	75	0.9526329	0
70	61	0.9412925	0
70	62	0.99635667	0
70	66	0.86462367	0
70	68	0.8508633	0
70	74	0.9160847	0
70	75	0.8859203	0
71	62	0.9125387	0
71	66	0.8039103	0
71	68	0.89303637	0
71	70	0.9930271	0
71	78	0.9139252	0
72	61	0.97835666	0
72	62	0.98361695	0
72	64	0.97386724	0
72	66	0.6903753	0
72	70	0.945099	0
72	71	0.8803804	0
72	79	0.99175304	0
73	62	0.989462	0
73	64	0.9503235	0
73	66	0.94421774	0
73	70	0.9411574	0
73	72	0.9652019	0
73	74	0.98991096	0
73	75	0.6633496	0
73	78	0.89057904	0
74	66	0.9916133	0
74	72	0.9354731	0
74	78	0.971753	0
75	61	0.9473301	0
75	62	0.9928931	0
75	64	0.9158214	0
75	71	0.8572859	0
75	72	0.9231126	0
75	76	0.66266805	0
76	62	0.95340997	0
76	68	0.9843155	0
77	70	0.81496793	0
77	75	0.9666416	0
77	78	0.7824168	0
78	61	0.9289724	0
78	62	0.9137026	0
78	66	0.969929	0
78	68	0.83764863	0
78	69	0.8595157	0
78	70	0.9634531	0
78	76	0.9309677	0
79	61	0.9883857	0
79	62	0.94335896	0
79	63	0.95183825	0
79	64	0.8747213	0
79	66	0.9361787	0
79	71	0.98224497	0
79	75	0.86280614	0
79	78	0.8542401	0
# Tree 
# node parent parent parent ... 
79	58	56	53	
78	57	58	55	56	
77	60	58	
76	54	60	53	59	
75	59	56	
74	59	53	60	54	
73	57	59	54	55	53	
72	56	53	
71	54	56	60	
70	53	55	
69	54	59	
68	58	53	60	55	
67	57	60	56	59	55	
66	54	58	55	
65	53	55	60	56	58	
64	59	54	
63	57	53	
62	53	58	59	
61	53	54	59	
60	51	52	
59	52	51	
58	51	52	
57	52	51	
56	51	52	
55	52	51	
54	52	51	
53	52	51	
52	49	48	50	
51	48	50	
50	36	45	42	
49	43	39	38	44	41	
48	38	40	42	
47	31	30	
46	33	32	35	
45	32	35	34	30	31	
44	31	35	33	
43	32	30	34	31	
42	33	30	32	35	31	
41	30	32	34	
40	32	31	34	
39	30	32	
38	33	34	
37	31	33	34	
36	31	32	35	33	
35	20	25	19	5	8	
34	3	15	18	23	
33	14	3	12	4	
32	22	6	
31	26	24	7	
30	15	7	3	
29	0	
28	0	
27	0	
26	0	
25	0	
24	0	
23	0	
22	0	
21	0	
20	0	
19	0	
18	0	
17	0	
16	0	
15	0	
14	0	
13	0	
12	0	
11	0	
10	0	
9	0	
8	0	
7	0	
6	0	
5	0	
4	0	
3	0	
2	0	
1	0	
